Name,Count
A. Black,3
A. Borland,2
A. Clark,8
A. Costa,2
A. Gordon,3
A. Gutierrez,3
A. Hayes,5
A. Jones,16
A. King,6
A. Kirby,2
A. Li,3
A. Miller,8
A. Morris,3
A. Myers,4
A. Reed,4
A. Robinson,5
A. Smith,34
A. Watts,3
A. Wilson,8
Aaron Adams,2
Aaron Aguilar,4
Aaron Allen,2
Aaron Barrera,3
Aaron Baxter,2
Aaron Bishop,2
Aaron Butler,3
Aaron Byrne,3
Aaron Cardenas,2
Aaron Carroll,2
Aaron Carter,4
Aaron Cooper,2
Aaron Davis,8
Aaron Dixon,3
Aaron Fleming,2
Aaron Flores,6
Aaron Harden,2
Aaron Hopkins,2
Aaron Johnson,19
Aaron King,6
Aaron Lee,9
Aaron Leon,2
Aaron Lynch,2
Aaron Martin,7
Aaron Martinez,7
Aaron Matthews,3
Aaron Moody,2
Aaron Phillips,2
Aaron Ramos,3
Aaron Salazar,2
Aaron Sims,3
Aaron Stroud,2
Aaron Tate,2
Aaron Thomas,7
Aaron Thompson,2
Aaron Todd,2
Aaron Wheeler,2
Abby Esquivel,3
Abby Hughes,2
Abby Smith,4
Abdullah Alhammadi,2
Abigail Bush,2
Abraham Ramirez,3
Adam Anderson,5
Adam Barber,2
Adam Baird,3
Adam Beebe,2
Adam Bell,2
Adam Bennett,4
Adam Bentley,3
Adam Berry,2
Adam Browne,3
Adam Burke,3
Adam Campbell,3
Adam Carroll,2
Adam Contreras,2
Adam Cooper,2
Adam Davies,3
Adam Day,3
Adam Drover,2
Adam Elkins,3
Adam Garcia,5
Adam Gardner,5
Adam Guerrero,3
Adam Hawkins,3
Adam Henson,2
Adam Holmes,3
Adam Horn,2
Adam Howell,3
Adam Jackson,5
Adam James,5
Adam Jones,11
Adam Kennedy,4
Adam Mack,2
Adam Miller,11
Adam Murray,2
Adam Nolan,2
Adam Reed,2
Adam Roberts,2
Adam Romero,3
Adam Saunders,2
Adam Scott,3
Adam Shaw,2
Adam Stone,2
Adam Thomas,5
Adam Thompson,8
Adam Ward,4
Adam Williams,6
Adam Wood,3
Adam Wright,4
Adam Young,2
Aditya Sharma,2
Adrian Cooper,2
Adrian Cruz,2
Adrian Hernandez,7
Adrian Herrera,4
Adrian Lopez,12
Adrian Martinez,18
Adrian Olsen,2
Adrian Vargas,2
Ahmad Ali,4
Aiden Collins,2
Aiden Johnson,2
Aidan Smith,2
Aidan Villanueva,3
AJ Jones,2
Aj Valdez,2
Akashdeep,2
Al Brown,2
Alan Chan,2
Alan Hernandez,10
Alan Howard,2
Alan Lewis,3
Alan Sanchez,2
Alan Wilson,2
Alan Zhou,2
Alasdair MacLeod,2
Albert Mata,3
Albina Epshteyn,2
Alejandra Reyes,3
Alejandro Gutiérrez,2
Alejandro Maldonado,3
Alejandro Perez,3
Aleksandr Aleksandrov,12
Aleksandr Berezin,7
Aleksandr Dementev,2
Aleksandr Eremin,5
Aleksandr Eskin,2
Aleksandr Fomichev,4
Aleksandr Kondratyev,5
Aleksandr Koshelev,5
Aleksandr Kuznetsov,47
Aleksandr Lednev,2
Aleksandr Malkov,5
Aleksandr Marchenko,4
Aleksandr Miroshnichenko,2
Aleksandr Pirogov,2
Aleksandr Plotnikov,3
Aleksandr Popov,39
Aleksandr Sergeev,19
Aleksandr Shevchenko,8
Aleksandr Smolkin,2
Aleksandr Starodubov,2
Aleksandr Tretyakov,3
Aleksandr Trusov,3
Aleksey Alekseenko,3
Aleksey Grachev,3
Aleksey Kolenko,2
Aleksey Kozlov,11
Aleksey Kuzmenko,2
Aleksey Malyshev,4
Aleksey Nikulin,7
Aleksey Pavlovskiy,2
Aleksey Petukhov,7
Aleksey Popov,22
Aleksey Sitnikov,4
Aleksey Solovyev,11
Aleksey Tischenko,2
Aleksey Vasilev,13
Alena Podelko,2
Alena Vasileva,3
Alessandro Barbero,2
Alex Acuna,3
Alex Adams,2
Alex Aguilar,5
Alex Alaniz,2
Alex Allen,5
Alex Alvarez,5
Alex Anderson,4
Alex Avalos,2
Alex Barron,2
Alex Bates,2
Alex Bazan,3
Alex Braun,2
Alex Buck,2
Alex Bustamante,3
Alex Butler,3
Alex Campbell,9
Alex Chen,3
Alex Clayton,2
Alex Cook,4
Alex Cuevas,4
Alex Davies,3
Alex Dean,2
Alex Diaz,5
Alex Edwards,4
Alex Ellis,2
Alex Estrada,3
Alex Forrest,2
Alex Franco,2
Alex Garcia,26
Alex Georgeou,2
Alex Gonzales,8
Alex Gonzalez,9
Alex Guerrero,4
Alex Harris,3
Alex Hartman,2
Alex Hall,4
Alex Hernandez,25
Alex Hicks,3
Alex Howe,2
Alex Ingram,3
Alex Jackson,4
Alex Jensen,2
Alex Jimenez,4
Alex Johnson,13
Alex Kent,2
Alex Lam,3
Alex Lau,2
Alex Lawson,2
Alex Lee,4
Alex Lopez,13
Alex Low,2
Alex Lowe,2
Alex Lyons,3
Alex Martin,12
Alex Marshall,2
Alex Martinez,16
Alex McCarthy,3
Alex McMahon,2
Alex Mendoza,5
Alex Michael,2
Alex Miller,4
Alex Mitchell,3
Alex Montez,2
Alex Morrison,2
Alex Munn,3
Alex Munoz,3
Alex Nelson,3
Alex Newman,2
Alex Ochoa,2
Alex Ortiz,6
Alex Palmer,3
Alex Phillips,2
Alex Quintero,3
Alex Ramos,6
Alex Rivera,5
Alex Roberson,2
Alex Robertson,3
Alex Robinson,2
Alex Rodriguez,19
Alex Rogers,3
Alex Rose,2
Alex Saenz,2
Alex Salazar,2
Alex Schmidt,2
Alex Schutz,2
Alex Shaw,2
Alex Smith,16
Alex Soto,3
Alex Stump,2
Alex Torres,7
Alex Trejo,2
Alex Trinidad,2
Alex Turner,4
Alex Villanueva,2
Alex Wallace,2
Alex Wells,2
Alex White,4
Alex Wiley,2
Alex Williams,11
Alex Willis,2
Alex Wilson,6
Alex Wright,5
Alex Yang,2
Alex Young,4
Alexander Gonzalez,4
Alexander Gutierrez,3
Alexander Hickman,2
Alexander Jackson,3
Alexander Kaufman,3
Alexander Kim,4
Alexander Krämer,3
Alexander Nguyen,6
Alexander Perez,7
Alexander Ross,2
Alexander Santos,2
Alexander Williams,4
Alexandra Foster,2
Alexandra Johnson,4
Alexis Alfaro,2
Alexis Ayala,2
Alexis Chavez,2
Alexis Delgado,4
Alexis Flores,5
Alexis Garcia,9
ALexis Gomez,4
Alexis Gonzalez,7
Alexis Guajardo,2
Alexis Guevara,2
Alexis Gutierrez,3
Alexis Guzmán,6
Alexis Iglesias,2
Alexis Jackson,2
Alexis Jones,2
Alexis Lara,2
Alexis Lopez,4
Alexis Martinez,16
Alexis Ortiz,2
Alexis Perez,5
Alexis Porras,2
Alexis Rangel,2
Alexis Reyes,2
Alexis Rivas,2
Alexis Rodriguez,9
Alexis Sanchez,2
Alexis Soto,3
Alicia Bell,2
Alicia Carter,2
Alicia Smith,2
Alik Alifkhanov,2
Alina Gordeeva,2
Alina Kostina,2
Alina Yakovleva,2
Alison Wright,2
Allen Clark,4
Allen Davis,6
Allen Fisher,2
Allen Smith,4
Allison Gray,2
Allison Kelly,2
Allison Stewart,2
Allison Wilson,2
Alondra Martinez,6
Alondra Salinas,2
Alvin Rodriguez,2
Alyssa Brown,5
Alyssa Canales,2
Alyssa Peterson,2
Alyssa Smith,3
Aman,3
Amanda Anderson,2
Amanda Brown,10
Amanda Clark,2
Amanda Cole,2
Amanda Kelly,3
Amanda Lawrence,2
Amanda Long,2
Amanda Martin,5
Amanda O'Connor,2
Amanda Olivarez,2
Amanda Perez,3
Amanda Reilly,2
Amanda Rodriguez,6
Amanda Smith,8
Amanda Thompson,4
Amanda Torres,2
Amanda Trevino,2
Amanda Turner,2
Amanda Walker,3
Amanda West,2
Amanda Williams,3
Amardeep Singh,2
Amber Davis,2
Amber House,2
Amber Lopez,2
Amber Watson,3
Amelia Fox,2
Amie Nguyen,2
Amit Rai,2
Amy Brown,2
Amy Evans,4
Amy Hudson,2
Amy Hughes,4
Amy Martin,3
Amy Moran,3
Amy O'Neill,2
Amy Sanders,2
Amy Smith,6
Amy Wilson,2
An Nguyen,4
Ana Perez,3
Anar Aliyev,2
Anastasiya Bondarenko,3
Anastasiya Danilova,3
Anastasiya Derevyanko,3
Anastasiya Kalashnikova,2
Anastasiya Kalinina,5
Anastasiya Kozlova,4
Anastasiya Kravchenko,2
Anastasiya Kulishova,2
Anastasiya Makarova,3
Anastasiya Mankevich,2
Anastasiya Melnikova,3
Anastasiya Nekrasova,2
Anastasiya Pasichnik,2
Anastasiya Polyakova,4
Anastasiya Romanova,2
Anastasiya Savchenko,2
Anastasiya Semenova,7
Anastasiya Zakharchenko,2
Anatoliy Baranov,2
Anatoliy Cherepanov,2
Anatoliy Fedchenko,2
Anatoliy Gorbunov,2
Anatoliy Klimenko,2
Anatoliy Koval',2
Anatoliy Panchenko,3
Anatoliy Pankov,2
Anatoliy Pavlov,4
Anatoliy Volkov,3
Anatoliy Yankovskiy,2
André Garcia,4
Andrea Gonzalez,4
Andrea Neumann,2
Andrea Orlandi,2
Andrea Russo,2
Andrea Ventura,2
Andrea Vila,2
Andreas Kastner,2
Andreas Nilsson,2
Andres Gonzales,2
Andres Lucero,2
Andres Ramos,3
Andres Ruiz,4
Andrew Adams,5
Andrew Allen,6
Andrew Baker,4
Andrew Barber,3
Andrew Bennett,3
Andrew Berry,3
Andrew Billings,3
Andrew Bonner,3
Andrew Brown,20
Andrew Carter,2
Andrew Collins,2
Andrew Cooper,5
Andrew Davis,9
Andrew Dixon,2
Andrew Fox,2
Andrew French,3
Andrew Gonzales,5
Andrew Greene,2
Andrew Gregory,2
Andrew Hall,9
Andrew Hamel,3
Andrew Harris,5
Andrew Hawkins,3
Andrew Hay,3
Andrew Hernandez,8
Andrew Irving,2
Andrew Jackson,6
Andrew Johnson,17
Andrew Jung,2
Andrew Kelleher,2
Andrew Kim,4
Andrew Lam,2
Andrew Lamb,3
Andrew Le,3
Andrew Lewis,6
Andrew Lim,3
Andrew Lynch,3
Andrew Marsh,2
Andrew Martin,12
Andrew McDonald,4
Andrew Miller,15
Andrew Murphy,5
Andrew Ngo,2
Andrew Nguyen,16
Andrew Nicholson,2
Andrew O'Connor,3
Andrew Peters,3
Andrew Platt,2
Andrew Pond,2
Andrew Rae,2
Andrew Roberts,5
Andrew Rose,3
Andrew Ross,2
Andrew Ryan,3
Andrew Sharp,2
Andrew Shaw,2
Andrew Smith,28
Andrew Stewart,4
Andrew Tang,3
Andrew Thompson,7
Andrew Tucker,5
Andrew Wallace,2
Andrew Wang,4
Andrew Ward,5
Andrew Watt,2
Andrew Webber,2
Andrew Williams,10
Andrew Williamson,4
Andrew Wilson,10
Andrew Wolfe,2
Andrew Wright,4
Andrew Young,6
Andrews,7
Andrey Aksenov,4
Andrey Belyaev,6
Andrey Chesnokov,4
Andrey Elkin,2
Andrey Kim,5
Andrey Konovalov,5
Andrey Kuzmichev,3
Andrey Lavrentyev,2
Andrey Morozov,11
Andrey Pankov,4
Andrey Pavlov,16
Andrey Timofeev,2
Andrey Velchev,2
Andrey Vorobyev,2
Andrey Voronkov,2
Andrey Zubarev,2
Andriy Glebov,2
Andriy Koval',3
Andriy Litvin,2
Andy Cheng,3
Andy Davies,2
Andy Gomez,4
Andy Hernandez,4
Andy Huang,4
Andy Jackson,4
Andy Miller,3
Andy Murray,2
Andy Parker,3
Andy Tran,8
Andy Williams,2
Angel Ceja,3
Angel Chavez,2
Angel Esquivel,2
Angel Flores,3
Angel Garcia,14
Angel Gonzales,5
Angel Gonzalez,9
Angel Guevara,2
Angel Hernandez,15
Angel Jimenez,2
Angel Longoria,4
Angel Lopez,4
Angel Martinez,17
Angel Mendez,2
Angel Posadas,2
Angel Ramos,4
Angel Rodríguez,16
Angel Romero,2
Angel Sanchez,8
Angel Tamayo,2
Angel Torres,7
Angela Fuchs,2
Angela Garcia,2
Angela Taylor,2
Angelo Garcia,2
Angelina Ochoa,2
Anh Phan,2
Ann Morgan,2
Anna Bailey,2
Anna Gonzalez,5
Anna Green,2
Anna Ignatyuk,2
Anna Ilina,2
Anna Ivanova,18
Anna Karissa Reyes,2
Anna Lee,2
Anna Nikitina,5
Anna Nikolaeva,2
Anna Parygina,2
Anna Trofimova,3
Anni Rasanen,2
Anoop Singh,2
Anthony Andrews,2
Anthony Bui,4
Anthony Carter,4
Anthony Clark,8
Anthony Collins,3
Anthony Cooper,7
Anthony Davis,7
Anthony Damico,2
Anthony Finn,3
Anthony Green,3
Anthony Hambric,2
Anthony Harris,4
Anthony Hill,6
Anthony Hu,2
Anthony Jones,13
Anthony Lee,5
Anthony LoPresti,2
Anthony Loria,2
Anthony Martinez,27
Anthony Morales,2
Anthony Nichols,3
Anthony Nguyen,10
Anthony Oliveira,2
Anthony Perkins,2
Anthony Perry,3
Anthony Powell,3
Anthony Rodriguez,14
Anthony Salas,3
Anthony Smith,16
Anthony Tassin,2
Anthony Thompson,5
Anthony Tran,9
Anthony Truong,2
Anthony White,5
Anthony Young,4
Antoine Martin,2
Anton Alekseev,3
Anton Ermolov,2
Anton Kolesnikov,3
Anton Lysenko,3
Anton Nikolaev,2
Anton Ovchinnikov,3
Anton Petukhov,3
Anton Terentyev,3
Antonio Cruz,3
Antonio Rivera,2
Antonio Soto,3
Antonio Torres,4
April Garcia,3
April Smith,2
Ariana Perez,5
Ariel Garcia,2
Ariel Hernandez,3
Ariel Lopez,4
Ariel Martinez,4
Ariel Munoz,2
Artem Afanasyev,2
Artem Ivankov,2
Artem Ivanov,13
Artem Kim,2
Artem Kornev,2
Artem Kovalchuk,2
Artem Mikheev,2
Artem Mirzoyan,3
Artem Novikov,5
Artem Petrov,13
Artem Safonov,4
Artem Trofimov,2
Artem Zaytsev,9
Arthur Mark Fowler Jr,2
Artur Ogly,2
Artur Sarkisyan,2
Arturo Gonzales,2
Asa Wallin,2
Ash Roberts,2
Ashley Armstrong,2
Ashley Brown,7
Ashley Butler,2
Ashley Evans,2
Ashley Fuller,2
Ashley Garcia,8
Ashley Gibson,4
Ashley Gonzalez,5
Ashley Gray,3
Ashley Horner,2
Ashley Jones,5
Ashley Larson,3
Ashley Lewis,3
Ashley Lopez,3
Ashley Morris,2
Ashley Orth,2
Ashley Parker,3
Ashley Ramirez,4
Ashley Sanders,2
Ashley Schultz,2
Ashley Smith,2
Ashley Sutton,2
Ashley Taylor,5
Ashley Walsh,2
Ashley Watson,2
Ashley Williams,2
Ashley Wilkinson,2
Ashley Wilson,3
Ashley Wong,2
Ashton Brown,2
Ashton Glenn,2
Ashton Marquez,2
Ashton Miller,3
Ashton Smith,6
Ashton Strange,3
Attila Juhasz,2
Atkinson,4
Aubrey Barnes,2
Aubrey Williams,2
Aubrey Williamson,2
Audrey Miller,2
Austen Flores,2
Austin Bell,3
Austin Brown,4
Austin Carlson,2
Austin Cooper,4
Austin Dodd,2
Austin Harrison,2
Austin Hill,5
Austin Johnson,7
Austin Martin,5
Austin Miller,11
Austin Oliver,3
Austin Perkins,3
Austin Taylor,9
Austin Turner,5
Austin Walker,7
Austin Wilson,9
Avary Davis,2
Avery Anderson,2
Avery Brown,4
Avery Clark,3
Avery Davis,3
Avery Jackson,2
Avery Miller,3
Avery Rodriguez,4
Avery Wood,2
Avtar Singh,5
Axel Hernandez,4
B. Beasley,3
B. Burton,6
B. Crow,3
B. Dunn,4
B. Hall,12
B. Haskins,2
B. Laney,2
B. Leach,3
B. Lynch,2
B. Miller,24
B. Moore,14
B. Oden,4
B. Owen,3
B. Owens,6
B. Ray,5
B. Riggs,6
B. Rush,4
B. Ryan,2
B. Simpson,4
B. Stewart,6
B. Walsh,3
B. Wood,2
Bailey Allen,3
Bailey Barrett,2
Bailey Campbell,2
Bailey DeViney,2
Bailey Hughes,2
Bailey Jones,4
Bailey Martin,2
Bailey Robinson,2
Bailey Smith,4
Bailey White,2
Baljit Singh,6
Barbara Lee,2
Barry Evans,3
Barry Mitchell,2
Barry Smith,3
Barry Walsh,2
Barry Wright,2
Bates,2
Beatriz Azevedo,2
Beau Moore,3
Ben Burgess,2
Ben Burns,2
Ben Burton,2
Ben Carter,3
Ben Chu,2
Ben Coleman,2
Ben Crawford,2
Ben Davis,5
Ben Davies,2
Ben Evans,4
Ben Gibbs,3
Ben Gibson,5
Ben Greer,2
Ben Hammond,2
Ben Harris,3
Ben Harrison,2
Ben Hogan,2
Ben Holmes,2
Ben Jackson,3
Ben Johnson,11
Ben Jones,8
Ben Kaufman,2
Ben Kovacs,2
Ben Larson,5
Ben McDonald,3
Ben Miller,4
Ben Mills,2
Ben Nelson,3
Ben Parkinson,2
Ben Phillips,3
Ben Reese,2
Ben Roberts,6
Ben Scott,5
Ben Smith,13
Ben Taylor,7
Ben Thomson,3
Ben Walker,3
Ben Wallace,3
Ben White,4
Ben Williams,5
Ben Wright,4
Benedikt Magnússon,2
Benjamin Clarke,2
Benjamin Clifford,3
Benjamin Johnson,5
Benjamin Moore,2
Benjamin Noel,2
Benjamin Smith,8
Benjamin Wilson,3
Berry,6
Beth Taylor,3
Beth Thomas,3
Bill Allen,2
Bill Bradford,5
Bill Brown,7
Bill Cook,2
Bill Dunn,4
Bill Grant,2
Bill Griffin,2
Bill Henderson,2
Bill Jones,2
Bill Kelly,3
Bill Miller,3
Bill Porter,2
Bill Taylor,5
Bill West,3
Bill Winter,2
Billy Watson,3
Blair Bennett,2
Blake Barrett,2
Blake Johnson,10
Blake Newman,2
Blake Richards,2
Blake Rogers,3
Blake Taylor,2
Blake Walters,2
Bob Evans,4
Bob Gilmore,2
Bob Morgan,2
Bob Nelson,2
Bob Seymour,2
Bob Sullivan,2
Bob Zaworski,2
Bobby Adams,3
Bobby Moore,3
Bobby Morgan,2
Bobby Wilson,4
Bogdan Ivanov,2
Bolin,2
Boris Tsvetkov,2
Brad Abbott,2
Brad Baker,2
Brad Curtis,2
Brad Drummond,2
Brad Evans,3
Brad Fox,2
Brad Johnson,7
Brad Lewis,3
Brad Olson,5
Brad Smith,7
Brad Wagner,2
Brad Webster,2
Brad Williams,4
Bradley Davis,3
Bradley Horne,2
Bradley King,2
Bradley Mitchell,3
Bradley Richardson,2
Bradley Smith,6
Brady Stewart,2
Braeden Smith,2
Brandon Allen,8
Brandon Barber,2
Brandon Boyd,4
Brandon Byrd,3
Brandon Clark,8
Brandon Erickson,2
Brandon Farrow,2
Brandon Gardner,5
Brandon Greene,3
Brandon Harris,4
Brandon Hernandez,12
Brandon Huang,2
Brandon Jackson,15
Brandon Jones,17
Brandon Kelley,2
Brandon Lee,16
Brandon Maddox,2
Brandon Martin,5
Brandon Matthews,3
Brandon McIntyre,2
Brandon Mercer,4
Brandon Morgan,2
Brandon Parker,3
Brandon Perdue,2
Brandon Perez,8
Brandon Peters,2
Brandon Pierce,4
Brandon Price,2
Brandon Ramirez,5
Brandon Reynolds,4
Brandon Rios,2
Brandon Rodriguez,11
Brandon Russell,2
Brandon Scott,4
Brandon Simpson,5
Brandon Stephens,2
Brandon Stevens,3
Brandon Taylor,7
Brandon Tran,3
Brandon Turner,7
Brandon Ward,5
Brandon White,3
Brandon Williams,15
Brandon Wright,5
Brandon Zavala,2
Brayden Walker,3
Bree Smith,2
Brendan Graham,2
Brendan King,2
Brendan McGuire,2
Brendan Murphy,5
Brendon Davis,3
Brent Drake,2
Brent Jones,3
Bret King,2
Brett Johns,3
Brett Scott,2
Brett Williams,2
Brian Bates,3
Brian Bell,2
Brian Bishop,3
Brian Bland,2
Brian Boyer,2
Brian Chambers,2
Brian Chen,5
Brian Clark,4
Brian Connelly,2
Brian Crow,3
Brian Curtis,2
Brian Foster,2
Brian Freeman,2
Brian Goldstein,2
Brian Gonzales,3
Brian Grant,2
Brian Hall,3
Brian Hill,3
Brian Le,6
Brian Lewis,4
Brian Marquez,2
Brian Montague,2
Brian Murphy,3
Brian Nguyen,18
Brian Ong,2
Brian Reynolds,7
Brian Silk,2
Brian Smith,13
Brian Sullivan,6
Brian Tejada,2
Brian White,6
Brian Yan,2
Brianna Garcia,6
Brianna Kelly,2
Brianna King,2
Brianna Paredes,2
Brianna Rodriguez,4
Brianne Chavez,2
Bridget Smith,3
Bridgett Brown,2
Britt Lewis,2
Brittany Armstrong,2
Brittany Rodriguez,4
Brittany Rosales,2
Brittany Smith,5
Brittany Wilson,2
Brock,2
Brock Allen,2
Brock Henderson,2
Brodie Smith,3
Brooke Stewart,2
Brooks,9
Bruce Koch,2
Bruce Miller,3
Bruce Wilson,3
Bruce Roberts,2
Bruno Martinez,2
Bruno Martins,4
Bryan Barrett,2
Bryan Hill,2
Bryan Phung,2
Bryan Simms,2
Bryan Smith,12
Bryan Williams,2
Bryan Wong,2
Bryanna Perez,2
Bryce Hale,2
Bryce Johnson,8
Bryce Scott,3
Bryce Wilson,2
Bryden Wilson,2
Byron Johnson,3
Byron White,2
C Armstrong,2
C. Able,2
C. Alitz,2
C. Brown,35
C. Braun,2
C. Bryant,7
C. Campbell,4
C. Crawford,4
C. Fernandez,3
C. Hess,2
C. Madden,3
C. Magee,2
C. Mitchell,7
C. Morris,5
C. Olson,4
C. Palmer,4
C. Pike,3
C. Ray,3
C. Rowe,3
C. Simmons,3
C. Tucker,2
C. Walker,12
C. Wong,3
C. Wood,3
C. Yates,2
Cade Johnson,6
Caitlin Berry,3
Caitlin Hayes,2
Caitlin Martinez,2
Caitlin Miller,2
Caitlin Moore,2
Caleb Brown,10
Caleb Hunter,2
Caleb MacLeod,2
Caleb Moore,5
Caleb Robinson,3
Caleb Rush,2
Caleb Smith,24
Caleb Watson,2
Caleb Williams,10
Callum Ashton,2
Callum Waters,2
Calvin Nguyen,2
Calvin Smith,3
Camden Jones,2
Camden Miller,2
Cameron Anderson,6
Cameron Baker,4
Cameron Bates,2
Cameron Brown,7
Cameron Cantrell,2
Cameron Collier,2
Cameron Collins,4
Cameron Cook,3
Cameron Cunningham,2
Cameron Davidson,2
Cameron Davis,8
Cameron Ferguson,2
Cameron Gray,5
Cameron Hall,2
Cameron Harmon,2
Cameron Hunt,2
Cameron Jones,7
Cameron Kennedy,3
Cameron King,2
Cameron McLean,2
Cameron Moore,5
Cameron Morris,3
Cameron Murray,2
Cameron Reynolds,2
Cameron Smith,12
Cameron Stepp,2
Cameron Tanguay,2
Cameron Taylor,5
Cameron Turner,4
Cameron Watson,3
Cameron Wells,2
Cameron Williams,12
Carl Berg,2
Carl Johnson,4
Carl Jones,2
Carl King,3
Carl Rogers,2
Carl Thompson,2
Carla Perez,2
Carlos Acosta,4
Carlos Aguilar,7
Carlos Hernandez,19
Carlos Huerta,3
Carlos Martinez,35
Carlos Moreno,3
Carlos Nunez,2
Carlos Olmedo,2
Carlos Ortiz,7
Carlos Perez,10
Carlos Pina,2
Carlos Ramirez,7
Carlos Ramos,2
Carlos Reyes,6
Carlos Rodriguez,14
Carlos Romero,4
Carmen Rodriguez,2
Carol Taylor,2
Carolina Ramos,3
Carolyn Tran,2
Carson Roberts,2
Carson Smith,3
Carson Ward,3
Carter Smith,4
Casey Castillo,2
Casey Clark,4
Casey Coleman,2
Casey Dunn,2
Casey Gamble,2
Casey Hill,2
Casey Jensen,2
Casey Smith,4
Casey Walker,2
Casey Webb,2
Casey Williams,3
Cassidy Smith,2
Cassie Kelly,2
Catherine Hall,2
Catherine White,2
Cecilia Gutierrez,3
Celeste Sanchez,2
Cesar Jimenez,2
Chad Cruse,2
Chad Davis,4
Chad Fleming,2
Chad Holmes,2
Chad Mitchell,3
Chad Parker,2
Chad Walker,2
Chad Ward,3
Chance Cummings,3
Chance Mitchell,2
Chandler Holland,2
Chandler Rogers,2
Chandler Spivey,2
Charles Anderson,2
Charles Gonzales,2
Charles Harris,3
Charles Lambert,2
Charles Lee,3
Charles Montalbano,2
Charles Neal,3
Charles Ortiz,2
Charles Owens,2
Charles Richards,2
Charles Watson,2
Charles Williams,6
Charlie Anderson,2
Charlie Connor,2
Charlie Cook,2
Charlie Evans,3
Charlie Harris,2
Charlie Jones,5
Charlie Knight,2
Charlie Lee,2
Charlie Long,2
Charlie Miller,2
Charlie Mitchell,2
Charlie Nichols,2
Charlie Poole,2
Charlie Simmons,3
Charlie Stevens,2
Charlie Thomas,3
Charlie Williams,3
Charlie Wilson,2
Charlotte Adams,2
Charlotte Anderson,2
Charlotte Clarke,2
Charlotte Thomas,2
Charnie Tucker,2
Chase Martin,2
Chase Patterson,3
Chase Thompson,3
Chelsea Fields,2
Chelsea Green,2
Chelsea Moore,2
Chen,3
Cheryl Williams,3
Cheyenne Gilbert,2
Cheyenne McDonald,2
Chloe Andrews,2
Chloe Brown,4
Chloe Mitchell,2
Chloe Thomas,2
Chris Acosta,2
Chris Anderson,13
Chris Arnold,7
Chris Baker,8
Chris Baldwin,3
Chris Bartley,2
Chris Blair,2
Chris Boyd,3
Chris Bright,2
Chris Brown,20
Chris Budd,3
Chris Butler,6
Chris Campbell,3
Chris Carpenter,4
Chris Carroll,2
Chris Carter,10
Chris Chambers,2
Chris Charles,3
Chris Cline,2
Chris Collins,8
Chris Cooke,2
Chris Cox,4
Chris Cummings,2
Chris Davey,2
Chris Dean,3
Chris Francis,3
Chris Fraser,2
Chris Galvan,4
Chris Garcia,19
Chris Garza,4
Chris Gonzales,5
Chris Graham,7
Chris Grant,4
Chris Green,5
Chris Hamilton,2
Chris Hanson,3
Chris Hartman,2
Chris Henderson,6
Chris Hensley,2
Chris Hughes,7
Chris Jackson,19
Chris Janssen,2
Chris Jenkins,10
Chris Johnson,27
Chris Johnston,3
Chris Jones,32
Chris Kelly,3
Chris Kennedy,7
Chris King,3
Chris Knight,3
Chris Lane,3
Chris Larson,2
Chris Lentini,2
Chris Leslie,2
Chris Lim,2
Chris Lindsay,2
Chris Lynn,2
Chris Marshall,5
Chris Martin,7
Chris Mason,3
Chris Miller,20
Chris Mills,2
Chris Mitchell,5
Chris Moody,2
Chris Moore,11
Chris Morgan,5
Chris Morris,10
Chris Mott,2
Chris Murray,12
Chris Nelson,7
Chris Newman,4
Chris Nicholson,2
Chris Parker,8
Chris Patterson,4
Chris Pike,2
Chris Porter,2
Chris Pugh,2
Chris Ramos,6
Chris Robinson,16
Chris Ross,3
Chris Ryan,4
Chris Scott,11
Chris Sheppard,2
Chris Simpson,2
Chris Smith,39
Chris Stark,2
Chris Stevens,3
Chris Street,2
Chris Sumner,3
Chris Taylor,18
Chris Thomas,8
Chris Turner,5
Chris Ward,3
Chris Watson,2
Chris Webb,2
Chris Webber,4
Chris Wells,3
Chris Williams,17
Chris Wilson,11
Chris Wolf,2
Chris Wood,9
Chris Woods,2
Christian Alvarez,5
Christian Aquino,2
Christian Contreras,3
Christian Cordova,2
Christian Everett,2
Christian Fite,2
Christian Francis,2
Christian Green,2
Christian Hess,2
Christian Lopez,12
Christian Moore,3
Christian Navarro,7
Christian Ramirez,10
Christian Rodriguez,14
Christian Snyder,2
Christian Stevenson,2
Christian Trevino,3
Christian Williams,13
Christina Hall,2
Christina Morris,2
Christina Ryan,2
Christina Sanchez,2
Christine Huang,3
Christine Miller,3
Christine Wilson,2
Christophe Lesourd,2
Christopher Anderson,7
Christopher Austin,3
Christopher Bell,2
Christopher Chavez,3
Christopher Collins,3
Christopher Glover,3
Christopher Hanna,2
Christopher Johnson,8
Christopher Jones,14
Christopher Marshall,2
Christopher Murphy,2
Christopher Nguyen,6
Christopher Parker,5
Christopher Perez,5
Christopher Rivera,2
Christopher Robinson,4
Christopher Rodriguez,7
Christopher Roth,2
Christopher Ryan,3
Christopher Simpson,3
Christopher Skinner,2
Christopher Smith,13
Christopher Tran,7
Christopher Watson,2
Christopher Wheeler,4
Christopher Whitaker,2
Christopher Whittaker,2
Christopher Wilson,4
Christopher Young,3
Chun-Wei Chang,2
Ciaran O'Connor,2
CJ Mendoza,2
CJ Smith,2
Claire Smith,3
Claire Taylor,2
Clarissa Rivera,2
Claudia Avila,2
Claudia Silva,2
Clay Patterson,2
Clayton Johnson,6
Clayton Wilson,2
Clint Jones,3
Clint Smith,3
Clinton Anderson,2
Clinton Lee,2
Cody Banks,3
Cody Brown,9
Cody Hanson,3
Cody Harvey,2
Cody Lee,2
Cody Miller,5
Cody Morris,3
Cody Powell,2
Cody Prather,3
Cody Thornton,2
Cody Wilson,6
Colby Henry,3
Colby Wilson,3
Cole Barton,4
Cole Davis,2
Cole Edwards,4
Cole Gallant,2
Cole Smith,7
Colin Chan,2
Colin Miller,3
Colin Robinson,2
Colin Wright,2
Collin Grant,2
Collin Rhodes,2
Colton Smith,10
Colton Stewart,2
Conner Young,3
Connor Evans,3
Connor Fitzgerald,2
Connor Hall,3
Connor Long,2
Connor Lynch,3
Connor McAllister,2
Connor McDonald,5
Connor Moore,4
Connor Murphy,2
Connor O'Sullivan,2
Connor Perry,2
Connor Smith,8
Connor Wood,2
Connor Young,2
Conor O'Shea,3
Conor Sullivan,2
Cooper Johnson,2
Corey Anderson,3
Corey Brooks,3
Corey Clark,2
Corey Ford,2
Corey Grisham,2
Corey Jones,6
Corey Walker,2
Cornelius Smith,2
Cortney Young,2
Cory Fisher,2
Cory Harris,3
Courtney Anderson,2
Courtney Brown,2
Courtney Davis,3
Courtney Fox,2
Courtney Lee,3
Courtney Lynch,2
Courtney Miller,3
Courtney Myers,2
Courtney Porter,2
Courtney Smith,5
Courtney Thompson,3
Courtney Ward,2
Courtney Williams,3
Craig,2
Craig Brown,4
Craig Smith,5
Craig Taylor,4
Cristian Cavazos,2
Cristian Garcia,5
Cristian Gonzalez,3
Cristian Hernandez,3
Cristian Ramirez,4
Crooks,2
Cross,4
Cruz Garza,2
Curtis Miller,3
Curtis Wright,2
Cyle Johnson,2
Cynthia Jimenez,2
D. Angelo,3
D. Arrington,2
D. Avid,3
D. Barnes,4
D. Bellamo,2
D. Bradshaw,2
D. Campbell,11
D. Carter,10
D. Collins,7
D. Davidson,3
D. Del Toro,2
D. Evans,13
D. Holland,2
D. Hopkins,4
D. Jones,15
D. Kay,3
D. Lee,15
D. Lester,2
D. Lewis,10
D. Lloyd,3
D. Martin,14
D. Nye,2
D. O'Brien,3
D. Ollar,2
D. Orr,6
D. Raymond,2
D. Reeves,4
D. Ross,8
D. Shields,2
D. Simmons,8
D. Summers,5
D. Taylor,20
D. Wilson,39
Dakota Cornett,2
Dakota Duffy,2
Dakota Jones,5
Dakota Kellett,2
Dakota Williams,2
Dale Adams,2
Dale Jones,2
Dale Murray,3
Dale Smith,3
Dallas Green,3
Dallas Smith,3
Dalton Creech,2
Dalton Davis,4
Damon Scott,2
Dan Baker,3
Dan Black,2
Dan Brown,7
Dan Carter,4
Dan Cohen,2
Dan Collins,3
Dan Crowe,2
Dan Davis,7
Dan Fitzgerald,2
Dan Hall,2
Dan Holly,2
Dan Howard,3
Dan Jackson,2
Dan Jones,3
Dan Martinez,3
Dan Mason,5
Dan Murphy,2
Dan O'Brien,4
Dan Ortiz,2
Dan Thompson,2
Dan Wang,2
Dan Watkins,2
Dan Williams,8
Dan Young,3
Dana Sands,2
Dana Smith,2
Dana Walker,3
Dana Williamson,2
Dane Robinson,2
Daniel Acuna,2
Daniel Austin,3
Daniel Ball,2
Daniel Bedford,2
Daniel Bell,5
Daniel Bolton,2
Daniel Boyd,3
Daniel Brown,7
Daniel Burns,3
Daniel Byrd,2
Daniel Carpenter,6
Daniel Castañeda,2
Daniel Chung,3
Daniel Clarke,3
Daniel Collins,5
Daniel Cook,4
Daniel Costanzo,2
Daniel Dale,3
Daniel De La Rosa,2
Daniel Domingo,2
Daniel Duncan,2
Daniel Eckert,2
Daniel Fisher,7
Daniel Foley,3
Daniel Freeman,2
Daniel Gallagher,2
Daniel Garcia,21
Daniel Gonzales,7
Daniel Goodwin,2
Daniel Hall,6
Daniel Harness,2
Daniel Harris,5
Daniel Heard,2
Daniel Heller,2
Daniel Hernandez,28
Daniel Horvath,4
Daniel Jackson,4
Daniel James,5
Daniel Jay,2
Daniel Johnson,7
Daniel Jones,9
Daniel Keil,2
Daniel Kotov,2
Daniel Lee,16
Daniel Lewis,5
Daniel Lockhart,2
Daniel Lopez,12
Daniel Macias,3
Daniel Mann,2
Daniel Martin,13
Daniel Martinez,35
Daniel Mason,2
Daniel Matthews,3
Daniel McKenna,2
Daniel Miller,8
Daniel Mills,3
Daniel Molnar,2
Daniel Monteiro,2
Daniel Moreno,3
Daniel Morgan,4
Daniel Morris,3
Daniel Muller,3
Daniel Neill,2
Daniel Nguyễn,7
Daniel O'Neill,2
Daniel Park,6
Daniel Patterson,2
Daniel Pearson,3
Daniel Price,2
Daniel Purcell,2
Daniel Rainey,2
Daniel Ramirez,14
Daniel Rodriguez,23
Daniel Russell,5
Daniel Ryan,2
Daniel Scott,3
Daniel Schultz,2
Daniel Shaver,2
Daniel Shaw,3
Daniel Stafford,2
Daniel Thomas,4
Daniel Tinajero,2
Daniel Unger,2
Daniël van den Berg,2
Daniel Vo,2
Daniel Wade,4
Daniel Watson,5
Daniel Williamson,2
Daniel Young,4
Daniela Gonzalez,3
Daniela Martinez,5
Danielle Armstrong,3
Danielle Byrne,2
Danielle DeWitt,2
Danielle Harris,2
Danielle Johnson,4
Daniil Fomin,3
Daniil Kovalenko,4
Daniil Timoshenko,2
Danil Lebedev,2
Danila Sokolov,2
Danny Brown,4
Danny Espinoza,2
Danny Jones,2
Danny Le,2
Danny Lee,4
Danny Li,3
Danny Nguyen,12
Danny O'Brien,3
Danny Rodriguez,2
Danny Smith,4
Danny Stone,3
Danny Torres,2
Darian Torres,2
Darius Jones,4
Darrell White,2
Darren Burns,2
Darren Smith,5
Darren Stewart,2
Darryl Thomas,3
Darya Frolova,2
Darya Grigoryeva,2
Darya Ivanova,9
Darya Litvinova,2
Darya Mikhaylova,2
Dave Allen,2
Dave Brown,7
Dave Crawford,4
Dave Foster,2
Dave Gilbert,2
Dave Harris,2
Dave Hill,3
Dave Hoff,2
Dave Hewlen,2
Dave Marino,2
Dave Murphy,3
Dave Richardson,5
Dave Scott,2
Dave Smith,18
Dave Wheeler,2
David Alexander,5
David Allen,12
David Anderson,14
David Andrews,4
David Baker,5
David Balsdon,2
David Barker,2
David Bell,10
David Bennett,7
David Berg,2
David Berry,4
David Birch,2
David Bradshaw,2
David Brennan,2
David Brown,27
David Butler,8
David Carroll,3
David Carter,8
David Chan,2
David Chaves,2
David Clarke,3
David Cooper,7
David Courtney,2
David Dang,5
David David,2
David Decanini,3
David Deleon,3
David Dornan,2
David Farkas,2
David Ferguson,2
David Fitzgerald,3
David Fox,3
David French,4
David Garcia,25
David Georges,2
David Gibson,3
David Goldstein,2
David Green,5
David Hall,12
David Hanson,4
David Henderson,2
David Herrera,8
David Hickey,2
David Hudson,3
David Hughes,7
David Hurst,2
David James,6
David Jameson,2
David Johnson,17
David Johnston,6
David Jordan,4
David Jones,17
David Kemp,2
David Kim,10
David King,2
David Knight,3
David Koch,3
David Lee,13
David Lester,3
David Lewis,7
David Long,5
David Lopez,15
David Low,2
David Lu,3
David Mannering,2
David Martin,12
David Martinez,19
David Mason,3
David May,5
David McKenzie,3
David Miller,16
David Moore,16
David Moric,2
David Morris,5
David Murray,3
David Neil,3
David Nilsson,3
David O'Sullivan,2
David Oakley,2
David Ortiz,5
David Osborn,2
David Papp,2
David Parr,2
David Patterson,4
David Perez,11
David Peterson,2
David Pham,2
David Pye,2
David Ramsey,2
David Ritter,3
David Roberts,9
David Robertson,3
David Robinson,7
David Rogers,4
David Samuel,2
David Sanchez,14
David Shepherd,5
David Still,2
David Simpson,4
David Sloan,3
David Stewart,7
David Son,10
David Susa,3
David Thomas,23
David Thompson,17
David Todd,3
David Torres,8
David Van,2
David Vaughan,2
David Wagner,3
David Walsh,3
David Watkins,2
David Watson,4
David Webb,8
David White,6
David Wilde,2
David Wiley,3
David Williams,18
David Williamson,2
David Wilson,17
David Wright,4
David Yates,2
Dawn Bates,2
Dawson Windham,2
Dean Williams,4
Dean Wright,2
Deborah Wilson,2
Declan Boyle,2
Demetrius Smith,3
Denim Fields,2
Denis Afanasev,5
Denis Arkhipov,4
Denis Bragin,4
Denis Chernov,8
Denis Dmitriev,3
Denis Ilyushechkin,2
Denis Kornienko,3
Denis Makeev,5
Denis Mishin,3
Denis Nikonov,3
Denis Ostrovskiy,2
Denis Ponomarev,3
Denis Semenov,5
Denis Vorobyov,2
Denis Voronin,4
Dennis,2
Dennis Arnold,2
Dennis Gonzalez,2
Dennis Kim,2
Dennis Schmidt,2
Dennis Smith,7
Dennis Wright,3
Dennis Young,2
Derek Abbott,2
Derek Barker,2
Derek Hall,5
Derek Miller,5
Derek Perez,2
Derek Ward,2
Derek Williams,4
Destiny Cox,3
Destiny Lopez,3
Destiny Perez,4
Devin Aragon,2
Devin Cantu,2
Devin Davis,2
Devin Gonzalez,2
Devin Jordan,2
Devin Murray,3
Devin Turner,2
Devin Williams,2
Devon Miles,2
Diego Garcia,10
Diego Guzman,2
Diego Perez,8
Diego Valdez,3
Dillon Anderson,2
Dillon Davis,5
Dillon Peterson,2
Dmitriy Demin,4
Dmitriy Dmitriev,12
Dmitriy Frolov,11
Dmitriy Grigoryev,9
Dmitriy Ivanov,56
Dmitriy Kovalenko,7
Dmitriy Kozlov,16
Dmitriy Lavrentev,2
Dmitriy Romanov,7
Dmitriy Sedov,5
Dmitriy Shabalin,3
Dmitriy Solovyev,11
Dmitriy Ubeykon,2
Dmitriy Verbitskiy,2
Dmitro Alekseev,2
Dmitro Bondarev,2
Dmitro Grigorev,2
Dmitro Kozak,2
Dmitro Kulikov,2
Dmitro Levashov,2
Dominic Hill,2
Dominique Constant,2
Dominique de la Rosa,3
Dominique Fisher,2
Dominique Harris,2
Dominique Hill,2
Dominique Johnson,4
Dominique Smith,4
Don Edwards,2
Don Johnson,5
Don Jones,4
Don Young,2
Donald Moore,2
Donna Bryant,2
Donna Mears,2
Donnie Thompson,2
Donovan Carter,3
Donovan King,3
Doug Allen,2
Doug Arnold,2
Doug Ferguson,2
Doug Macleod,2
Doug Mitchell,2
Doug Moore,2
Doug Walker,3
Doug Williams,4
Douglas Taylor,2
Drake Stephens,2
Drew Anderson,2
Drew Coffey,2
Drew Davis,2
Drew Simpson,2
Duane Green,2
Dustin Bledsoe,2
Dustin Brooks,2
Dustin Gamblin,2
Dusty Young,2
Duy,2
Duy Tran,5
Dwayne Green,2
Dwayne Taylor,2
Dylan Bennett,2
Dylan Campbell,5
Dylan Cook,3
Dylan Crawford,3
Dylan Evans,4
Dylan Finley,2
Dylan Hall,5
Dylan Johnson,9
Dylan Jones,10
Dylan McClain,2
Dylan McDonald,4
Dylan Morgan,4
Dylan Murphy,2
Dylan Nelson,3
Dylan Parker,2
Dylan Reeves,3
Dylan Reid,3
Dylan Roach,2
Dylan Smith,19
Dylan Tran,2
Dylan Turner,4
Dylan Wilson,3
Dzhobu Zakhidov,2
E. Ellis,2
E. Espinoza,2
E. Godfrey,5
Ed Jackson,2
Ed Riley,3
Ed Smith,6
Eddie Jones,2
Eddie Morgan,2
Eddie Thorpe,2
Eddie Torres,2
Edgar Martinez,9
Edgar Mkrtchyan,2
Eduard Dolgov,2
Eduardo Garcia,8
Eduardo Ramirez,2
Eduardo Velasquez,2
Edward Alexander,2
Edward Black,3
Edward Owen,2
Edward Pena,3
Edward Taylor,5
Edward Wilson,3
Egor Ivanov,9
Egor Pirogov,2
Egor Vasilev,2
Ekaterina Vorobeva,3
Elaine Jackson,2
Elchin Mamedov,2
Eldar Agaev,2
Eleanor Mawson,2
Elena Dyachenko,2
Elena Litvinova,2
Eli Parker,2
Eli Thomas,2
Elias George,2
Elias Vargas,2
Elijah Miller,4
Elijah Williams,4
Elizabeth Barnard,2
Elizabeth Chavez,2
Elizabeth Davies,2
Elizabeth Evans,2
Elizabeth Everett,2
Elizabeth Gray,3
Elizabeth Hughes,2
Elizabeth Turner,3
Elliot Stone,2
Elliott Stone,2
Ellis Perry,2
Elmira Sobko,2
Eloy Martinez,2
Emelie Forsberg,2
Emiliano Acosta,2
Emily Bailey,2
Emily Bauer,2
Emily Brewster,2
Emily Dodd,2
Emily Drake,2
Emily Duncan,2
Emily Gardner,3
Emily Hu,2
Emily Miller,7
Emily Nelson,2
Emily Peterson,2
Emily Powell,3
Emily Rodriguez,7
Emily Schneider,3
Emily Smith,5
Emily Taylor,2
Emily Thompson,4
Emily Walker,2
Emily Wall,2
Emily Wilcox,2
Emily Williams,4
Emily Wright,3
Emma Allen,2
Emma Barnes,3
Emma Brown,6
Emma Campbell,3
Emma Fox,4
Emma Jones,3
Emma Morris,2
Emma Pearson,2
Emma Sullivan,2
Emma Taylor,3
Emma Williams,3
Emma Wilson,5
Emma Wright,4
Emmanuel Hernandez,4
Enrique Rodriguez,5
Eric Adams,5
Eric Anderson,7
Eric Andrews,3
Eric Arnold,2
Eric Banks,2
Eric Butler,2
Eric Campbell,3
Eric Chen,3
Eric Gardner,2
Eric Gilbert,2
Eric Gomez,3
Eric Gonzales,4
Eric Gonzalez,8
Eric Gray,2
Eric Hall,5
Eric Huang,2
Eric Jin,2
Eric Kratz,2
Eric LeBlanc,3
Eric Martin,7
Eric Nelson,3
Eric Pierce,2
Eric Prescott,2
Eric Price,3
Eric Richardson,2
Eric Sirois,2
Eric Smith,14
Eric Stone,2
Eric Taylor,5
Eric Torres,4
Eric Tran,4
Erica Gomez,2
Erick Baker,2
Erick Garcia,7
Erick Vasquez,3
Erickson,4
Erik Anderson,3
Erik Gonzalez,7
Erik Karlsson,2
Erik Martinez,2
Erik Williams,2
Erika Johnson,2
Erika Young,2
Erin Boyle,2
Erin Kelly,4
Erin Maxwell,2
Erin Miller,4
Erin Smith,2
Erin Talley,2
Erin Williams,6
Estrella Rodriguez,2
Ethan Barnes,2
Ethan Campbell,3
Ethan Clark,5
Ethan Davis,8
Ethan Dell,2
Ethan Divine,2
Ethan Fowler,2
Ethan Fudge,2
Ethan Garcia,3
Ethan Gonzalez,5
Ethan Hall,5
Ethan Johnson,9
Ethan Markley,2
Ethan McLaughlin,2
Ethan Moore,7
Ethan Nguyen,6
Ethan Parker,2
Ethan Payne,3
Ethan Reed,3
Ethan Sanchez,4
Ethan Sanders,3
Ethan Taylor,2
Ethan Wilson,4
Eva Miller,2
Evan Anderson,4
Evan Gregory,2
Evan Hall,4
Evan Hill,2
Evan Hoffman,2
Evan Hunter,2
Evan Johnson,5
Evan Kelly,4
Evan Miller,8
Evan Perez,3
Evan Quinn,2
Evan Schultz,2
Everett,3
Evgeniy Ageev,4
Evgeniy Borisenko,2
Evgeniy Dontsov,2
Evgeniy Eliseev,5
Evgeniy Glushchenko,2
Evgeniy Goncharenko,4
Evgeniy Grebenyuk,2
Evgeniy Ivanov,29
Evgeniy Kamenev,2
Evgeniy Klimchuk,2
Evgeniy Lukyanov,5
Evgeniy Maksimov,4
Evgeniy Mayster,2
Evgeniy Nikolaev,5
Evgeniy Palkin,2
Evgeniy Pavlov,11
Evgeniy Popov,13
Evgeniy Stepanov,3
Evgeniy Tkachenko,3
Evgeniy Tokarev,4
Evgeniy Vlasov,6
Evgeniy Yakovlev,10
Evgeniy Zakharov,9
Evgeniy Zenkov,3
Evgeniy Zinkov,3
Evgeniy Zuev,6
Evgeniya Poznyak,2
Ezequiel Davila,2
F. Oster,13
Faith Miller,2
Farhan Hussain,2
Fedor Rodionov,2
Felipe Hernandez,6
Felix Flores,2
Felix Gonzalez,3
Fernando Martinez,7
Fernando Rios,2
Fernando Rivera,4
Fiona MacDonald,2
Fisher,8
Fleming,2
Francis Barrett,2
Francis Smith,2
Francis Wilson,2
Francisco Moreno,4
Frank Allen,2
Frank Jones,2
Frank Luna,2
Frank O'Donnell,3
Frank Phillips,3
Frank Rodriguez,5
Frank Sanchez,2
Frank Sanders,2
Frank Smith,4
Frank Ybarra,3
Frankie Rodriguez,2
Frankie Torres,2
Fred Hatfield,2
Freddy Gonzalez,2
Freddy Hernandez,2
Fredrik Svensson,2
Freya Johnson,2
Frode Gundersen,2
G. Hayes,5
G. Alloway,2
G. Arner,2
G. Gardner,3
G. Jenkins,4
G. Jones,19
G. McClure,3
G. Mills,3
G. Norton,2
G. Ross,4
Gabby Martinez,6
Gabe Johnson,2
Gabor Kiss,4
Gábor Somogyi,2
Gabriel Acosta,2
Gabriel Garza,8
Gabriel Gomez,7
Gabriel Lopez,8
Gabriel Moreno,3
Gabrielle Lopez,2
Gage Brown,3
Gareth Edwards,3
Gareth Walsh,2
Garret Jacobsen,2
Garrett Allen,3
Garrett Gallagher,2
Garrett Gonzales,2
Garrett Griffin,3
Garrett Smith,9
Garrett Turner,2
Garry Frank,2
Gary Chapman,2
Gary Cooper,2
Gary Davis,3
Gary Evans,2
Gary Fletcher,2
Gary Hunter,2
Gary Jones,3
Gary Lee,2
Gary McLean,2
Gary Miller,8
Gary Pratt,2
Gary Smith,8
Gary Stewart,2
Gary Taylor,3
Gary Young,2
Gavin Anderson,2
Gavin Dennis,3
Gavin Maxwell,2
Gavin Smith,4
Gemma Moore,2
Gene Miller,2
Gennadiy Danilov,3
Gennadiy Semenov,4
Gennadiy Volkov,2
George,5
George Anderson,3
George Clark,4
George Cole,7
George Cooper,2
George Edwards,2
George Herring,2
George Jones,3
George Kennedy,2
George Schneider,2
George Smith,10
George Taylor,5
George Williams,3
George Wise,2
George Wright,2
Georgina Webb,2
Gerald Smith,2
Gerard McNamara,2
Gerardo Calderon,2
Gilbert,2
Giovanni Alvarez,3
Giovanni Rodriguez,4
Glen Smith,5
Gonzales,9
Gonzalo Fernandez,2
Gordon Smith,3
Gourav,2
Grace Hall,3
Grace Thomas,2
Graham Price,2
Graham Russell,2
Grant Brown,4
Grant Connors,2
Grant Garner,2
Grant Hill,2
Gray,10
Greg Bennett,2
Greg Campbell,3
Greg Carter,2
Greg Evans,2
Greg Fields,4
Greg Jones,8
Greg Lewis,3
Greg Simmons,3
Greg Smith,7
Greg Steele,2
Greg Watkins,2
Greg Watson,2
Greg White,4
Greg Wilson,2
Greg Young,4
Gregory Barnes,2
Guadalupe Garcia,5
Guillermo Estrada,2
Guillermo Rodriguez,2
Gustavo Gonzalez,5
H. Campbell,2
H. Druiff,2
H. Mitchell,2
H. Thompson,4
H. Walters,2
Ha Pham,2
Hadley Jones,2
Hailey Nelson,2
Haley Hunter,2
Hamid Jamal,2
Hamilton,5
Hamizah Ismail,2
Hammond,4
Hannah Alexander,2
Hannah Bennett,2
Hannah Holmes,3
Hannah Howell,2
Hannah Jackson,2
Hannah Johnson,3
Hannah McDonald,2
Hannah Peterson,3
Harley Anderson,2
Harley Carter,2
Harley Davis,4
Harley Hall,2
Harry Cooper,4
Harry Owen,2
Harry Young,3
Hassan Raza,2
Hayden Gage,2
Hayden Jones,4
Hayden Lee,3
Hayden Murphy,2
Hayden Taylor,4
Hayden Thompson,2
Hayden Willis,2
Haynes,2
Heather Hamilton,2
Heather Smith,3
Heather Webster,2
Hector Garcia,13
Hector Granados,3
Hedda Welsh Havikbotn,2
Heidi Brown,2
Heikki Laakso,2
Helen Hughes,2
Helen Williams,3
Helena Nixon,2
Helgi Jónsson,2
Hendrik Wobst,2
Hennis Washington,2
Henry Garcia,2
Henry Hernandez,2
Henry Johnson,2
Hieu Le,4
Hieu Truong,2
Hill,13
Hitoshi Nakamura,2
Hoa Nguyen,3
Hoang Nguyễn,5
Holly Clarke,3
Holly Roberts,2
Hope Jones,2
Hudson,3
Hudson Hill,2
Humberto Medina,3
Hung,2
Hunter Bowers,2
Hunter Casey,2
Hunter Gibson,3
Hunter Green,3
Hunter Henderson,2
Hunter Hernandez,4
Hunter Hicks,3
Hunter Howell,2
Hunter Johnson,9
Hunter Jones,4
Hunter Martin,5
Hunter Smith,15
Hunter Soileau,2
Hunter Wade,2
Hunter Wallace,3
Hunter Wilson,6
Hunter Young,2
I. Atkinson,2
I. Evans,2
Ian Cox,4
Ian Dixon,2
Ian Johnson,2
Ian Johnston,3
Ian King,2
Ian MacDonald,2
Ian Marshall,2
Ian McKay,2
Ian Mitchell,2
Ian Sanchez,2
Ian Saunders,2
Ian Taylor,2
Ian Walker,4
Ian White,3
Ian Williams,4
Ibrahim,2
Igor Alekseenko,2
Igor Aliev,2
Igor Andreev,3
Igor Belyaev,5
Igor Chernenko,3
Igor Chernyaev,2
Igor Chistyakov,4
Igor Danilov,2
Igor Dolzhenko,3
Igor Ermakov,3
Igor Golovko,2
Igor Golubev,2
Igor Goncharenko,2
Igor Ivanov,19
Igor Ivchenko,2
Igor Kalinichenko,2
Igor Kharchenko,2
Igor Khokhlov,2
Igor Klimov,3
Igor Koval,4
Igor Kovalenko,2
Igor Kovalev,3
Igor Kozlov,5
Igor Kushnir,4
Igor Kuzmenko,2
Igor Kuzminskiy,2
Igor Kuznetsov,10
Igor Lutsenko,2
Igor Malanchuk,2
Igor Maltsev,3
Igor Markin,3
Igor Martens,2
Igor Matveenko,2
Igor Melnik,6
Igor Mikhaylenko,2
Igor Morozov,6
Igor Obukhov,2
Igor Orlov,4
Igor Pak,4
Igor Parshin,3
Igor Pavlov,2
Igor Petrenko,2
Igor Plotnikov,2
Igor Ponomarenko,2
Igor Prikhodko,3
Igor Rudenko,2
Igor Rybakov,2
Igor Savin,5
Igor Sokolovskiy,3
Igor Tarasov,3
Igor Terentev,2
Igor Volkov,6
Igor Zhuk,2
Igor Zhuravko,2
Igor Zubarev,2
Ilgar Rzaev,2
Ilya Fedorov,3
Ilya Golub,3
Ilya Kapustin,2
Ilya Nikolaev,4
Ilya Romanov,4
Imre Szabo,2
Inna Filimonova,2
Inna Grishchenko,2
Inna Smirnova,2
Iraida Garcia,2
Irina Fedotova,2
Irina Ivanova,9
Irina Kolesnikova,2
Irina Kovalenko,2
Irina Kozlova,2
Irina Melnik,2
Irina Verbitskaya,2
Isa Vasquez,2
Isaac Lee,3
Isaac Roberts,2
Isaac Robles,3
Isaac Salinas,2
Isaac Smith,5
Isabel Martinez,3
Isaiah Marquez,2
Isaiah Robinson,5
Itzel Garcia,2
Ivan Andryushchenko,2
Ivan Baranov,9
Ivan Barinov,2
Ivan Belyaev,2
Ivan Bondarenko,5
Ivan Boyko,2
Ivan Brushnevskiy,3
Ivan Cherednichenko,2
Ivan Chernykh,2
Ivan Demchenko,3
Ivan Dolchanin,2
Ivan Dovgal,2
Ivan Feshchenko,2
Ivan Garcia,6
Ivan Ivanov,37
Ivan Komissarov,2
Ivan Kondrashov,2
Ivan Konev,5
Ivan Kopytin,2
Ivan Kovalskiy,2
Ivan Lutsenko,2
Ivan Makarov,7
Ivan Marin,3
Ivan Martinovic,2
Ivan Medvedev,5
Ivan Moiseev,4
Ivan Naumov,4
Ivan Ovcharenko,2
Ivan Petrenko,2
Ivan Polyakov,9
Ivan Protsenko,3
Ivan Rudenko,3
Ivan Rusin,2
Ivan Shakhov,2
Ivan Shevchenko,6
Ivan Soroka,2
Ivan Tretyakov,2
Ivan Vega,3
Ivan Yarmolyuk,2
Ivan Yudin,2
Ivan Yurev,2
Izzy Gutierrez,2
J. Acevedo,2
J. Arthur,2
J. Bernal,2
J. Bridges,4
J. Coleman,4
J. Cooper,11
J. Craig,5
J. Cross,3
J. Davis,51
J. Donahue,2
J. Doyle,8
J. Duffield,2
J. Fuller,2
J. Gray,8
J. Green,20
J. Greene,8
J. Griffin,13
J. Haley,2
J. Heath,2
J. Hill,13
J. Hobbs,3
J. Horn,3
J. Johnston,9
J. Keenan,3
J. Malone,2
J. Marshall,5
J. McGrath,4
J. McIntosh,2
J. McLean,2
J. Miller,47
J. O'Brien,8
J. Orr,4
J. Parrish,6
J. Power,2
J. Preston,5
J. Rodgers,7
J. Short,3
J. Smith,81
J. Stevenson,5
J. Thompson,22
J. Tillman,2
J. Walker,15
J. Welch,4
J. Wheeler,7
J. Winter,2
J. Zehr,2
Jace Phillips,2
Jack Anderson,5
Jack Archer,2
Jack Barbour,2
Jack Barrett,2
Jack Bartlett,2
Jack Benton,3
Jack Brennan,4
Jack Chapman,2
Jack Cooper,3
Jack Coyne,2
Jack Davis,6
Jack Gibbons,2
Jack Harvey,2
Jack Hawkins,3
Jack Henderson,4
Jack Hudson,2
Jack Hughes,3
Jack Jones,5
Jack Kennedy,3
Jack Lynch,4
Jack May,3
Jack Moore,5
Jack Morgan,4
Jack Morris,3
Jack Nguyen,4
Jack Parker,3
Jack Smith,8
Jack Taylor,8
Jack Walsh,5
Jack Welch,3
Jack Williams,5
Jack Willis,2
Jack Wolff,2
Jack Young,5
Jackie Morgan,2
Jackie Salazar,2
Jackson Bailey,2
Jackson Hart,2
Jackson Miller,2
Jackson Watkins,2
Jacob Adkins,2
Jacob Atkinson,2
Jacob Baker,3
Jacob Black,2
Jacob Byrd,4
Jacob Covey,2
Jacob Gray,4
Jacob Green,6
Jacob Harper,2
Jacob Hawkins,2
Jacob Hernandez,14
Jacob Hudson,4
Jacob Hughes,5
Jacob Hurley,2
Jacob Jenkins,5
Jacob Lucas,2
Jacob Manley,2
Jacob Martinez,16
Jacob McBride,2
Jacob Morris,3
Jacob Nilsson,2
Jacob Noble,3
Jacob Norman,2
Jacob Pena,2
Jacob Perez,12
Jacob Peterson,2
Jacob Ramos,5
Jacob Rodriguez,17
Jacob Schwartz,5
Jacob Smith,31
Jacob Stephens,3
Jacob Stone,2
Jacob Vasquez,9
Jacob Wallace,5
Jacob Walton,2
Jacob Winstead,2
Jacob Woosley,2
Jacob Young,7
Jaden Brown,5
Jaden Buchanan,2
Jaden Perez,2
Jaden Smith,3
Jaden Wilson,3
Jaeden Ward,2
Jaiden Johnson,3
Jaiden Turner,3
Jaime Barrera,2
Jaime Castillo,2
Jaime Garcia,5
Jaime Hernandez,8
Jaime Reyna,2
Jaime Rios,3
Jake Allen,8
Jake Allison,2
Jake Carter,5
Jake Clarke,3
Jake Dunn,2
Jake Faulkner,3
Jake Garner,2
Jake Henderson,3
Jake Hutchinson,2
Jake Johnson,15
Jake Marshall,2
Jake Mitchell,4
Jake Richards,2
Jake Roberts,4
Jake Sainsbury,3
Jake Simpson,3
Jake Smith,12
Jake Tucker,3
Jake Williams,8
Jalen Brown,2
James,7
James Allen,7
James Alston,2
James Anderson,6
James Bailey,5
James Baldwin,4
James Bishop,3
James Black,3
James Boyle,2
James Brennan,2
James Brown,12
James Burns,3
James Butler,4
James Carr,4
James Carroll,3
James Chapman,5
James Christian,2
James Clark,12
James Clarke,4
James Cole,2
James Cooper,6
James Cox,5
James Daly,4
James Dunn,4
James Dwyer,2
James Edwards,6
James Ellis,5
James Farrell,4
James Fernandez,2
James Finn,2
James Fletcher,3
James Fowler,2
James Freeman,4
James Gilbert,3
James Glass,3
James Goodwin,3
James Gordon,3
James Grant,4
James Gregory,3
James Griffin,4
James Harrison,8
James Hayden,2
James Henderson,5
James Hood,2
James Hopkins,3
James Howell,3
James Hughes,6
James Jackson,4
James Jacobs,4
James Joyce,2
James Kelly,6
James Kennedy,6
James King,7
James Knight,3
James Lee,11
James Lin,3
James MacDonald,3
James Martin,10
James Martinez,6
James Mason,2
James McCarthy,2
James Mcguigan,2
James McLoughlin,2
James McGregor,3
James Michaud,2
James Miller,11
James Monk,2
James Mooney,2
James Moore,15
James Morgan,4
James Morris,4
James Nguyen,3
James Norman,2
James Parker,6
James Pearson,3
James Perry,7
James Phillips,9
James Pierce,3
James Pollard,2
James Ray,3
James Riley,7
James Roberts,7
James Robertson,6
James Rogers,5
James Simmons,2
James Sims,3
James Spencer,2
James Stanley,2
James Stein,2
James Stevens,2
James Stone,2
James Strickland,2
James Taylor,14
James Thomas,7
James Thompson,11
James Thomson,3
James Townsend,3
James Turner,5
James Walker,10
James Waller,2
James Walsh,3
James Warren,5
James Webster,2
James West,8
James Wheeler,6
James Williams,29
James Williamson,3
James Wilson,23
James Wright,9
James Young,10
Jamie Bailey,2
Jamie Brown,2
Jamie Davis,2
Jamie Dean,2
Jamie Dodd,2
Jamie Dunn,2
Jamie Farmer,2
Jamie Fisher,2
Jamie Garcia,2
Jamie Gordon,3
Jamie Green,3
Jamie Harris,3
Jamie Hernandez,3
Jamie Hooper,2
Jamie Jackson,2
Jamie Johnson,4
Jamie Jones,4
Jamie King,5
Jamie Lake,2
Jamie Larsen,2
Jamie Lee,4
Jamie Lewis,5
Jamie Miller,6
Jamie Moore,2
Jamie Murphy,2
Jamie Peters,2
Jamie Reeves,2
Jamie Ross,2
Jamie Sanford,2
Jamie Smith,11
Jamie Stone,2
Jamie Taylor,3
Jamie Thomas,2
Jamie Thompson,3
Jamie Ward,3
Jamie Williams,3
Jamie Winter,2
Jamie Wood,3
Jamie Young,2
Jan Andersen,2
Jan Martin,2
Janet Martin,3
Janet Smith,2
Janne Råman,2
Jared Brown,4
Jared Holmes,2
Jared Martin,8
Jared Scott,2
Jared Wheeler,2
Jared White,2
Jared Wood,3
Jari Leino,2
Jari Nieminen,2
Jasmine Davis,3
Jasmine Nguyen,3
Jason Allen,8
Jason Bailey,5
Jason Brown,8
Jason Burnell,2
Jason Byrne,3
Jason Campbell,6
Jason Chan,4
Jason Chang,3
Jason Cheung,2
Jason Cho,3
Jason Clarke,4
Jason Cook,4
Jason Fletcher,2
Jason Fry,2
Jason Garcia,9
Jason Harrison,5
Jason Holmes,2
Jason Jackson,8
Jason Johnson,9
Jason Jones,8
Jason Lopez,7
Jason Luu,2
Jason Marroquin,2
Jason Pearson,2
Jason Peters,2
Jason Pritchard,2
Jason Roberts,5
Jason Schmidt,4
Jason Sciacca,2
Jason Scott,3
Jason Smith,22
Jason Tran,8
Jason Watson,3
Jason Weaver,2
Jason Webb,2
Jason Williams,6
Javier de la Torre,2
Javier Garcia,16
Javier Ortiz,4
Jay Gutierrez,2
Jay Smith,5
Jay Ward,3
Jay Watson,2
Jay Wright,2
Jayden Gray,2
Jayden Hunter,2
Jayden Miller,4
Jayden Perez,2
Jayden Smith,7
Jayden White,2
Jaylen Brown,4
Jaylen Davis,2
Jayson Thomas,2
Jazmin Trevino,2
JD Clark,2
Jean-François Caron,3
Jeff Bailey,2
Jeff Bradley,3
Jeff Carr,3
Jeff Cohen,3
Jeff Douglas,2
Jeff Griffin,2
Jeff Howard,2
Jeff Johnston,3
Jeff Krause,2
Jeff Lawson,4
Jeff Lewis,2
Jeff Phillips,2
Jeff Reed,2
Jeff Stevens,2
Jeff Sussman,2
Jeff Wilkes,2
Jeff Wright,5
Jeffrey Allen,3
Jeffrey Becker,2
Jeffrey Chen,4
Jeffrey Guo,2
Jeffrey Johnson,6
Jeffrey Lin,2
Jeffrey Thompson,3
Jen Smith,2
Jenna Hoffman,2
Jenni Sherwood,2
Jennifer De Leon,2
Jennifer Foster,2
Jennifer Harris,5
Jennifer Hobbs,3
Jennifer Johnson,4
Jennifer Martinez,12
Jennifer Miller,2
Jennifer Mitchell,4
Jennifer Moore,2
Jennifer Morales,2
Jennifer Perry,2
Jennifer Scott,2
Jennifer Smith,14
Jennifer Thompson,4
Jenny Wilson,2
Jeongmin An,2
Jeremiah Johnson,9
Jeremy Adams,3
Jeremy Green,3
Jeremy Hines,2
Jeremy Rodriguez,5
Jeremy Sanchez,3
Jeremy Smith,10
Jeremy Stevens,3
Jeremy Taylor,2
Jeremy Thompson,2
Jeremy Willis,2
Jeremy Wilson,5
Jeremy Wright,3
Jerry Allen,2
Jerry Bell,2
Jerry Smith,3
Jerry Wells,2
Jess Reid,2
Jesse Berry,2
Jesse Coffey,2
Jesse Garza,7
Jesse Hudson,2
Jesse Jackson,2
Jesse James,6
Jesse Johnson,6
Jesse Jones,4
Jesse Kelly,2
Jesse Lawrence,2
Jesse Miller,2
Jesse Nelson,2
Jesse Peterson,2
Jesse Ramirez,8
Jesse Reeves,3
Jesse Reynolds,2
Jesse Richardson,3
Jesse Salinas,3
Jesse Sullivan,2
Jesse Woods,3
Jessi Stewart,2
Jessica Ayala,2
Jessica Bishop,2
Jessica Brown,8
Jessica Cook,3
Jessica Day,2
Jessica Edwards,2
Jessica Evans,3
Jessica Ford,2
Jessica Garcia,7
Jessica Green,3
Jessica Hill,5
Jessica Hobbs,2
Jessica Hopkins,2
Jessica Jackson,4
Jessica Jones,3
Jessica Lane,3
Jessica Le,3
Jessica Lewis,3
Jessica Marshall,6
Jessica May,2
Jessica Price,2
Jessica Ramirez,2
Jessica Robinson,2
Jessica Taylor,6
Jessica Thompson,3
Jessica Watson,3
Jessica Williams,9
Jessica Williamson,2
Jessie Adams,2
Jessie Peterson,2
Jessie Ramirez,3
Jessie Smith,3
Jesus Garcia,18
Jesus Hernandez,10
Jesus Morales,5
Jia Hui Wang,2
Jihun Kim,2
Jillian Clark,2
Jim Bennett,4
Jim Benson,2
Jim Brewer,2
Jim Collins,2
Jim Gallagher,2
Jim Meyer,3
Jim Moore,3
Jim Morgan,3
Jim Sheffield,2
Jim Smith,9
Jim Taylor,4
Jim Warner,2
Jim White,3
Jim Williams,4
Jim Wilson,4
Jimmy Bishop,3
Jimmy Chen,2
Jimmy Häll,2
Jimmy Hill,2
Jimmy Tran,5
Jo Kane,2
Jo Kelly,2
Jo Sullivan,3
Jo Wood,4
Joanne Henry,2
Joaquin Munoz,3
Jodie Cook,2
Jodie Smith,2
Jody Lewis,2
Joe Adams,3
Joe Austin,2
Joe Bell,3
Joe Brown,5
Joe Castillo,9
Joe Cunningham,4
Joe Francisco,2
Joe Hernandez,8
Joe Hodgson,2
Joe Holland,2
Joe Jackson,2
Joe Jimenez,2
Joe Johnson,6
Joe Lewis,4
Joe Lucas,2
Joe Lyons,2
Joe Martin,8
Joe Mass,2
Joe Mata,2
Joe McCarthy,2
Joe Moore,3
Joe Reeves,3
Joe Robinson,7
Joe Torres,8
Joe Valdez,4
Joe Vega,7
Joe Williams,7
Joe Williamson,2
Joe Wills,2
Joel Bell,4
Joel Chavez,2
Joel Chong,3
Joel Flores,2
Joel Garcia,12
Joel Hernandez,5
Joel Reed,2
Joel Sanchez,8
Joel Scott,4
Joel Stewart,2
Joel Whitmore,2
Joey Burke,2
Joey Lee,4
Joey Mendoza,3
Joey Reid,2
Joey Salinas,2
Joey Smith,4
Joey Watson,2
Johanna Reichel,2
John Adkins,2
John Anderson,9
John Ball,4
John Bermudez,2
John Berry,5
John Black,3
John Brannigan,2
John Brennan,3
John Brown,18
John Brunner,2
John Buckley,5
John Butler,5
John Cahill,2
John Caputo,2
John Carney,2
John Clay,4
John Consoli,2
John Cooper,11
John Corcoran,2
John Cross,2
John Crowley,4
John Cuevas,2
John Curtis,3
John Davis,21
John Dean,2
John Dela Cruz,3
John Dexter,2
John Dignan,2
John Dolan,2
John DuMont,3
John Florio,2
John Ford,4
John Forsythe,2
John Gabriel,3
John Gallacher,2
John Gallagher,3
John Garcia,11
John Grady,2
John Guzman,3
John Haley,2
John Hart,2
John Hayes,5
John Horn,2
John Howard,5
John Jackson,13
John Jones,11
John Lake,2
John Lane,2
John Lee,11
John Leonard,3
John Lucas,2
John Lynch,2
John MacDonald,3
John Magee,3
John Marsden,2
John Marks,2
John Martin,15
John McDonald,4
John McDowell,3
John McGrath,5
John McIntyre,2
John Mendoza,8
John McMahon,2
John Miller,22
John Mitchell,9
John Mock,2
John Morris,7
John Nelson,6
John Nolan,3
John O'Brien,3
John O'Hara,3
John Pappas,2
John Patterson,4
John Perez,6
John Pollock,2
John Powers,4
John Quinn,4
John Reeves,2
John Reyes,3
John Roberts,4
John Rooney,2
John Ryan,5
John Sanchez,8
John Santos,3
John Scott,5
John Simpson,2
John Smith,17
John Son,2
John Starr,2
John Stevens,2
John Taylor,19
John Tucker,2
John Tyler,3
John Vincent,2
John Walker,6
John Walsh,3
John Ware,2
John Welch,4
John Wells,4
John White,8
John Wilkerson,2
John Wright,10
John Wyatt,4
John Young,12
Johnny Walker,2
Johnpaul Hayes,2
Jon Brown,3
Jon Clark,4
Jon Cole,2
Jon Green,4
Jon Gregory,2
Jon Howard,2
Jon Jones,2
Jon Martin,4
Jon Smith,3
Jon Stewart,4
Jon Thomas,2
Jon Wilson,2
Jon Wong,2
Jonas Maier,2
Jonathan Carter,2
Jonathan Chan,2
Jonathan Clark,6
Jonathan Clarke,2
Jonathan Cooper,2
Jonathan Cruz,2
Jonathan Davis,4
Jonathan Ferguson,2
Jonathan Garcia,13
Jonathan Gomez,6
Jonathan Herrera,2
Jonathan Hill,3
Jonathan Hinojosa,2
Jonathan Jones,8
Jonathan Lang,2
Jonathan Law,2
Jonathan Le,3
Jonathan Lewis,3
Jonathan Mills,4
Jonathan Murphy,4
Jonathan Ortiz,3
Jonathan Parker,4
Jonathan Rodgers,3
Jonathan Rodriguez,17
Jonathan Seymour,2
Jonathan Stewart,4
Jonathan Urrutia,2
Jonathan West,2
Jonathan Wilson,2
Jonathan Wong,3
Jonathan Woods,2
Jonathon Nelson,3
Jonathon Taylor,4
Jones,12
Jonny Gardner,2
Jonny Parker,2
Joonas Koivuniemi,2
Jordan,6
Jordan Adams,2
Jordan Alexander,3
Jordan Alford,3
Jordan Anderson,6
Jordan Barnes,2
Jordan Beasley,2
Jordan Bell,2
Jordan Brand,2
Jordan Buchanan,2
Jordan Burt,2
Jordan Campbell,2
Jordan Carpenter,2
Jordan Chadwick,2
Jordan Cook,3
Jordan Craig,2
Jordan Cutler,2
Jordan Davis,6
Jordan Davison,2
Jordan DeAguero,2
Jordan Dunn,4
Jordan Dyer,3
Jordan Ellis,2
Jordan Evans,8
Jordan Fernandez,2
Jordan Fields,2
Jordan Foley,2
Jordan Fox,2
Jordan Garcia,7
Jordan Gibson,5
Jordan Green,7
Jordan Gregory,2
Jordan Grenier,2
Jordan Hall,5
Jordan Harris,6
Jordan Hart,2
Jordan Hayes,3
Jordan Hester,2
Jordan Holley,2
Jordan Jackson,4
Jordan Johnson,17
Jordan Jones,11
Jordan Kelly,2
Jordan Lam,3
Jordan Law,2
Jordan Lewis,4
Jordan Lopez,2
Jordan Lyons,2
Jordan Mann,2
Jordan Martin,9
Jordan Matthews,2
Jordan Mcdonald,2
Jordan McKenzie,8
Jordan Meyer,3
Jordan Miller,5
Jordan Mitchell,2
Jordan Moore,4
Jordan Moorhead,2
Jordan Myers,2
Jordan Nguyen,6
Jordan Nolan,2
Jordan Patterson,3
Jordan Ramirez,4
Jordan Reed,2
Jordan Reynolds,2
Jordan Rodriguez,8
Jordan Ross,2
Jordan Salinas,2
Jordan Sandoval,2
Jordan Simpson,2
Jordan Smith,14
Jordan Steele,2
Jordan Stephens,2
Jordan Taylor,4
Jordan Thomas,9
Jordan Thompson,3
Jordan Townsend,2
Jordan Watson,3
Jordan Weaver,3
Jordan West,2
Jordan Wilkins,2
Jordan Williams,7
Jordan Wilson,6
Jorge Garcia,11
Jorge Gonzalez,10
Jorge Maldonado,4
Jorge Ramos,2
Jose Alvarado,5
Jose Bautista,3
Jose Camacho,2
José Castillo,12
Jose Conceicao,2
Jose Cuellar,4
Jose de Leon,3
Jose Delacruz,3
Jose Diaz,13
José Fernández,9
Jose Flores,13
Jose Garcia,30
Jose Gonzalez,27
Jose Hernandez,45
Jose Jimenez,13
Jose Jiminez,2
Jose Juarez,6
Jose Martinez,25
Jose Mendoza,10
Jose Miranda,5
Jose Molina,10
Jose Ojeda,2
Jose Pena,5
Jose Perez,30
Jose Ramirez,24
Jose Rivas,2
Jose Rodriguez,41
Jose Romero,6
Jose Torres,10
Jose Trejo,4
José Rosario,3
Joseph,3
Joseph Bell,5
Joseph Brown,5
Joseph Caruso,3
Joseph Coogan,3
Joseph Gordon,2
Joseph Hernandez,2
Joseph Herrera,4
Joseph Hite,2
Joseph Jackson,3
Joseph Jordan,2
Joseph Lewis,2
Joseph Lopez,11
Joseph Lu,3
Joseph McDonald,3
Joseph Miller,6
Joseph Nelson,4
Joseph O'Brien,4
Joseph Peña,3
Joseph Rivera,2
Joseph Rodriguez,13
Joseph Rogers,3
Joseph Saucedo,2
Joseph Thomas,5
Joseph Walton,2
Joseph Watts,2
Joseph White,2
Joseph Young,4
Josh Banks,3
Josh Bell,2
Josh Black,3
Josh Brown,16
Josh Bryant,2
Josh Bush,3
Josh Day,2
Josh Doran,2
Josh Duncan,4
Josh Edwards,4
Josh Ellis,4
Josh Flores,5
Josh Garcia,13
Josh Gonzales,4
Josh Hardin,2
Josh Hill,2
Josh Holmes,2
Josh Hudson,3
Josh Hunt,2
Josh Ingram,2
Josh Jacobs,2
Josh Jones,9
Josh Kelly,3
Josh King,9
Josh Lambert,5
Josh Lawson,2
Josh Martin,9
Josh Morris,3
Josh Murphy,3
Josh Nichols,2
Josh Nicklin,2
Josh Parker,2
Josh Richardson,2
Josh Roberts,3
Josh Sargent,2
Josh Smith,37
Josh Taylor,8
Josh Turner,8
Josh Wagner,2
Josh Walker,9
Josh Wallace,3
Josh Walton,2
Josh Wells,3
Josh Wright,5
Joshua Baker,3
Joshua Barnes,2
Joshua Bartlett,2
Joshua Black,5
Joshua Chan,2
Joshua Chung,3
Joshua Cruz,3
Joshua Espinosa,3
Joshua Farrar,2
Joshua Fischer,3
Joshua Fleming,2
Joshua Guy,2
Joshua Hall,4
Joshua Harris,3
Joshua Howell,2
Joshua King,9
Joshua Lee,7
Joshua Lilly,3
Joshua Newman,3
Joshua Ng,2
Joshua Park,3
Joshua Powell,3
Joshua Shaw,3
Joshua Schwartz,3
Joshua Strickland,3
Joshua Webber,2
Joshua Wright,4
Joshua Yu,3
Josie Thomas,3
Josue Gonzalez,3
Juan Aguilar,3
Juan Carlos Rodríguez,2
Juan Duran,2
Juan Garcia,25
Juan Hernandez,26
Juan Laija,3
Juan Llanes,2
Juan Mendoza,7
Juan Pereyra,4
Juan Perez,20
Juan Salinas,5
Juan Sanchez,14
Juan Torres,14
Juan Vasquez,4
Juan Villarreal,8
Julia Courtney,2
Julia Hamilton,3
Julia Moller,2
Julia Williams,3
Julian Diaz,5
Julian Lee,2
Julian Phan,2
Julian Smith,3
Julie Davis,2
Julie Green,2
Julie Marshall,2
Julie Nguyen,6
Julie White,2
Julien Guy,2
Julien Mercier,2
Julio Chavez,3
Julio Medina,2
Julio Sanchez,5
Jussi Mustonen,2
Justin Caldwell,2
Justin Clark,5
Justin Fowler,2
Justin Gill,2
Justin Harris,7
Justin Horn,2
Justin Hurley,3
Justin Jackson,6
Justin Kelly,3
Justin Lee,7
Justin McCurdy,2
Justin McManus,2
Justin Myers,3
Justin Ng,6
Justin Odom,2
Justin Oliver,2
Justin Randall,2
Justin Roberts,5
Justin Robinson,7
Justin Rogers,3
Justin Smith,34
Justin Sorenson,2
Justin Swanson,2
Justin Thacker,3
Justin Turner,2
Justin Watson,4
Justin West,4
Justin Williams,15
Justin Wilson,11
K. Bond,2
K. Eller,5
K. Green,4
K. Haden,2
K. Hale,2
K. Jackson,5
K. Lewis,4
K. Ramsey,2
K. Robertson,4
K. Stewart,4
K. Thomas,14
Kaden Adams,2
Kaleb Miller,3
Kameron Turner,2
Karel Rada,2
Karen Avetisyan,3
Karen Kalinski,2
Karen Kazaryan,2
Karen Nguyen,3
Karen Sutherland,2
Karina Lopez,2
Karina Martinez,8
Karl Francis,2
Karla Esquivel,2
Karthik V,2
Kasey Sanders,2
Kat Walsh,2
Kate Henry,2
Kate Quinn,2
Katerina Kolesnik,2
Katharine Davis,2
Kathryn Hall,2
Kathryn Holley,2
Kathryn MacTaggart,2
Kathryn Miller,2
Kathryn Russell,2
Katrina Tran,2
Katie Adams,3
Katie Baker,2
Katie Edwards,3
Katie Hall,4
Katie Lee,2
Katie Miller,6
Katie Mitchell,2
Katie Smith,8
Kayden Smith,2
Kayla Anderson,3
Kayla Bearden,2
Kayla Robinson,2
Kayleigh Russell,2
Keelan Smith,2
Keith Baker,3
Keith Clark,3
Keith Douglas,2
Keith Evans,2
Keith Morris,2
Keith Phillips,3
Keith Thompson,5
Kelly Adams,2
Kelly Andrews,2
Kelly Baker,3
Kelly Benson,2
Kelly Brown,4
Kelly Clark,3
kelly Davis,3
Kelly Donahue,2
Kelly Harris,3
Kelly Henry,3
Kelly Hughes,2
Kelly Johnson,4
Kelly Kennedy,2
Kelly Lee,4
Kelly Martin,3
Kelly Miller,4
Kelly Morgan,2
Kelly Norton,2
Kelly Parker,2
Kelly Peters,2
Kelly Pierce,2
Kelly Smith,7
Kelly Tran,3
Kelly Williams,3
Kelly Wilson,5
Kelly Young,2
Kelsey Brown,2
Kelsey Smith,2
Kelsey White,3
Kelton Johnson,2
Ken Adams,2
Ken Conner,2
Ken Johnson,2
Ken Jones,11
Ken Lloyd,2
Ken Nguyen,3
Ken Poole,2
Ken Smith,13
Ken Tanaka,2
Ken Williams,4
Kendall Tanner,2
Kendra Carter,2
Kendra Miller,2
Kenneth Cook,2
Kenneth Jones,4
Kenneth Mitchell,4
Kenneth Smith,2
Kenneth Williams,6
Kenny Ramirez,2
Kerri Smith,2
Kerry Smith,2
Kevin Butler,3
Kevin Carey,2
Kevin Carr,2
Kevin Cash,2
Kevin Chu,4
Kevin Davis,6
Kevin Diaz,3
Kevin Francois,2
Kevin Ferguson,2
Kevin Gray,3
Kevin Hu,2
Kevin Jackson,10
Kevin Jager,2
Kevin James,3
Kevin Johnson,12
Kevin Jones,14
Kevin Koch,2
Kevin Nguyen,25
Kevin Parker,2
Kevin Paul,3
Kevin Payne,3
Kevin Phillips,3
Kevin Ramirez,7
Kevin Reynolds,3
Kevin Sampson,2
Kevin Sanchez,7
Kevin Sanders,10
Kevin Serrano,2
Kevin Smith,29
Kevin Stewart,4
Kevin Turner,4
Kevin Vo,2
Kevin Wang,7
Kevin Woods,4
Kevin Wu,2
Kieran Fraser,2
Kieran Scott,2
Kiet Nguyen,2
Kim Harris,2
Kim Jones,5
Kim Moore,2
Kim Moser,2
Kim Tran,3
Kimberly Butler,3
Kimberly Einstein,2
Kimberley Glover,2
Kimberly Perez,2
Kirsty Holmes,2
Kolby Williams,2
Konstantin Lukyanov,3
Konstantin Morozov,4
Kris Henderson,2
Kris Johnson,2
Kris Lewis,2
Kristen Jones,2
Kristen Robbins,2
Kristen Scott,3
Kristen Smith,7
Kristian Martinez,3
Kristin Fisher,2
Kristin Wilson,3
Kristina Guseva,2
Kristina Taylor,2
Kseniya Prokhorova,2
Kseniya Sidorova,2
Kye Brown,2
Kyle Alexander,3
Kyle Andersen,4
Kyle Anderson,3
Kyle Brown,13
Kyle Chapman,2
Kyle Clark,3
Kyle Coffey,3
Kyle Coogan,2
Kyle Davidson,2
Kyle Evans,5
Kyle Franke,2
Kyle Garcia,2
Kyle Gibson,3
Kyle Haynes,2
Kyle Horton,2
Kyle Jenkins,2
Kyle Johnson,13
Kyle Kirby,4
Kyle Miller,13
Kyle Mitchell,5
Kyle Novak,2
Kyle Nowak,2
Kyle O'Donnell,2
Kyle Olsen,2
Kyle Pittman,2
Kyle Sheridan,2
Kyle Smith,20
Kyle Thompson,5
Kyle Walker,3
Kyle Weiss,2
Kyle West,3
Kyle White,3
Kyle Wilkinson,3
Kyle Young,5
Kyler Koch,2
Kyler Ramsey,2
Kylie Jones,2
Kylie Parker,2
Kylie Smith,2
L. Asher,2
L. Bray,2
L. Collins,2
L. Gee,2
L. Loyd,2
L. Perez,3
L. Sutton,3
Lance Collins,3
Lance Walker,2
Landon Harris,2
Landon McBride,2
Landon Williams,3
Lane,5
Lane Davis,2
Lane Hill,2
Lane Thomas,2
Larry Bryant,2
Larry Johnson,7
Larry Reed,3
Larry Sanders,3
Larry Williams,4
Larysa Soloviova,2
Lasse Hansen,2
Laura Carter,3
Laura Cordoba,2
Laura Cordova,2
Laura de Groot,2
Laura Dodd,2
Laura Doran,2
Laura Fox,2
Laura Jones,4
Laura Lee,2
Laura Mitchell,2
Laura Simkins,2
Laura Smith,4
Laura Williams,4
Laura Wilson,2
Lauren Brewer,2
Lauren Brown,9
Lauren Davis,3
Lauren Evans,2
Lauren Green,2
Lauren Moore,3
Lauren Morris,3
Lauren Stewart,2
Lauren White,3
Laurence Scott,3
Lea Lambert,2
Leah Davis,2
Leandro Fernandez,2
Leanne Brown,2
Lee Austin,2
Lee Brown,3
Lee Harris,2
Lee Jacobs,2
Lee Johnson,5
Lee Kelly,2
Lee Moran,2
Lee Smith,9
Lee Thomas,2
Lee Williams,3
Lei Zhang,2
Leo Garza,2
Leo Hernandez,3
Leo Rubi,2
Leo Sanchez,4
Leo Wright,2
Leonardo Rodrigues,2
Leslie Griffin,2
Leslie Harris,4
Leslie Phillips,2
Leslie Williams,2
Lewis,28
Lewis Bennett,2
Lewis Hughes,4
Lewis Johnson,3
Lewis Jones,4
Lewis Wilkinson,4
Li-Ming Lin,2
Liam Collins,2
Liam Davidson,2
Liam Gleeson,2
Liam Hughes,2
Liam Jones,2
Liam MacDonald,2
Liam Turner,2
Linda Jones,2
Linda Miller,2
Lindsay Maguire,2
Lindsay McGuire,5
Lindsey Johnson,2
Linh Huynh,2
Linh Nguyen,5
Linus Nilsson,3
Lisa Baker,4
Lisa Grant,2
Lisa Johnston,2
Lisa Long,2
Lisa Marie,2
Lisa Miller,4
Lisa Perry,2
Lisa Tran,3
Lisa West,2
Lisa Weiss,2
Lisa Wilson,4
Lisandro Ortega,2
Lloyd Owen,2
Loc Nguyen,3
Logan Baker,3
Logan Eden,2
Logan Garcia,2
Logan Graham,2
Logan Green,3
Logan Leverett,2
Logan Meyer,2
Logan Price,2
Logan Reed,2
Logan Smith,13
Logan Taylor,4
Logan Williams,7
Long Tran,2
Lottie Hall,3
Louie Warren,2
Louis Brown,2
Louis Collins,2
Louis Hughes,2
Louise Clark,3
Louise Edwards,2
Louise Jones,3
Lu Wang,2
Luc Leblanc,2
Lucas Da Silva,2
Lucas Martin,4
Lucas Nguyen,2
Lucas Ordonez,2
Lucas Reynolds,2
Lucas Silva,2
Luciano Marrero,2
Lucy Hawkins,2
Lucy Robinson,2
Luigi De Rosa,2
Luis De Los Santos,2
Luis Gamez,2
Luis Garcia,18
Luis Lopez,16
Luis Munoz,7
Luis Otero,2
Luis Pacheco,2
Luis Ramos,8
Luis Rodriguez,14
Luis Soto,4
Luis Velez,2
Luka Spasic,2
Luke Ashton,2
Luke Bland,2
Luke Dolan,2
Luke Edwards,3
Luke Evans,4
Luke George,2
Luke Jordan,3
Luke Kelly,4
Luke MacDonald,2
Luke McCarthy,3
Luke Miller,7
Luke Mitchell,3
Luke Richardson,2
Luke Robinson,3
Luke Rogers,3
Luke Ross,2
Luke Talley,3
Luke Thompson,4
Luke Wells,2
Luke Williams,4
Luke Wilson,8
Luke Young,2
Lupe Gonzalez,4
Lupe Hernandez,3
Lupe Martinez,2
Lupe Rodriguez,2
Lynn Johnson,2
Lynn Smith,3
Lyubov Kuzmina,2
Lyudmila Egorova,2
M. Anderson,20
M. Ayers,2
M. Berry,3
M. Chapman,4
M. Clark,10
M. Davies,5
M. Dean,3
M. Ferguson,7
M. Galante,2
M. Gonzales,5
M. Hart,7
M. Hartman,2
M. Horton,6
M. Johnson,38
M. Jordan,6
M. Kelly,10
M. LeBed,2
M. Malone,6
M. Marlin,2
M. Moore,15
M. Quigley,2
M. Roberts,5
M. Robertson,4
M. Rogers,4
M. Scott,15
M. Smith,62
M. Stone,5
M. Suzuki,4
M. Thomas,19
M. Unden,2
M. Walker,13
M. White,12
M. Williamson,4
M. Wood,3
M. Zarefoss,2
Maciej Markowski,2
Mackenzie Baker,2
MacKenzie Brown,3
Mackenzie Lewis,2
Mackenzie Smith,2
Madison Andrews,2
Madison Garcia,2
Madison Hall,2
Madison Lewis,4
Madison Lopez,3
Madison Minter,2
Madison Smith,8
Madison Taylor,4
Magerram Magerramov,2
Makayla Brown,3
Makayla Smith,3
Maksim Alekseev,7
Maksim Andreev,4
Maksim Boyarskiy,2
Maksim Ermakov,7
Maksim Ivanov,27
Maksim Korotkov,3
Maksim Merkulov,2
Maksim Miroshnichenko,5
Maksim Pankov,2
Maksim Popov,21
Maksim Shaposhnikov,2
Maksim Stepanov,7
Maksim Yakimov,2
Maksim Zubarev,2
Malcolm Richards,2
Malik Smith,3
Manny DeLaRosa,2
Manuel Rodriguez,6
Marcin Bała,2
Marcin Sokołowski,2
Marco Schwarz,4
Marco Reyes,4
Marcus Collins,3
Marcus Henriksson,2
Marcus Hernandez,5
Marcus Jones,6
Marcus Morris,3
Marcus Williams,3
Marcus Wong,3
Marcus Woods,2
Margaret Carey,2
Maria Gutierrez,3
Maria Ramos,4
Maria Sanchez,5
María Sánchez Rodríguez,2
Mariah De La Garza,2
Mariah Martinez,2
Mariam Mahmoud,2
Marian Gibson,2
Marie Green,2
Marie Lawrence,2
Marina Castillo,3
Marina Somova,2
Mario Morales,4
Mario Rodriguez,6
Marion Gibson,2
Marion Smith,2
Marion Thomas,2
Marissa Erickson,2
Marissa Gonzalez,2
Marissa Mendoza,2
Marissa Ramirez,4
Marissa Wilson,3
Mariya Belousova,2
Mariya Chirkova,4
Mariya Kononova,2
Mariya Kosolapova,2
Mariya Kulikova,2
Mariya Markovich,2
Mariya Nikitina,3
Mariya Yakubovich,3
Mark Atkinson,2
Mark Baker,3
Mark Boone,2
Mark Burke,2
Mark Castillo,4
Mark Collins,4
Mark Cummins,3
Mark Daniels,3
Mark Dawson,2
Mark Dotson,2
Mark Dowling,2
Mark Evans,7
Mark Foster,2
Mark Garrison,3
Mark Green,2
Mark Hammond,2
Mark Harris,5
Mark Harrison,3
Mark Hartman,2
Mark Harvey,4
Mark Henderson,6
Mark Hennessey,2
Mark Henry,3
Mark Hernandez,7
Mark Jackson,7
Mark Johnson,20
Mark Jones,13
Mark Jordan,2
Mark Knight,3
Mark Lambert,2
Mark Lewis,3
Mark Little,2
Mark Lockwood,2
Mark Love,2
Mark Lyons,2
Mark McCoy,2
Mark McMurray,2
Mark Miller,12
Mark Morgan,2
Mark Northcutt,2
Mark Palmer,3
Mark Perry,3
Mark Plummer,2
Mark Roberts,2
Mark Schwartz,2
Mark Skinner,2
Mark Snyder,2
Mark Stamper,2
Mark Stewart,4
Mark Taylor,6
Mark Thompson,7
Mark Turner,5
Mark Wagner,5
Mark Walker,4
Mark Webb,2
Mark Williams,15
Mark Wright,3
Marque Johnson,3
Marsh,2
Marshall,9
Martin Brooks,2
Martin Brown,2
Martin Gonzalez,4
Martin Green,2
Martin Hernandez,8
Martin Jones,2
Martin Munoz,3
Martin Nguyen,4
Martin Perez,2
Martin Roberts,2
Martin Rodriguez,8
Martin Smith,4
Martin Wilson,2
Marty Taylor,2
Marvin Smith,4
Mary Cannon,2
Mary Thompson,2
Mason Evans,4
Mason Garcia,2
Mason Mills,3
Mason Phillips,3
Mason White,5
Máté Kiss,2
Mateo Lopez,3
Mathew Pearce,2
Matt Adams,2
Matt Brooks,2
Matt Brown,11
Matt Chapman,4
Matt Collins,5
Matt Cooper,3
Matt Gibson,5
Matt Golden,2
Matt Harding,3
Matt Harris,5
Matt Hartman,3
Matt Houser,2
Matt Howard,2
Matt James,3
Matt Jones,11
Matt Knight,4
Matt Miles,2
Matt Mitchell,7
Matt Moran,2
Matt Morgan,3
Matt Parker,3
Matt Phillips,4
Matt Richards,5
Matt Robertson,4
Matt Robinson,5
Matt Smith,41
Matt Sweeney,2
Matt Thompson,4
Matt Walker,3
Matt Ward,3
Matt Waters,2
Matt Watson,3
Matt Wilson,10
Matteo Serafini,2
Matthew Abraham,2
Matthew Anderson,5
Matthew Barlow,2
Matthew Barrett,2
Matthew Bauer,3
Matthew Becker,3
Matthew Bowman,2
Matthew Brown,16
Matthew Buck,2
Matthew Burke,4
Matthew Burton,2
Matthew Campbell,3
Matthew Carter,5
Matthew Chapman,4
Matthew Coleman,2
Matthew Collins,7
Matthew Cross,2
Matthew Cruz,3
Matthew Davis,19
Matthew Dixon,3
Matthew Donovan,2
Matthew Dyer,2
Matthew Evans,2
Matthew Fleming,3
Matthew Fulton,2
Matthew Gill,3
Matthew Gray,5
Matthew Greene,2
Matthew Hardy,2
Matthew Henderson,2
Matthew Hendrix,2
Matthew Henry,3
Matthew Hoffman,2
Matthew Hughes,4
Matthew Jackson,5
Matthew Jacobs,4
Matthew Jimenez,4
Matthew Johnson,19
Matthew Jones,25
Matthew Jordan,5
Matthew King,5
Matthew Knight,5
Matthew Levine,2
Matthew Livingston,2
Matthew Lopez,7
Matthew Lynch,6
Matthew Martinez,12
Matthew Martino,3
Matthew Mason,2
Matthew McMahon,2
Matthew Middleton,2
Matthew Moss,2
Matthew Newton,2
Matthew Nicholson,2
Matthew Perez,4
Matthew Powell,2
Matthew Ramos,3
Matthew Richards,4
Matthew Richardson,5
Matthew Sanchez,4
Matthew Shepherd,3
Matthew Slater,2
Matthew Smith,35
Matthew Sullivan,4
Matthew Thompson,14
Matthew Turner,6
Matthew Wagner,3
Matthew Walker,4
Matthew Wallace,2
Matthew Webb,4
Matthew White,5
Matthew Williams,10
Matthew Yeung,2
Matti Lahti,2
Matty Clark,2
Mauricio Rodriguez,5
Max Brown,3
Max Cooper,2
Max Dooley,2
Max Jones,4
Max Peek,2
Maximilian Tischler,2
Mayra Yanez,2
McKenzie Davis,2
Megan Carey,2
Megan Clark,2
Megan Evans,2
Megan Marshall,3
Megan Martin,3
Megan Moore,3
Megan Powell,3
Megan Reilly,3
Megan Robertson,2
Megan Smith,9
Megan Walton,2
Megan Ward,3
Megan White,6
Mel Smith,2
Melanie Martin,2
Melanie Stewart,3
Melissa Castillo,3
Melissa Clarke,3
Melissa Garza,2
Melissa Lochner,2
Melissa Moore,2
Melissa Ramos,3
Melissa Smith,8
Melissa Watkins,2
Micah Hughes,3
Micah Moore,3
Michael Adams,11
Michael Baca,3
Michael Barbuto,2
Michael Barker,2
Michael Bauer,4
Michael Bland,2
Michael Bond,4
Michael Booker,2
Michael Brooks,2
Michael Brown,34
Michael Bryan,3
Michael Burns,3
Michael Burton,2
Michael Caputo,2
Michael Carroll,5
Michael Church,2
Michael Coleman,10
Michael Collins,12
Michael Cook,7
Michael Cooley,2
Michael Cruz,6
Michael Davis,20
Michael Dean,5
Michael DeStefano,2
Michael Dunne,2
Michael Edwards,7
Michael Egan,3
Michael Farrell,3
Michael Ferguson,7
Michael Fernandes,2
Michael Fernández,4
Michael Fisher,2
Michael Flores,15
Michael Floyd,2
Michael Flynn,4
Michael Franklin,3
Michael Fry,5
Michael Gallagher,4
Michael Garcia,16
Michael Garza,7
Michael Gentile,3
Michael Gibson,4
Michael Gomez,4
Michael Graber,2
Michael Gray,4
Michael Hafner,4
Michael Hawkins,5
Michael Inman,2
Michael Jacob,3
Michael Jones,24
Michael King,7
Michael Kohl,2
Michael Kruger,4
Michael Le,2
Michael Lewis,14
Michael Long,4
Michael Longoria,2
Michael Lucas,2
Michael Maloney,2
Michael Marra,3
Michael Martinez,24
Michael McConville,2
Michael McCormack,2
Michael McHugh,4
Michael Medina,3
Michael Miller,12
Michael Moloney,2
Michael Moore,18
Michael Morris,5
Michael Morrissey,3
Michael Murray,8
Michael Newton,2
Michael Nguyen,17
Michael Nichols,3
Michael Norwood,4
Michael O'Brien,7
Michael Parker,8
Michael Pennington,2
Michael Pham,2
Michael Pinto,2
Michael Porter,4
Michael Ray,5
Michael Richards,4
Michael Richardson,3
Michael Riordan,2
Michael Roberts,3
Michael Rodriguez,22
Michael Rossi,4
Michael Ruiz,2
Michael Ryan,2
Michael Samson,2
Michael Sanchez,14
Michael Scott,15
Michael Shaw,3
Michael Sinclair,3
Michael Smith,32
Michael Stanley,5
Michael Taylor,16
Michael Thomas,7
Michael Tyler,3
Michael Vecchio,2
Michael Vo,4
Michael Wagner,4
Michael Walker,9
Michael Whiting,3
Michael Williams,26
Michael Yu,2
Michael Zuniga,2
Michaela Smith,2
Michel Taylor,2
Michele Robinson,2
Michelle Brand,2
Michelle Buchanan,2
Michelle de Jong,2
Michelle Knight,2
Michelle Lewis,2
Michelle Parkinson,2
Michelle Perez,2
Michelle Smith,11
Michelle Wan,2
Michelle Watson,2
Michelle Williams,2
Michelle Young,2
Miguel Castro,2
Miguel Flores,3
Miguel Gonzalez,4
Miguel López,10
Miguel Perez,6
Miguel Silva,4
Mike Adams,4
Mike Bailey,6
Mike Baker,2
Mike Barnett,2
Mike Boyer,2
Mike Brown,33
Mike Cannon,3
Mike Conley,3
Mike Cross,2
Mike Davies,3
Mike DeMartino,2
Mike Dixon,2
Mike Dodson,2
Mike Ellis,2
Mike Gibson,5
Mike Gonzalez,3
Mike Hall,3
Mike Harris,4
Mike Hernandez,2
Mike Jenkins,4
Mike Johnson,14
Mike Jones,24
Mike Joseph,2
Mike King,7
Mike L,2
Mike Lamb,2
Mike Lanier,2
Mike Lawrence,5
Mike Lopez,3
Mike MacDonald,2
Mike Maloney,2
Mike Martin,7
Mike McIntyre,2
Mike Miller,7
Mike Moore,7
Mike Morris,5
Mike Nichols,3
Mike Novak,2
Mike Raymond,2
Mike Roberts,5
Mike Rose,3
Mike Sanchez,5
Mike Scott,6
Mike Smith,17
Mike Stokes,2
Mike Stone,3
Mike Taylor,12
Mike Thompson,9
Mike Wade,3
Mike Walsh,2
Mike Ward,2
Mike Wolfe,3
Mike Womack,4
Mikhail Levchenko,2
Mikhail Shadrin,2
Mikhail Titov,5
Miles Davies,2
Min Zheng,2
Minh Duong,2
Minh Nguyen,12
Miranda Lopez,2
Mitch Lee,2
Mitchell Davis,2
Mitchell Jones,2
Mitchell Peters,2
Mohamad Arnaout,2
Mohammed Ali,2
Mohammed Rahman,2
Molly Gill,2
Molly Johnson,2
Mona Smith,2
Monica Benavides,2
Monica Flores,3
Montel Moore,2
Morgan,8
Morgan Adams,2
Morgan Brown,3
Morgan Clark,4
Morgan Cobb,2
Morgan Davis,2
Morgan Dooley,2
Morgan Evans,2
Morgan Fitzgerald,3
Morgan Foster,2
Morgan Garcia,2
Morgan Hicks,2
Morgan Hughes,2
Morgan Johnson,4
Morgan Jones,2
Morgan Kelley,2
Morgan Long,2
Morgan Lynch,2
Morgan Marshall,2
Morgan McIntosh,2
Morgan Miller,2
Morgan Price,2
Morgan Smith,10
Morgan Taylor,3
Morgan Thomas,2
Morgan Thompson,4
Morgan Turner,4
Morgan Williams,3
Morgan Young,2
Mukesh Singh,2
Murray,5
N. Evans,4
N. Miller,3
N. Thomas,6
Nadia Vasquez,2
Naomi Smith,2
Natalie Carr,2
Natalie Gibson,2
Natalie Hill,3
Natalie Lira,2
Natalie Lopez,3
Natalie Parker,2
Natalie Richards,2
Natalie Weber,2
Nataliya Ivanova,3
Nataliya Kustova,2
Natalya Kirilova,2
Natalya Kolesnikova,3
Natalya Kozak,2
Natalya Kuzmina,4
Natalya Lukyanova,2
Natalya Makarova,3
Natalya Orekhova,2
Natalya Osipova,3
Natalya Rudenko,3
Natalya Shevchuk,2
Natalya Starikova,2
Natalya Usova,2
Natalya Zakharova,2
Natasha Clarke,3
Nate Davis,2
Nate Gonzales,2
Nate Henderson,4
Nate Martinez,4
Nate Perry,2
Nate Wilson,4
Nathan Alexander,4
Nathan Andrews,2
Nathan Atkinson,2
Nathan Ballard,2
Nathan Carlin,3
Nathan Clay,2
Nathan Fleming,2
Nathan Fletcher,3
Nathan Green,2
Nathan Harris,5
Nathan Henderson,4
Nathan Jackson,4
Nathan James,2
Nathan Jones,7
Nathan King,3
Nathan Lam,2
Nathan Le,2
Nathan Long,2
Nathan Martin,4
Nathan Miller,8
Nathan Morgan,3
Nathan Nguyen,7
Nathan Peterson,2
Nathan Pogue,2
Nathan Roach,3
Nathan Robertson,2
Nathan Sanchez,4
Nathan Scott,5
Nathan Smith,18
Nathan Thompson,3
Nathan Walker,3
Nathan Wells,2
Nathan Wilson,4
Nathan Young,7
Nathaniel Baker,2
Nathaniel Hughes,2
Neil Cameron,2
Neil Cook,2
Neil Johnston,2
Neil Jones,3
Neil Matthews,2
Neil Morgan,2
Nelson Martínez,2
Nestor Gonzales,2
Nestor Gonzalez,2
Nicholas Anderson,7
Nicholas Bennett,2
Nicholas Brooks,2
Nicholas Calandra,2
Nicholas Collins,3
Nicholas Dileo,2
Nicholas Ellis,2
Nicholas Evans,4
Nicholas Galvan,3
Nicholas Guarino,2
Nicholas Hall,3
Nicholas Hansen,4
Nicholas Hill,3
Nicholas Hopkins,2
Nicholas Johnson,6
Nicholas Larson,3
Nicholas Martin,4
Nicholas Murphy,2
Nicholas Perez,8
Nick Anderson,6
Nick Angelini,2
Nick Baker,3
Nick Brooks,2
Nick Clark,5
Nick Collins,6
Nick Cook,4
Nick Duarte,2
Nick Dunn,5
Nick Fisher,3
Nick Garcia,7
Nick Hart,2
Nick Hill,3
Nick Miller,3
Nick Mitchell,3
Nick Moore,5
Nick Murray,3
Nick Richardson,4
Nick Rodriguez,9
Nick Rouse,2
Nick Rowe,2
Nick Russo,2
Nick Simpson,5
Nick Thomas,5
Nick Thompson,5
Nick Trevino,4
Nick Watson,2
Nick Wells,2
Nick Wright,3
Nickolas Johnson,2
Nicola Payne,2
Nicolas Briere,2
Nicolas Martin,4
Nicolas Perez,3
Nicole Brown,2
Nicole Craig,2
Nicole Davies,2
Nicole Hart,2
Nicole Hunter,2
Nicole Johnson,4
Nicole Mason,2
Nicole Nelson,2
Nicole O'Brien,3
Nicole Olsen,2
Nicole Payne,2
Nicole Thompson,3
Nicole Vu,2
Nigel Thomas,2
Nikita Dyakov,5
Nikita Efimov,5
Nikita Fatkin,2
Nikita Kuzmichev,2
Nikita Smirnov,8
Nikita Vorobev,3
Nikki Klein,2
Nikolay Emelyanov,4
Nikolay Nikolaev,2
Nikolay Sokolov,7
Noah Anderson,3
Noah Baker,3
Noah Hardy,2
Noah Johnson,6
Noah Jones,9
Noah Martinez,8
Noah Mathews,2
Noah Phillips,3
Noah Stern,2
Noah Williams,5
Noah Young,2
Noe Garcia,2
Noel Campos,2
Noel Lee,2
Norma Hernandez,2
O. Campo,2
O'Hara,2
Oddur Sigurðsson,2
Oksana Guseva,3
Oleg Afanasyev,4
Oleg Avdeev,2
Oleg Chernyavskiy,3
Oleg Gerasimov,4
Oleg Ivanov,13
Oleg Kaminskiy,2
Oleg Lebedev,4
Oleg Mikhaylov,2
Oleg Nikulin,3
Oleg Plotnikov,2
Oleg Sergienko,3
Oleg Smirnov,8
Oleg Stepanov,6
Oleg Timchenko,2
Oleg Vasilyev,2
Oleksandr Belov,2
Oleksandr Denisov,2
Oleksandr Klimenko,3
Oleksandr Lisovskiy,2
Oleksandr Lukyanenko,2
Oleksandr Medvedev,2
Oleksandr Miroshnichenko,5
Oleksandr Onischenko,3
Oleksandr Samus,2
Oleksandr Shevchenko,6
Oleksandr Yakovlev,3
Oleksiy Alekseenko,2
Oleksiy Miroshnichenko,2
Oleksiy Orlov,2
Olga Egorova,4
Olga Kovaleva,2
Olga Lapina,2
Oliver Castillo,2
Oliver Cook,2
Oliver James,3
Olivia Adams,3
Olivia Booth,2
Olivia Graham,2
Olivia Wilson,4
Ollie Brown,3
Ollie Roberts,3
Ollie Walker,2
Omar Ahmed,2
Omar Hernandez,4
Omar Martinez,4
Omar Villegas,2
Oscar Hernandez,5
Oscar Jorgensen,2
Oscar Rodriguez,9
Oscar Sandoval,3
Oscar Vasquez,4
Owen Bennett,2
Owen Smith,6
P. Bradley,2
P. Cannon,2
P. Collins,4
P. Davies,2
P. Evans,3
P. Hull,2
P. Rice,4
P. Roberts,5
P. Saindon,2
P. Stone,3
P. White,7
P. Young,6
Pablo Gutierrez,3
Pat Brooks,2
Pat Hall,3
Pat Kennedy,3
Pat Roberts,2
Pat Sullivan,5
Pat Wagner,3
Pat Walsh,2
Pat White,2
Patricia Morgan,3
Patrick Craig,2
Patrick Dickson,2
Patrick Flynn,2
Patrick Gill,3
Patrick Griffin,3
Patrick Hart,4
Patrick Hughes,3
Patrick Mackey,3
Patrick Maguire,2
Patrick McCloskey,2
Patrick McMahon,2
Patrick McNamara,3
Patrick Moore,5
Patrick Morrison,3
Patrick O'Connor,2
Patrick O'Neill,2
Patrick O'Reilly,2
Patrick Thomas,2
Patrick Walsh,4
Patrick Wells,2
Patrick Williams,6
Paul Abbott,2
Paul Adams,3
Paul Barnes,2
Paul Bennett,2
Paul Bryant,2
Paul Campbell,3
Paul Childress,2
Paul Conlon,2
Paul Cunningham,2
Paul Edwards,4
Paul Fleming,4
Paul Gigliotti,2
Paul Green,4
Paul Hammond,2
Paul Hickman,3
Paul Holland,2
Paul Jackson,2
Paul Johnson,7
Paul Jordan,2
Paul MacDonald,2
Paul Marsh,2
Paul Mears,2
Paul Michael,2
Paul Mitchell,3
Paul Muller,2
Paul Murphy,2
Paul Newman,3
Paul Nguyen,7
Paul Nicholson,2
Paul Parker,2
Paul Perez,5
Paul Scott,3
Paul Smith,14
Paul Steinman,2
Paul Todd,2
Paul Walker,3
Paul Williams,6
Paul Wood,4
Paul Wray,2
Paul Wright,2
Paul Yoder,2
Paula Mitchell,2
Paulo Santos,2
Paweł Nowak,2
Pavel Melnik,2
Pavel Svoboda,2
Pavel Zakharov,3
Payton Cox,2
Payton Dickerson,2
Payton Jones,2
Payton Price,2
Payton Riddle,2
Payton Roberts,2
Payton Smith,3
Payton Wilson,2
Peck,3
Pedro Moreira,2
Pedro Vazquez,2
Peen Coles,2
Perez,8
Pete Aaron,2
Pete Bush,2
Pete Smith,3
Peter Barrett,3
Peter Davis,2
Peter Hubbard,2
Peter Jones,4
Peter Kim,3
Peter King,3
Peter Lee,4
Peter Nguyen,17
Peter Solymosi,2
Peter Sutton,2
Peter Thielen,2
Peter Vu,2
Peter Weiss,2
Peter White,2
Peter Young,3
Petri Leinonen,2
Peyton Cox,2
Peyton Davis,2
Peyton Johnson,4
Peyton Smith,4
Peyton White,3
Phạm Anh Tú,2
Phil Harrington,2
Phil White,2
Philip Chan,2
Philip Sullivan,2
Phillip Bennett,3
Phillip Brewer,2
Phillip Kerr,2
Phoenix Smith,2
Phu Nguyen,2
Phuc Nguyen,5
Pieter De Waal,2
Piotr Sadowski,2
Preston Armstrong,2
Preston Turner,3
Pui Lam Chan,2
Qi Zhang,2
Quan Nguyen,2
Quentin Garcia,2
R. Ando,3
R. Bates,5
R. Brown,40
R. Caldwell,2
R. Clark,22
R. Foster,3
R. Gillen,2
R. Ivers,3
R. Jordan,9
R. Lara,4
R. McDonald,4
R. Oliver,3
R. Phelps,2
R. Preston,3
R. Ramirez,5
R. Ramos,6
R. Rowe,3
R. Simon,2
R. Thomas,21
Rachael Anderson,2
Rachael Horton,2
Rachael Johnson,2
Rachael Smith,2
Rachel Anderson,3
Rachel Barnes,2
Rachel Brown,2
Rachel Gregory,2
Rachel Hughes,3
Rachel Ives,2
Rachel Jones,3
Rachel Knight,2
Rachel Parker,3
Rachel Smith,7
Rachel Thomas,2
Rachel Williams,4
Rachel Wilson,6
Rafael De Jesus,2
Rakesh Kumar,4
Ramil Gasanov,2
Ramon Figueroa,2
Randy Scott,2
Raphael Rivera,2
Raul Hinojosa,2
Ravi,3
Ray Allison,2
Ray Cross,2
Ray Harris,3
Ray Perez,3
Ray Pierce,2
Ray Porter,3
Ray Wade,2
Ray White,2
Ray Williams,2
Raymond Bell,3
Raymond Gonzales,4
Raymond Harris,3
Raymond Nguyen,2
Raymond Wong,2
Reagan Chapman,3
Reagan Smith,3
Rebecca Barnett,2
Rebecca Brown,3
Rebecca Cooper,2
Rebecca Duffy,2
Rebecca Edwards,4
Rebecca Heath,3
Rebecca Jones,5
Rebecca Phillips,3
Rebecca Roberts,3
Rebecca Smith,3
Rebecca Williams,4
Rebecca Wilson,2
Reece Phillips,2
Reece Roberts,3
Reece Williams,2
Reese Roberts,2
Rene Hernandez,4
Rene Juarez,3
Rhys Bennett,2
Rhys Davies,3
Rhys Jones,3
Rhys Lloyd,2
Ricardo Martinez,9
Ricardo Morales,2
Ricardo Ortíz,3
Ricardo Pena,2
Rich Woods,2
Richard,2
Richard Adams,2
Richard Baker,3
Richard Brown,6
Richard Čech,2
Richard Chavez,2
Richard Clarke,3
Richard Cooper,2
Richard Crouch,2
Richard Daniel,2
Richard Davidson,2
Richard Flores,6
Richard Frank,2
Richard Green,2
Richard Johnson,7
Richard Jones,6
Richard Landry,2
Richard Lewis,4
Richard Maher,2
Richard Manuel,2
Richard Martin,2
Richard Murphy,2
Richard Nguyen,6
Richard Powell,2
Richard Roberts,5
Richard Ruiz,2
Richard Salazar,3
Richard Stevens,3
Richard Turner,2
Richard Williams,5
Richard Wright,2
Rick Clark,2
Rick Lewis,2
Rick Marshall,2
Rick Perez,2
Rick Reed,2
Rick Smith,4
Rick Thomas,4
Ricky Davis,4
Ricky Gomez,2
Ricky Hernandez,4
Ricky May,2
Ricky Nguyen,2
Ricky Ortiz,3
Ricky Smith,4
Ricky Thompson,2
Riley Brooks,2
Riley Carter,2
Riley Clark,2
Riley Davis,2
Riley Decker,2
Riley Miller,4
Riley Smith,6
Riley Wilson,4
Rob Allen,3
Rob Clark,4
Rob Maguire,2
Rob Ryan,2
Rob Smith,6
Rob Thomas,2
Rob Ward,3
Rob Williams,4
Robbie Fox,2
Robbie Garcia,2
Robbie Rees,2
Robbie Scott,2
Robbie Smith,2
Robert Adams,11
Robert Allen,3
Robert Austin,2
Robert Avery,2
Robert Barr,3
Robert Bennett,2
Robert Campbell,6
Robert Carmichael,2
Robert Craft,2
Robert Crawford,5
Robert Dempsey,2
Robert Doll,3
Robert Evans,8
Robert Garcia,12
Robert Godinez,2
Robert Graham,3
Robert Green,4
Robert Gregory,2
Robert Hayes,2
Robert Hill,6
Robert Hughes,7
Robert Hunt,3
Robert Johnston,4
Robert Jordan,2
Robert Keller,3
Robert Khun,2
Robert Ludwig,2
Robert Lynch,3
Robert McClure,2
Robert McGregor,2
Robert McMaster,2
Robert Miller,14
Robert Moore,15
Robert Morrison,4
Robert Newcomb,2
Robert Orr,4
Robert Palmer,3
Robert Peters,5
Robert Price,3
Robert Ramsey,4
Robert Sanchez,7
Robert Saunders,3
Robert Schmidt,5
Robert Scott,5
Robert Simmons,3
Robert Smith,12
Robert Stewart,4
Robert Tate,3
Robert Torres,5
Robert Trujillo,2
Robert Tucker,3
Robert Ward,2
Robert Young,7
Roberta Carlson,2
Roberto Rodriguez,9
Robin Black,3
Robin Nguyen,2
Robin Riley,2
Robin Smith,2
Robin Weber,2
Rocky Ruiz,2
Rocky Smith,3
Rod Hall,2
Rodion Golovko,2
Roger Davis,4
Roger Eriksson,2
Roger Gorumba,2
Roger Powell,2
Rogers,12
Roman Avdeev,2
Roman Bernatskiy,2
Roman Chebotarev,5
Roman Dyachenko,2
Roman Garcia,4
Roman Gavrilov,4
Roman Gonzales,4
Roman Ivanov,13
Roman Kuznetsov,20
Roman Lunev,2
Roman Lyutyy,3
Roman Martinez,2
Roman Martynenko,2
Roman Osin,2
Roman Pankov,2
Roman Pogorelov,3
Roman Savitskiy,3
Roman Shishkin,3
Roman Streletskiy,2
Roman Vershinin,3
Roman Zakirov,2
Romell Brown,2
Ron Conley,2
Ron Jacobs,3
Ron Johnson,2
Ron Mills,2
Ron White,4
Ross Page,2
Ross Thompson,2
Ross Watson,2
Ross Wiggin,2
Roy Brown,2
Ruben Gonzalez,6
Ruben Hernandez,3
Ruben Oliveira,2
Ruby Gutierrez,2
Ruby Martinez,2
Rudy Ruiz,4
Rui Ma,2
Ruslan Aliev,8
Ruslan Andreev,2
Russ Barlow,2
Russ Smith,3
Russell Edwards,2
Russell Johnson,5
Russell Taylor,4
Rustem Eredzhepov,2
Rusty Murphy,2
Ruth Douglas,2
Ruth Mitchell,2
Ryan Alexander,3
Ryan Allen,8
Ryan Aragon,3
Ryan Araujo,2
Ryan Bagley,2
Ryan Baker,3
Ryan Barnett,2
Ryan Brown,9
Ryan Campbell,3
Ryan Carrillo,2
Ryan Carter,2
Ryan Clark,10
Ryan Clifford,2
Ryan Collins,6
Ryan Dunn,4
Ryan Fisher,2
Ryan Gallo,2
Ryan Garcia,11
Ryan Gillis,3
Ryan Green,4
Ryan Gregory,2
Ryan Harrison,5
Ryan Hill,3
Ryan Horton,3
Ryan Huffman,3
Ryan Hughes,9
Ryan Humphries,2
Ryan Jacobs,2
Ryan Johnson,30
Ryan Jones,13
Ryan Jordan,4
Ryan Kennedy,3
Ryan Knight,2
Ryan King,9
Ryan Lee,6
Ryan Lucas,4
Ryan Martin,11
Ryan McCann,2
Ryan McClure,2
Ryan McDonnell,3
Ryan Miller,9
Ryan Mitchell,3
Ryan Morgan,6
Ryan Murphy,4
Ryan Myers,4
Ryan Ngo,2
Ryan O'Neill,4
Ryan Panozzo,2
Ryan Preston,3
Ryan Ramirez,4
Ryan Robinson,5
Ryan Rogers,3
Ryan Sanders,3
Ryan Shaw,2
Ryan Stephenson,2
Ryan Stewart,12
Ryan Strange,2
Ryan Sutton,2
Ryan Taylor,9
Ryan Thompson,5
Ryan Tran,4
Ryan Webb,3
Ryan Williams,10
Ryan Williamson,2
Ryan Wood,8
Ryan Young,5
Rylee Davidson,2
Rylee Davis,2
S. Allen,9
S. Allsop,2
S. Bell,9
S. Castillo,2
S. Coburn,2
S. Cook,10
S. Emmons,2
S. Fitzgerald,3
S. Gardner,2
S. Hall,11
S. Hanley,2
S. Harris,8
S. Helton,4
S. Herman,4
S. Hill,12
S. Hires,3
S. Hughes,6
S. Hultz,2
S. Johnson,35
S. Jones,26
S. Keen,2
S. Kelly,2
S. Long,5
S. McGowan,2
S. Middleton,2
S. Moyer,2
S. Murphy,10
S. Murray,7
S. Myre,2
S. Parks,2
S. Pearman,2
S. Pence,2
S. Phillips,6
S. Singh,3
S. Smith,45
S. Steele,3
S. Thomas,7
S. Wade,3
S. Weston,2
S. Whelan,2
Sabrina Miller,2
Sally Perry,2
Salman Khan,5
Sam Bell,3
Sam Bird,2
Sam Brookes,2
Sam Brown,6
Sam Butler,3
Sam Cameron,2
Sam Carter,3
Sam Clark,3
Sam Cook,2
Sam Cooper,4
Sam Fowler,7
Sam Garcia,4
Sam Goodwin,2
Sam Graham,2
Sam Grubbs,2
Sam Harrison,3
Sam Harvey,2
Sam Henderson,5
Sam Hoffman,3
Sam Jackson,4
Sam Johnson,6
Sam Jones,5
Sam Lawson,3
Sam Mangialardi,2
Sam Martinez,2
Sam Moore,6
Sam Murphy,4
Sam O'Brien,2
Sam Parker,3
Sam Preston,2
Sam Reeves,2
Sam Roberts,2
Sam Robinson,5
Sam Rogers,2
Sam Sanchez,3
Sam Shapiro,2
Sam Smith,11
Sam Sparks,2
Sam Sullivan,3
Sam Taylor,8
Sam Ware,2
Sam Warren,2
Sam Wood,2
Sam Wright,3
Samantha Brown,7
Samantha Cooper,3
Samantha Cox,2
Samantha Davis,2
Samantha Gardner,2
Samantha Johnson,3
Samantha Pierce,2
Samantha Reyes,2
Samantha Sanchez,3
Samantha Taylor,4
Samantha Thomas,2
Samantha Thompson,2
Samantha White,3
Samantha Wilson,3
Sammy Garcia,3
Samuel Brown,5
Samuel Cohen,3
Samuel Cook,4
Samuel Garcia,6
Samuel Hall,3
Samuel Legg,2
Samuel Lloyd,2
Samuel Sanchez,3
Samuel Smith,5
Samuel Taylor,4
Samuel Turner,3
Sandra Torres,2
Sandy Lee,2
Sara Grant,2
Sara Hill,3
Sara Jones,4
Sara King,2
Sara Smith,6
Sarah Allen,4
Sarah Ball,2
Sarah Bryant,2
Sarah Brenner,2
Sarah Brown,6
Sarah Butler,4
Sarah Coleman,3
Sarah Davis,5
Sarah Doyle,2
Sarah Ellis,4
Sarah Farmer,2
Sarah Green,2
Sarah Griffin,3
Sarah Hernandez,2
Sarah Johnson,10
Sarah Kelly,2
Sarah Klein,2
Sarah Lewis,3
Sarah Owen,2
Sarah Pearson,4
Sarah Porter,2
Sarah Scott,4
Sarah Skinner,3
Sarah Smith,9
Sarah Taylor,4
Sarah Vance,2
Sarah Walls,3
Sarah Watkins,2
Sarah Watson,4
Sarah Wells,3
Sarah White,2
Sarah Wilson,5
Scott Buchanan,2
Scott Davis,7
Scott Evans,3
Scott Ferguson,2
Scott Graham,4
Scott Hall,4
Scott Hanna,2
Scott Harvey,2
Scott Hill,2
Scott Hopkins,2
Scott Hughes,4
Scott Jackson,2
Scott McKenzie,2
Scott Morgan,6
Scott Nguyen,2
Scott Roberts,4
Scott Rowe,2
Scott Russell,4
Scott Sciaretta,2
Scott Simon,3
Scott Smith,18
Scott Sullivan,5
Scott Thomas,8
Scott Turner,4
Scott Walker,6
Scott Williams,4
Scott Wong,2
Scott Wood,6
Scott Wright,4
Scott York,2
Sean Barrett,3
Sean Brown,5
Sean Burke,2
Sean Burns,4
Sean Carroll,2
Sean Clarke,2
Sean Curran,4
Sean Dalton,2
Sean Dowling,2
Sean Dunn,2
Sean Gillespie,2
Sean Green,6
Sean Hayes,4
Sean Johnson,3
Sean Kelly,7
Sean Kim,3
Sean Logan,2
Sean MacDonald,2
Sean Malone,2
Sean McCarthy,5
Sean McDonald,3
Sean Miller,4
Sean Mills,2
Sean Nguyen,5
Sean Simpson,3
Sean Smith,9
Sean Sullivan,7
Sean Williams,5
Sean Williamson,3
Sebastian Gomez,4
Selin Mustafa,2
Seongjun Kim,2
Sergey Biryukov,9
Sergey Bondarenko,5
Sergey Danielyan,2
Sergey Fedorov,20
Sergey Gerasimov,10
Sergey Gorbachev,4
Sergey Ivankov,2
Sergey Kolesnichenko,2
Sergey Kolesnik,2
Sergey Konovalov,8
Sergey Kuznetsov,51
Sergey Lukyanenko,2
Sergey Malkov,6
Sergey Matveev,13
Sergey Menshchikov,2
Sergey Mikhalev,2
Sergey Novikov,15
Sergey Popov,30
Sergey Sherstnev,2
Sergey Shvetsov,4
Sergey Sokolov,19
Sergey Solovev,6
Sergey Solovyev,3
Sergey Sychev,5
Sergey Tarasov,13
Sergey Zakharov,15
Sergey Zhuravlev,9
Sergio Rodriguez,6
Sergio Sanchez,12
Sergio Torres,4
Sergiy Karnaukhov,2
Sergiy Kharchenko,2
Sergiy Kuznetsov,3
Sergiy Miroshnichenko,3
Sergiy Pozdeev,2
Sergiy Prokofev,3
Sergiy Solomyrskyy,2
Sergiy Znamirovskiy,2
Seth Hinson,2
Seth Johnson,5
Seth Soliz,2
Seung Lee,2
Shane Bernard,2
Shane Cahill,2
Shane Kelly,5
Shannon Brown,7
Shannon Cook,3
Shannon Evans,4
Shannon Hart,2
Shannon Jackson,2
Shannon Jones,2
Shannon Maxwell,2
Shannon Nichols,2
Shannon Ray,2
Shannon Rogers,2
Shannon Smith,3
Sharon Holmes,2
Sharon Ward,2
Shaun Davis,4
Shaun Hudson,2
Shaun Simpson,2
Shaun Smith,5
Shawn Brooks,2
Shawn Campbell,2
Shawn Edwards,2
Shawn Jones,9
Shawn Miller,2
Shawn Murphy,4
Shawn Sanchez,2
Shawn Warren,3
Shawn Watts,3
Shay Smith,2
Shay Ward,2
Shelby Anderson,2
Shelby Dickerson,2
Shelby Jones,3
Shelby Snow,2
Shelly Stewart,2
Shyam Singh Rana,2
Sierra Smith,2
Silvia Martinez,2
Simon Ellis,2
Simon Gee,2
Simon Lee,2
Simon Lewis,2
Simon Rowland,2
Simon Williams,2
Simon Zhu,2
Simone Corbett,2
Siobhan Hynes,2
Siriah Rodriguez,2
Skye Johnson,2
Skylar Crow,3
Skylar Farrow,2
Skylar Johnson,5
Skylar Nelson,2
Sofia Bernardo,2
Soo Ji Kim,2
Sophie Fuller,2
Sophie Scott,3
Sophie Smith,2
Sourabh,2
Space,2
Spencer Brown,5
Spencer Erickson,2
Spencer Ferguson,2
Spencer Grady,2
Spencer Martin,3
Stacey Nelson,2
Stacey Robinson,2
Stacy Hawkins,2
Stacy Miller,3
Stanislav Afanasev,2
Stanislav Kuznetsov,3
Stanislav Maksimov,2
Stanislav Mikhaylov,2
Stanislav Morozov,2
Stephanie Bennett,3
Stephanie Brown,4
Stephanie Hamilton,2
Stephanie Hernandez,4
Stephanie Howard,2
Stephanie Taylor,2
Stephane Thomas,2
Stephanie Walker,3
Stephanie Wilson,3
Stephen Adams,2
Stephen Anderson,2
Stephen Brown,5
Stephen Bryant,2
Stephen Coleman,2
Stephen Coody,2
Stephen Davies,2
Stephen Duffy,2
Stephen Evans,6
Stephen Johnson,6
Stephen Jones,6
Stephen King,6
Stephen Lane,2
Stephen Martin,6
Stephen Moore,7
Stephen Morris,3
Stephen Slater,2
Stephen Taylor,3
Stephen Webb,2
Stephen White,4
Sterling Brown,3
Steve Arnold,2
Steve Bennett,3
Steve Brandon,2
Steve Brown,13
Steve Dunn,3
Steve Fleming,3
Steve Frederick,2
Steve Gardner,3
Steve Jarvis,3
Steve Johnson,15
Steve King,3
Steve Knight,4
Steve Little,2
Steve Lumpee,2
Steve Mann,2
Steve McBride,2
Steve Meyer,3
Steve Miller,3
Steve Morgan,2
Steve Peña,2
Steve Prince,2
Steve Roberts,2
Steve Smith,15
Steve Snell,2
Steve Snyder,4
Steve Taylor,5
Steve Terry,2
Steve Walker,4
Steve White,2
Steve Wilson,2
Steve Wiseman,3
Steve Wright,4
Steven Bell,2
Steven Brown,4
Steven Carpenter,2
Steven Crane,2
Steven Evans,3
Steven Hall,2
Steven Hendry,2
Steven Jackson,3
Steven Johnson,2
Steven Jones,3
Steven Lee,7
Steven Miller,4
Steven Moore,5
Steven Moran,2
Steven Pham,3
Steven Phillips,2
Steven Rice,3
Steven Short,3
Steven Stewart,2
Steven Williams,5
Stevie Johnson,2
Stjepan Kovač,2
Stuart Ainsley,2
Stuart Cowan,2
Stuart Graham,2
Stuart Morris,2
Stuart Thompson,2
Sukhwinder Singh,3
Sunny Singh,2
Susan Edwards,2
Susan Farrell,2
Susan Johnson,3
Susan Wilson,2
Sutton,5
Suzanne Gray,2
Suzanne Smith,4
Svetlana Morozova,3
Sydney Stewart,3
T. An,2
T. Brooks,7
T. Daniels,2
T. George,2
T. Hamilton,6
T. Legg,2
T. Potter,2
T. Rice,2
T. Sharp,2
T. Webster,4
T. Weller,2
TaeHee Kim,2
Tám Nguyen,2
Tamara Cook,2
Tanner Jones,6
Tanner Williams,2
Tara Taylor,2
Taras Tarasenko,2
Tashell Kerr,2
Tatiana Rodriguez,2
Tatum Price,2
Tatyana Ovchinnikova,4
Tatyana Zaytseva,2
Taylor Allen,2
Taylor Armstrong,2
Taylor Ball,2
Taylor Bennett,3
Taylor Black,2
Taylor Brown,5
Taylor Chapman,2
Taylor Clark,2
Taylor Corley,2
Taylor Daniel,2
Taylor Davis,6
Taylor Dudley,2
Taylor Durham,2
Taylor Ellis,2
Taylor Evans,4
Taylor Ford,4
Taylor Foster,3
Taylor Garcia,2
Taylor Garrett,2
Taylor Green,2
Taylor Gregg,3
Taylor Guerrero,2
Taylor Haas,2
Taylor Haley,2
Taylor Hall,4
Taylor Harris,5
Taylor Henderson,2
Taylor Hobbs,2
Taylor Hunt,2
Taylor Hurt,2
Taylor Jackson,4
Taylor Johnson,8
Taylor Jones,5
Taylor Kelley,3
Taylor Kemp,2
Taylor Lane,2
Taylor Lewis,2
Taylor Lipscomb,2
Taylor Mackenzie,2
Taylor McKenzie,2
Taylor Medina,2
Taylor Miller,7
Taylor Mills,2
Taylor Moon,2
Taylor Moore,2
Taylor Morin,2
Taylor Morrison,2
Taylor Moss,2
Taylor Myers,2
Taylor Osborne,2
Taylor Parker,3
Taylor Payne,2
Taylor Perkins,3
Taylor Price,3
Taylor Ray,3
Taylor Reed,4
Taylor Reid,2
Taylor Roberts,3
Taylor Schneider,2
Taylor Smith,18
Taylor Thomas,9
Taylor Thompson,5
Taylor Torres,3
Taylor Tucker,2
Taylor Ward,3
Taylor Webster,2
Taylor West,3
Taylor Williams,9
Taylor Wright,2
Taylor Young,5
Taylor Zimmerman,2
Ted Cooper,2
Terry Baldwin,3
Terry Chapman,2
Terry Davis,3
Terry Edwards,6
Terry Hall,2
Terry Kirby,2
Terry Moore,2
Terry Morris,2
Terry Smith,8
Terry Turner,2
Terry Wilson,4
Tetyana Davidenko,2
Thanh Nguyen,8
Thanh Tran,3
Thao Pham,2
Theodore Nguyen,3
Theresa Farley,2
Thien Huynh,3
Thomas Adams,4
Thomas Anderson,4
Thomas Bennett,2
Thomas Bowman,3
Thomas Cross,3
Thomas Davis,5
Thomas Duong,2
Thomas Evans,7
Thomas Goodwin,2
Thomas Grant,3
Thomas Hatton,2
Thomas Hill,5
Thomas Johnston,6
Thomas Knapp,2
Thomas Knight,4
Thomas Lane,3
Thomas Le,4
Thomas Li,2
Thomas Lucas,4
Thomas Marshall,2
Thomas McCarthy,4
Thomas McCarty,2
Thomas McGovern,2
Thomas McKinney,2
Thomas McPherson,2
Thomas Miller,7
Thomas Morgan,2
Thomas On,2
Thomas Ochoa,2
Thomas Odell,2
Thomas Perry,2
Thomas Phillips,2
Thomas Robert,2
Thomas Simpson,2
Thomas Saunders,2
Thomas Tran,5
Thomas Wang,2
Thomas West,4
Thuong Nguyen,3
Tien Tran,2
Tiffany Do,2
Tiffany Nguyen,8
Tiffany Tran,2
Tiffany Wu,2
Tigran Simonyan,2
Tim Adkins,2
Tim Albanese,2
Tim Arnold,2
Tim Bailey,4
Tim Baker,4
Tim Clark,2
Tim Davies,2
Tim Gale,2
Tim Johnston,4
Tim Krause,2
Tim Lewis,3
Tim Martin,6
Tim Mitchell,6
Tim O'Brien,5
Tim Parker,5
Tim Paul,2
Tim Smith,11
Tim Taylor,6
Tim Willis,2
Timothy Brown,3
Timothy Davies,2
Timothy Lee,2
Timothy Wang,2
Tina Collins,2
Tina Michaud,2
TJ Collins,2
TJ Williams,3
Tobias McMillan,2
Todd Wilson,3
Tom Bell,2
Tom Bishop,2
Tom Bowen,4
Tom Brown,8
Tom Burns,2
Tom Carroll,4
Tom Clarke,2
Tom Collins,3
Tom Conklin,2
Tom Cunningham,2
Tom Davies,2
Tom Davis,10
Tom Ford,2
Tom Fox,4
Tom Gee,2
Tom Griffin,3
Tom Griffiths,2
Tom Hawkins,2
Tom Henderson,3
Tom Holloway,2
Tom Jackson,4
Tom Jenkins,3
Tom Johnston,2
Tom Jones,4
Tom Kenyon,2
Tom Lee,4
Tom MacDonald,3
Tom Marshall,2
Tom Martin,6
Tom Miller,5
Tom Murphy,4
Tom O'Donnell,3
Tom Potter,2
Tom Price,3
Tom Roberts,3
Tom Ross,2
Tom Rowell,2
Tom Scott,2
Tom Smith,12
Tom Taylor,6
Tom Ward,3
Tom Warren,2
Tom Wilkins,2
Tom Williams,6
Tom Wright,3
Tomas Gomez,2
Tomas Novak,2
Tommie Lee,2
Tommy Brown,2
Tommy Holland,3
Tommy Ray D'Ortez,2
Toni Smith,2
Tony Baez,2
Tony Brown,6
Tony Del Vecchio,2
Tony Fuller,2
Tony Galvez,2
Tony Harvey,2
Tony Howard,3
Tony Jackson,2
Tony Le,4
Tony Mai,2
Tony Moore,2
Tony Nguyen,11
Tony Payne,2
Tony Pedersen,2
Tony Ramos,3
Tony Robinson,3
Tony Rodriguez,5
Tony Rose,2
Tony Sanders,4
Tony Scott,2
Tony Stevens,2
Tony Vuong,2
Tony Young,2
Tori Baker,2
Tracy Adams,3
Tracy Brown,4
Tracy Bryant,3
Tracy Ellis,2
Tracy Johnson,9
Tracy Jones,4
Tracy Linton,2
Tracy Nguyen,2
Tracy Roberts,2
Tracy Russell,2
Tracy Smith,4
Travis Bell,2
Travis Ford,3
Travis McDonald,2
Travis Morgan,2
Travis Parker,4
Travis Thomson,2
Travis Tran,2
Travis Webb,3
Travis Webster,2
Travis Wilson,4
Tray Jones,2
Trevor Gilbert,2
Trevor Jackson,3
Trevor Miller,4
Trevor Morris,4
Trey Cunningham,2
Trey Johnson,2
Trey Williams,6
Tristan Murphy,2
Tristan Nguyen,2
Tristan Perez,3
Tristan Price,2
Troy Robinson,2
Troy Rogers,2
Troy Williams,2
Tu Le,3
Tuan Nguyen,4
Ty Evans,3
Ty Martin,2
Tyler Adams,7
Tyler Bailey,2
Tyler Black,2
Tyler Brooks,2
Tyler Carter,7
Tyler Carver,2
Tyler Collins,5
Tyler Copeland,2
Tyler Courtney,2
Tyler Elliott,3
Tyler Evans,5
Tyler Garcia,4
Tyler Glover,2
Tyler Gray,5
Tyler Gould,2
Tyler Hall,7
Tyler Henderson,2
Tyler Jackson,5
Tyler Jones,10
Tyler Lang,2
Tyler Lee,3
Tyler Lloyd,3
Tyler Mann,2
Tyler Martin,10
Tyler Martinez,5
Tyler Morgan,4
Tyler Morrow,3
Tyler Mullins,2
Tyler Nguyen,7
Tyler Oliver,2
Tyler Pearson,3
Tyler Pierson,3
Tyler Reynolds,4
Tyler Sanders,2
Tyler Simpson,3
Tyler Smith,14
Tyler Tucker,2
Tyler Wagner,3
Tyler White,6
Tyler Wilson,14
Tyler York,2
Tyler Young,4
Tyson Hubbard,2
Ulyana Zakhozhaya,2
V. Edwards,2
V. Welch,2
Vadim Aliev,2
Vadim Bondar,3
Valentin Kalinin,2
Valerie Leblanc,2
Valerie Sanchez,3
Valerie Smith,3
Valeriy Babich,2
Valeriy Chernov,3
Valeriy Gazayev,2
Valeriy Grigorev,2
Valeriy Karpov,2
Valeriy Kuznetsov,8
Valeriy Marchenko,2
Valeriy Melnik,2
Valeriy Savin,2
Valeriy Savinkin,2
Valeriy Sokolov,3
Valery Novik,2
Vanessa Butler,2
Vanessa Martinez,10
Vanessa Moreno,2
Vanessa Reed,2
Vasiliy Karpov,2
Veniamin Nikitin,2
Veronica Garcia,5
Veronica Rodriguez,3
Victor Aguilar,6
Victor Castro,3
Victor Hernandez,16
Victoria Anderson,2
Victoria Bell,2
Victoria Gutierrez,3
Victoria Hammond,2
Victoria Jones,2
Victoria Martinez,6
Victoria Miller,2
Victoria Robinson,2
Victoria Savage,4
Victoria Smith,5
Viktor Chernysh,3
Viktor Druzhininskiy,2
Viktor Falbiychuk,2
Viktor Grischenko,2
Viktor Kostyuk,2
Viktor Kurbatov,2
Viktor Kuznetsov,5
Viktor Nikitin,5
Viktor Pastukhov,2
Viktor Piskunov,2
Viktor Popov,7
Viktor Shevchenko,4
Viktor Yatsishin,2
Viktor Yurchenko,3
Viktoriya Boyko,2
Viktoriya Fedorova,2
Viktoriya Kalashnikova,2
Viktoriya Kazakova,2
Viktoriya Popova,2
Vincent Brown,2
Vincent Jones,4
Vincent Nguyen,12
Vinh Nguyen,9
Vitaliy Alekseev,2
Vitaliy Belyaev,4
Vitaliy Berko,2
Vitaliy Bondarev,3
Vitaliy Boyko,2
Vitaliy Burlakov,3
Vitaliy Dergachev,2
Vitaliy Dmitriev,2
Vitaliy Kasyanenko,2
Vitaliy Khaustov,3
Vitaliy Kotov,3
Vitaliy Kucheruk,2
Vitaliy Marchenko,3
Vitaliy Mazur,2
Vitaliy Mikheev,3
Vitaliy Miroshnichenko,2
Vitaliy Omelchenko,2
Vitaliy Samoylich,2
Vitaliy Savelev,2
Vitaliy Savin,3
Vitaliy Shvets,2
Vitaliy Sidorov,3
Vitaliy Tereschenko,3
Vitaliy Titarenko,2
Vitaliy Tkachenko,3
Vitaliy Vasilyev,2
Vitaliy Yurchenko,2
Vladimir Bondarenko,4
Vladimir Lysenko,3
Vladimir Maksimov,5
Vladimir Omelchenko,2
Vladimir Urban,2
Vladimir Volkov,9
Vladimir Zakharov,8
Vladimir Zavyalov,4
Vladislav Ermakov,2
Vladislav Ivanenko,2
Vladislav Kravchenko,4
Vladislav Mavrin,2
Vladislav Moiseev,2
Vladislav Nikitin,4
Vladislav Savitskiy,3
Vladislav Sirenko,2
Vladislav Vershinin,3
Vladislav Vishnevskiy,2
Volodymyr Lebedev,2
Vy Nguyen,2
Vyacheslav Arkhipov,2
Vyacheslav Babenko,2
Vyacheslav Filimonov,2
Vyacheslav Gorbunov,5
Vyacheslav Kazantsev,2
Vyacheslav Konovalov,3
Vyacheslav Kravchenko,4
Vyacheslav Maksimov,3
Vyacheslav Pankov,2
Vyacheslav Petrov,5
Vyacheslav Vlasyuk,2
Vyacheslav Yakovlev,5
Vyacheslav Zhukov,2
W. Aller,3
W. Davies,2
W. Hill,6
W. Lewis,3
W. Sharp,3
W. Stewart,8
Wade Phillips,2
Walter Diaz,2
Walter Thomas,2
Ward,8
Warren Lee,2
Watts,2
Wayne Hunter,2
Wayne Jordan,2
Wei Liu,2
Wei Wang,3
Wendy Harris,2
Wendy Williams,2
Wesley Cheng,2
Wesley Evans,3
Wesley Hall,2
Wesley Johnson,2
Wesley Paul,2
Wesley Williams,6
Will Barnett,3
Will Clarke,2
Will McKinney,2
Will Morgan,2
Will Smith,13
Will Woods,2
Willi Müller,2
William Adams,6
William Allen,3
William Andrews,6
William Black,4
William Brennan,2
William Brown,13
William Cooper,3
William Curtis,2
William Davis,5
William Dixon,3
William Dunn,5
William Green,4
William Hall,11
William Hobbs,2
William Jackson,7
William Jones,10
William Kelly,3
William Lake,2
William Lawson,2
William Lay,3
William Manning,2
William McLaughlin,4
William Moore,11
William Morgan,2
William Murray,5
William Myers,2
William Newton,2
William Nichols,4
William Payne,3
William Penny,2
William Peters,2
William Phillips,4
William Pickering,2
William Powell,2
William Reed,5
William Rodgers,3
William Simpson,3
William Smith,19
William Spencer,3
William Talbot,3
William Vazquez,2
William Walker,9
William Wallace,4
William Watson,2
William Watts,5
William Webb,3
William West,4
William Wright,4
Williams,36
Willie Wong,2
Won Hee Han,3
Wood,6
Xavier Johnson,2
Xavier Perez,3
Xiao Wang,2
Yan Chen,2
Yan Sun,2
Yan Wang,2
Yana Kuznetsova,2
Yang Xu,2
Yaroslav Yaroslavskiy,2
Yash Sharma,3
Yessica Martinez,2
Yevgen Vasilyev,2
Yevgen Yakovlev,2
Yi Chen,4
Ying Sun,2
Yizhen Wang,2
Yi-Chun Chen,2
Young Jun Kim,2
Yousef Yousef,2
Yu Zhang,2
Yuan Dong,2
Yue Cui,2
Yuliya Antonova,3
Yuliya Karaseva,2
Yuliya Kravchenko,5
Yuliya Manko,2
Yuliya Matveeva,2
Yuliya Medvedeva,4
Yuliya Novikova,5
Yuliya Ostapenko,2
Yuliya Rudenko,3
Yuliya Shevchenko,2
Yuliya Smirnova,4
Yuliya Vovk,2
Yulong Li,2
Yuriy Akulov,2
Yuriy Alekseev,3
Yuriy Antonov,8
Yuriy Babenko,2
Yuriy Baranov,3
Yuriy Chernyavskiy,2
Yuriy Dudnik,2
Yuriy Fedotov,2
Yuriy Ischenko,2
Yuriy Ivanov,13
Yuriy Kolesnikov,3
Yuriy Konev,2
Yuriy Kravchenko,6
Yuriy Kukhterin,2
Yuriy Kulikov,3
Yuriy Kuzmenkov,2
Yuriy Lutsenko,2
Yuriy Mazur,2
Yuriy Medvedev,2
Yuriy Melnichenko,2
Yuriy Panteleev,2
Yuriy Parkhomenko,2
Yuriy Pavlov,2
Yuriy Pavlovskiy,2
Yuriy Polishchuk,5
Yuriy Popov,5
Yuriy Prokopenko,3
Yuriy Radchenko,2
Yuriy Romanov,2
Yuriy Sedin,2
Yuriy Semenov,6
Yuriy Sereda,2
Yuriy Shulga,4
Yuriy Smirnov,8
Yuriy Sobolev,2
Yuriy Sviridenko,2
Yuriy Vasilev,5
Yuriy Vlasov,2
Yusuf Rehman,2
Yves Garcia,2
Zac Mayo,2
Zach Allen,2
Zach Baggett,2
Zach Baker,4
Zach Brown,5
Zach Cole,2
Zach Flowers,2
Zach Mitchell,2
Zach Moore,7
Zach Morrow,3
Zach Murphy,2
Zach Robinson,2
Zach Smith,20
Zach Taylor,10
Zach Turner,2
Zach Wilson,4
Zachary Green,2
Zachary Jones,3
Zachary Lee,2
Zachary Nelson,5
Zachary Phillips,4
Zachary Turner,3
Zachary Wagner,2
Zachary Williams,6
Zack Allen,2
Zack Austin,2
Zack Cox,2
Zack Jackson,2
Zack Johnson,4
Zack Scott,2
Zackary Sanders,2
Zak Miller,2
Zak Taylor,2
Zane Smith,2
Zeb Jones,2
Zhanna Ivanova,3
Zion Lewis,3
Zoe Gonzalez,3
Zoey Baker,2
Zoltan Horvath,3
Zoltan Kiss,2
