Place,Name,BirthDate,Sex,BirthYear,Age,State,Equipment,Division,BodyweightKg,WeightClassKg,Squat1Kg,Squat2Kg,Squat3Kg,Best3SquatKg,Bench1Kg,Bench2Kg,Bench3Kg,Best3BenchKg,Deadlift1Kg,Deadlift2Kg,Deadlift3Kg,Best3DeadliftKg,TotalKg,Event,Tested
1,Dakota Courtright,,F,2009,14,NE,Raw,J13-15,74.5,75,127.5,142.5,155,155,65,72.5,-77.5,72.5,150,162.5,170,170,397.5,SBD,Yes
1,Emily Scherle,,F,2007,17,IA,Raw,J16-17,66.4,67.5,77.5,87.5,-102.5,87.5,55,-60,-60,55,65,102.5,-110,102.5,245,SBD,Yes
1,Zoey Morris,,F,2006,17,IA,Raw,J16-17,107.3,110,145,152.5,-162.5,152.5,72.5,75,80,80,137.5,150,157.5,157.5,390,SBD,Yes
1,Amina McClendon,,F,2004,19,MO,Raw,J18-19,59.5,60,120,127.5,137.5,137.5,-62.5,70,-77.5,70,147.5,157.5,167.5,167.5,375,SBD,Yes
1,Kennedy Apgar,,F,2000,23,NE,Raw,J20-23,66.4,67.5,100,105,110,110,62.5,65,70,70,132.5,137.5,142.5,142.5,322.5,SBD,Yes
1,Mya White,,F,2000,23,IA,Raw,J20-23,72.6,75,167.5,180,-185,180,100,107.5,-110,107.5,177.5,-195,205,205,492.5,SBD,Yes
2,Dahlia Gardiner,,F,2003,20,IA,Raw,J20-23,73.3,75,117.5,125,132.5,132.5,67.5,72.5,-77.5,72.5,165,177.5,185,185,390,SBD,Yes
1,Brooke Thompson,,F,2004,20,MN,Raw,J20-23,79.3,82.5,137.5,142.5,-152.5,142.5,57.5,65,70,70,142.5,147.5,155,155,367.5,SBD,Yes
2,Julie Mcfee,,F,2002,21,NE,Raw,J20-23,75.1,82.5,-97.5,97.5,-107.5,97.5,47.5,52.5,55,55,120,130,137.5,137.5,290,SBD,Yes
1,Grace Watrin,,F,2000,23,WI,Raw,J20-23,89.1,90,160,-170,175,175,-67.5,-75,75,75,-167.5,167.5,-172.5,167.5,417.5,SBD,Yes
1,Rageana Davidson,,F,1983,40,IA,Raw,M40-44,58.5,60,122.5,130,-135,130,62.5,65,-70,65,122.5,130,-137.5,130,325,SBD,Yes
2,Emily Deugan,,F,1983,40,IA,Raw,M40-44,58.5,60,77.5,85,90,90,45,48,50.5,50.5,97.5,105.5,113,113,253.5,SBD,Yes
1,Katie Andes,,F,1980,43,MO,Raw,M40-44,108.5,110,-150,150,-160,150,97.5,-102.5,102.5,102.5,160,167.5,172.5,172.5,425,SBD,Yes
1,Jen Veenstra,,F,1977,46,IA,Raw,M45-49,62.8,67.5,87.5,95,102.5,102.5,55,58,-60,58,120,127.5,-130,127.5,288,SBD,Yes
2,Holly Jacobson,,F,1975,48,IA,Raw,M45-49,65.2,67.5,65,72.5,-85,72.5,52.5,-57.5,-57.5,52.5,102.5,115,125,125,250,SBD,Yes
1,Rachel Mcburney,,F,1977,46,IA,Raw,M45-49,73.2,75,115,125.5,130,130,62.5,65,-67.5,65,137.5,145,150,150,345,SBD,Yes
1,Angela Ferrante,,F,1990,33,NE,Raw,Open,47.9,48,-105,105,-107.5,105,35,37.5,-40,37.5,115,117.5,122.5,122.5,265,SBD,Yes
1,Sierra Gribble,,F,1993,30,MO,Raw,Open,59.8,60,130,135,-140.5,135,67.5,72.5,-76,72.5,137.5,142.5,150,150,357.5,SBD,Yes
2,Alise Pape,,F,1995,29,NE,Raw,Open,58.8,60,112.5,117.5,122.5,122.5,70,-72.5,-72.5,70,147.5,155,-160,155,347.5,SBD,Yes
3,Andreanna Smith,,F,1984,39,NE,Raw,Open,58.3,60,112.5,-120,120,120,70,72.5,-73,72.5,135,142.5,150,150,342.5,SBD,Yes
4,Rageana Davidson,,F,1983,40,IA,Raw,Open,58.5,60,122.5,130,-135,130,62.5,65,-70,65,122.5,130,-137.5,130,325,SBD,Yes
5,Stephanie Zarate,,F,1998,26,IA,Raw,Open,59.5,60,87.5,97.5,-105,97.5,55,60,62.5,62.5,115,127.5,137.5,137.5,297.5,SBD,Yes
1,Jazmin R Ramsey,,F,1989,34,MO,Raw,Open,66.7,67.5,135,-145,145,145,67.5,72.5,-78,72.5,142.5,152.5,162.5,162.5,380,SBD,Yes
2,Lois Bornmann,,F,1992,31,NE,Raw,Open,65.6,67.5,-120,120,130,130,72.5,75,76,76,147.5,155,160,160,366,SBD,Yes
3,Miranda Good,,F,1992,31,IA,Raw,Open,60.7,67.5,135,-140,-140,135,62.5,-65,-65,62.5,152.5,157.5,-162.5,157.5,355,SBD,Yes
1,Mya White,,F,2000,23,IA,Raw,Open,72.6,75,167.5,180,-185,180,100,107.5,-110,107.5,177.5,-195,205,205,492.5,SBD,Yes
2,Rosanna Arias,,F,1997,26,KS,Raw,Open,73.8,75,-142.5,142.5,152.5,152.5,85,-90,-90,85,162.5,172.5,-180,172.5,410,SBD,Yes
3,Lauren Helmka,,F,1990,33,IA,Raw,Open,74.8,75,125,-132.5,135,135,60,65,-67.5,65,147.5,157.5,-167.5,157.5,357.5,SBD,Yes
4,Tatyana Fastovskaya,,F,1991,32,KS,Raw,Open,72.7,75,105,112.5,-117.5,112.5,57.5,62.5,-67.5,62.5,147.5,165,170,170,345,SBD,Yes
5,Rebekah Ross,,F,1994,29,MN,Raw,Open,72.3,75,-102.5,107.5,-117.5,107.5,62.5,-67.5,70,70,117.5,125,-132.5,125,302.5,SBD,Yes
6,Yevgeniia Mishchenko,,F,1995,28,MN,Raw,Open,72.1,75,97.5,102.5,110,110,-45,47.5,-50,47.5,-102.5,107.5,115,115,272.5,SBD,Yes
1,Amber Flummerfelt,,F,1998,25,KS,Raw,Open,82.1,82.5,152.5,170,-177.5,170,67.5,-72.5,-72.5,67.5,185,197.5,-205,197.5,435,SBD,Yes
2,Kinzi Vanwyk,,F,1999,24,IA,Raw,Open,81.2,82.5,130,140,-145,140,67.5,70,-77.5,70,155,160,167.5,167.5,377.5,SBD,Yes
3,Maci Nickolite,,F,2000,24,NE,Raw,Open,82.3,82.5,112.5,120,125,125,-60,60,-65,60,125,137.5,-145,137.5,322.5,SBD,Yes
1,Savanna Buskness,,F,1996,27,ND,Raw,Open,88.1,90,155,162.5,170,170,87.5,92.5,-98,92.5,180,187.5,192.5,192.5,455,SBD,Yes
2,Julianna Preston,,F,1992,31,ND,Raw,Open,86.1,90,160,167.5,175,175,82.5,85,-92.5,85,142.5,-157.5,165,165,425,SBD,Yes
1,Chelsi Birchmier,,F,1990,34,IA,Raw,Open,97.7,100,140,150,155,155,85,90.5,-93,90.5,175,185,197.5,197.5,443,SBD,Yes
2,Alexis Bakken,,F,1999,24,MN,Raw,Open,99.3,100,132.5,-140,-140,132.5,52.5,57.5,-62.5,57.5,170,175,-182.5,175,365,SBD,Yes
3,Bailey Poolman,,F,1989,34,IA,Raw,Open,100,100,107.5,120,130,130,57.5,62.5,-67.5,62.5,105,120,-127.5,120,312.5,SBD,Yes
1,Katie Andes,,F,1980,43,MO,Raw,Open,108.5,110,-150,150,-160,150,97.5,-102.5,102.5,102.5,160,167.5,172.5,172.5,425,SBD,Yes
1,Kiah Allen,,F,1995,28,IA,Raw,Open,121.4,125,150,157.5,165,165,87.5,92.5,-95.5,92.5,-190,205,215.5,215.5,473,SBD,Yes
2,Emily Ferren,,F,1994,29,IA,Raw,Open,123.9,125,137.5,147.5,152.5,152.5,-67.5,72.5,77.5,77.5,130,-145,160,160,390,SBD,Yes
DQ,Casey Dye,,F,1994,29,IA,Raw,Open,123.2,125,-210,-210,-210,,77.5,82.5,85,85,190,205,-227.5,205,,SBD,Yes
1,Yashodha Gould,,F,1988,35,IA,Raw,S35-39,49.1,52,72.5,-77.5,83,83,47.5,50.5,52.5,52.5,97.5,103,105,105,240.5,SBD,Yes
1,Andreanna Smith,,F,1984,39,NE,Raw,S35-39,58.3,60,112.5,-120,120,120,70,72.5,-73,72.5,135,142.5,150,150,342.5,SBD,Yes
1,Laura Schiltz,,F,1986,37,IA,Raw,S35-39,66.2,67.5,132.5,137.5,140,140,80,82.5,-83.5,82.5,150,157.5,160,160,382.5,SBD,Yes
1,Jeanette Pfrimmer,,F,1987,36,IA,Raw,S35-39,73.1,75,120,130,137.5,137.5,62.5,65,-68,65,150,157.5,162.5,162.5,365,SBD,Yes
1,Becky Vandermark,,F,1986,37,IA,Raw,S35-39,80.4,82.5,95,100,105,105,50,55,60,60,132.5,140,-148,140,305,SBD,Yes
G,Emily Woolsey,,F,1989,34,IA,Raw,Guest,71.2,75,-87.5,87.5,92.5,92.5,62.5,-65,-65,62.5,130,135,-140,135,290,SBD,Yes
1,Emily Deugan,,F,1983,40,IA,Raw,M40-44,58.5,60,,,,,45,48,50.5,50.5,97.5,105.5,113,113,163.5,BD,Yes
1,Mallory Flannery,,F,1996,27,IA,Raw,Open,71.2,75,,,,,-72.5,72.5,75.5,75.5,130,140,148,148,223.5,BD,Yes
1,Amber Flummerfelt,,F,1998,25,KS,Raw,Open,82.1,82.5,,,,,67.5,-72.5,-72.5,67.5,185,197.5,-205,197.5,265,BD,Yes
1,Casey Dye,,F,1994,29,IA,Raw,Open,123.2,125,,,,,77.5,82.5,85,85,190,205,-227.5,205,290,BD,Yes
1,Jeanette Pfrimmer,,F,1987,36,IA,Raw,S35-39,73.1,75,,,,,62.5,65,-68,65,150,157.5,162.5,162.5,227.5,BD,Yes
1,Leslie Albert,,F,2006,17,IL,Wraps,J16-17,118.3,125,187.5,200,210,210,80,85,-90,85,150,-165,175,175,470,SBD,Yes
1,Cecy Supanchick,,F,1982,41,NE,Wraps,M40-44,96.1,100,172.5,185,-190,185,105,110.5,-112.5,110.5,172.5,185,188,188,483.5,SBD,Yes
1,Ashley Wilson #1,,F,1997,26,IA,Wraps,Open,67.1,67.5,185,-200.5,-200.5,185,85,90,-92.5,90,205,220,230,230,505,SBD,Yes
1,Cecy Supanchick,,F,1982,41,NE,Wraps,Open,96.1,100,172.5,185,-190,185,105,110.5,-112.5,110.5,172.5,185,188,188,483.5,SBD,Yes
1,Leslie Albert,,F,2006,17,IL,Wraps,Open,118.3,125,187.5,200,210,210,80,85,-90,85,150,-165,175,175,470,SBD,Yes
1,Trae Hartwig,,M,2008,15,IA,Raw,J13-15,55.3,56,110,122.5,127.5,127.5,72.5,77.5,85,85,115,130,145,145,357.5,SBD,Yes
1,Steven Peterson,,M,2009,15,IA,Raw,J13-15,80.5,82.5,175,185,190,190,87.5,92.5,-97.5,92.5,190,-200,-202.5,190,472.5,SBD,Yes
1,Ethan Roggenburg,,M,2008,15,IA,Raw,J13-15,88.7,90,160,167.5,172.5,172.5,-90,90,-100,90,205,-212.5,-212.5,205,467.5,SBD,Yes
2,Kyler Desy,,M,2009,14,IA,Raw,J13-15,87.8,90,-142.5,142.5,-155,142.5,97.5,-102.5,105,105,145,155,-165,155,402.5,SBD,Yes
1,Brailyn Desy,,M,2006,17,IA,Raw,J16-17,74.5,75,-155,155,170,170,95,102.5,-110,102.5,175,192.5,-210,192.5,465,SBD,Yes
2,Sahn Thach,,M,2006,17,IA,Raw,J16-17,71.9,75,142.5,150,155,155,75,82.5,87.5,87.5,192.5,200,210,210,452.5,SBD,Yes
3,Lucas Nelson,,M,2007,16,IA,Raw,J16-17,74.7,75,155,165,-170,165,75,82.5,87.5,87.5,172.5,185,-192.5,185,437.5,SBD,Yes
1,Kohen Kucks,,M,2006,17,IA,Raw,J16-17,81.7,82.5,-210,210,-222.5,210,120,130,-132.5,130,230,235,-245,235,575,SBD,Yes
2,David Wang,,M,2006,17,IA,Raw,J16-17,80.6,82.5,182.5,190,200,200,125,-132.5,-132.5,125,220,230,-235,230,555,SBD,Yes
1,Brendan Nolin,,M,2006,17,IA,Raw,J16-17,86.8,90,170,177.5,-190,177.5,110,115,117.5,117.5,-197.5,200,210,210,505,SBD,Yes
1,Alex Meier,,M,2006,17,IA,Raw,J16-17,94.3,100,160,-167.5,170,170,102.5,110,117.5,117.5,165,170,182.5,182.5,470,SBD,Yes
1,Kadin Dena,,M,2004,19,IL,Raw,J18-19,63.5,67.5,155,170,177.5,177.5,92.5,97.5,-100,97.5,200,-207.5,-212.5,200,475,SBD,Yes
1,Aidan Di Gioia,,M,2005,18,IA,Raw,J18-19,74.1,75,150,-155,-157.5,150,102.5,107.5,-112.5,107.5,160,170,185,185,442.5,SBD,Yes
1,Hudson Joseph Hart,,M,2004,19,IA,Raw,J18-19,81.1,82.5,185,195,200,200,125,-132.5,-132.5,125,200,215,-222.5,215,540,SBD,Yes
2,Jack Conlon,,M,2005,18,IA,Raw,J18-19,82.2,82.5,150,165,175,175,112.5,-120,120,120,157.5,175,182.5,182.5,477.5,SBD,Yes
3,Alejandro Garcia,,M,2004,,IA,Raw,J18-19,81,82.5,157.5,165,172.5,172.5,75,82.5,90,90,175,185,192.5,192.5,455,SBD,Yes
1,Chase Ryburn,,M,2006,18,IA,Raw,J18-19,87.5,90,215,227.5,-232.5,227.5,127.5,-137.5,-137.5,127.5,220,232.5,-247.5,232.5,587.5,SBD,Yes
1,Aidan Lewis,,M,2004,19,IL,Raw,J18-19,99.4,100,282.5,295,-310,295,137.5,145,-147.5,145,265,277.5,287.5,287.5,727.5,SBD,Yes
2,Jorge Rodriguez,,M,2005,18,IA,Raw,J18-19,94.3,100,140,150,165,165,85,92.5,-97.5,92.5,147.5,162.5,-172.5,162.5,420,SBD,Yes
1,Fernando Mejia,,M,2003,21,IA,Raw,J20-23,81.2,82.5,-200,215,227.5,227.5,117.5,132.5,-137.5,132.5,225,237.5,-240,237.5,597.5,SBD,Yes
2,Titan Coleman,,M,2002,21,IA,Raw,J20-23,78.2,82.5,202.5,-207.5,-210,202.5,122.5,130,135,135,-230,247.5,-257.5,247.5,585,SBD,Yes
3,Lanny Herzog,,M,2000,23,IA,Raw,J20-23,82.5,82.5,182.5,192.5,200,200,122.5,132.5,-140,132.5,215,225,-235,225,557.5,SBD,Yes
4,Brendan Maxwell Jones,,M,2001,22,IL,Raw,J20-23,78,82.5,-160,160,-170,160,115,120,-125,120,165,175,187.5,187.5,467.5,SBD,Yes
1,Nick Tomann,,M,2003,20,MN,Raw,J20-23,87.7,90,227.5,237.5,245,245,125,132.5,135,135,237.5,250,260,260,640,SBD,Yes
2,Kevin Trinidad-Rivera,,M,2003,20,IL,Raw,J20-23,88.3,90,185,200,207.5,207.5,-115,117.5,120,120,215,230,237.5,237.5,565,SBD,Yes
3,Corey Kauma,,M,2001,22,MN,Raw,J20-23,89.7,90,200,-210,210,210,110,117.5,122.5,122.5,210,217.5,-227.5,217.5,550,SBD,Yes
4,Joshua Braga,,M,2002,21,NE,Raw,J20-23,85,90,-185,185,197.5,197.5,120,-125,-125,120,205,212.5,222.5,222.5,540,SBD,Yes
5,Jackson Porter,,M,2002,21,IA,Raw,J20-23,89.5,90,160,165,-170,165,-122.5,122.5,-142.5,122.5,165,177.5,-185,177.5,465,SBD,Yes
1,Gabe Wyant,,M,2001,22,IA,Raw,J20-23,99.6,100,250,-272.5,-272.5,250,137.5,147.5,-155,147.5,250,272.5,-277.5,272.5,670,SBD,Yes
2,Mason Blankenship,,M,2002,21,MN,Raw,J20-23,97.5,100,200,210,217.5,217.5,127.5,137.5,-142.5,137.5,212.5,222.5,232.5,232.5,587.5,SBD,Yes
3,Angel DeLeon,,M,2000,23,IA,Raw,J20-23,97.4,100,-197.5,197.5,210,210,130,140,-147.5,140,205,220,-235,220,570,SBD,Yes
1,Noah Bandstra,,M,2000,23,IA,Raw,J20-23,104.8,110,242.5,255,262.5,262.5,160,172.5,-182.5,172.5,247.5,262.5,275,275,710,SBD,Yes
2,Connor Wick,,M,2000,23,MN,Raw,J20-23,104.4,110,172.5,180,195,195,110,117.5,-127.5,117.5,182.5,192.5,205,205,517.5,SBD,Yes
1,David F Frazier,,M,1980,43,IA,Raw,M40-44,87.3,90,190,202.5,215,215,127.5,132.5,-137.5,132.5,215,227.5,-235,227.5,575,SBD,Yes
1,Jess Pfrimmer,,M,1979,44,IA,Raw,M40-44,108.4,110,160,170,177.5,177.5,135,-140,140,140,207.5,215,227.5,227.5,545,SBD,Yes
1,Brian Gaumer,,M,1959,64,IA,Raw,M60-64,102.2,110,-182.5,182.5,197.5,197.5,55,-62.5,,55,220,-227.5,,220,472.5,SBD,Yes
1,Sergio Watkins,,M,2003,21,IA,Raw,Open,65.1,67.5,205,215,220,220,120,-122.5,-122.5,120,285,292.5,-310,292.5,632.5,SBD,Yes
1,Brad Bebee,,M,1990,34,IA,Raw,Open,72.1,75,185,187.5,192.5,192.5,115,120,122.5,122.5,-245,245,262.5,262.5,577.5,SBD,Yes
1,Dustin Roy,,M,1990,33,NE,Raw,Open,80.9,82.5,210,215,-220,215,142.5,145,147.5,147.5,235,247.5,-252.5,247.5,610,SBD,Yes
2,Brett Carter,,M,1988,36,MO,Raw,Open,80.4,82.5,190,207.5,215,215,115,120,-125,120,227.5,-242.5,242.5,242.5,577.5,SBD,Yes
3,Kohen Kucks,,M,2006,17,IA,Raw,Open,81.7,82.5,-210,210,-222.5,210,120,130,-132.5,130,230,235,-245,235,575,SBD,Yes
4,Lanny Herzog,,M,2000,23,IA,Raw,Open,82.5,82.5,182.5,192.5,200,200,122.5,132.5,-140,132.5,215,225,-235,225,557.5,SBD,Yes
1,Derek Gripenberg,,M,1991,33,IA,Raw,Open,88.6,90,205,217.5,222.5,222.5,127.5,135,-137.5,135,265,280,295,295,652.5,SBD,Yes
2,Anthony Horn,,M,1999,24,IA,Raw,Open,89.2,90,-207.5,-212.5,212.5,212.5,125,-132.5,-132.5,125,215,225,242.5,242.5,580,SBD,Yes
3,David F Frazier,,M,1980,43,IA,Raw,Open,87.3,90,190,202.5,215,215,127.5,132.5,-137.5,132.5,215,227.5,-235,227.5,575,SBD,Yes
4,Jacob Nelson,,M,1995,28,IA,Raw,Open,86.1,90,195,202.5,-207.5,202.5,130,132.5,-137.5,132.5,-215,-215,215,215,550,SBD,Yes
DQ,Tyler Miller,,M,1999,24,IA,Raw,Open,87.7,90,-235,-240,240,240,-145,-150,-150,,237.5,250,-260,250,,SBD,Yes
1,Nate Burlingame,,M,1999,24,IA,Raw,Open,97.7,100,232.5,-242.5,242.5,242.5,165,170,-177.5,170,232.5,242.5,250,250,662.5,SBD,Yes
2,Alexander Parker,,M,2000,24,IA,Raw,Open,92.5,100,210,220,230,230,140,150,155,155,240,255,-265,255,640,SBD,Yes
3,Collin Vanderlind,,M,1999,25,IA,Raw,Open,94.5,100,220,232.5,-240,232.5,125,130,-135,130,250,265,272.5,272.5,635,SBD,Yes
4,Alexander Faucz,,M,1999,24,IA,Raw,Open,99.5,100,185,200,212.5,212.5,-130,130,-137.5,130,227.5,245,-255,245,587.5,SBD,Yes
1,Spencer Barnes,,M,1996,27,IL,Raw,Open,108.3,110,290,-310,-310,290,172.5,-180,-180,172.5,310,317.5,-322.5,317.5,780,SBD,Yes
2,Andrew Jones,,M,1996,27,IA,Raw,Open,104.8,110,-257.5,270,-280,270,182.5,192.5,-202.5,192.5,280,287.5,-300,287.5,750,SBD,Yes
3,Justin Smith #29,,M,1993,30,IA,Raw,Open,109.3,110,262.5,-275,-275,262.5,175,183,185,185,265.5,277.5,287.5,287.5,735,SBD,Yes
4,Eric Blake,,M,1994,29,NE,Raw,Open,109.3,110,230,237.5,-255,237.5,145,152.5,-162.5,152.5,290,305,-320,305,695,SBD,Yes
5,Jonathan Le #1,,M,1990,33,IA,Raw,Open,106.3,110,222.5,235,242.5,242.5,147.5,157.5,165,165,235,250,-262.5,250,657.5,SBD,Yes
1,Nathan Smith #18,,M,1991,32,IA,Raw,Open,119.9,125,262.5,275,-280,275,145,152.5,157.5,157.5,285,290,295,295,727.5,SBD,Yes
2,Trenton Bever,,M,1994,29,MN,Raw,Open,123.1,125,240,247.5,252.5,252.5,165,175,-180,175,280,287.5,-290,287.5,715,SBD,Yes
3,Jake R Parks,,M,1996,27,IA,Raw,Open,124.1,125,240,257.5,272.5,272.5,130,137.5,145,145,265,282.5,-287.5,282.5,700,SBD,Yes
1,Shawn Wade,,M,1985,38,IL,Raw,S35-39,99.6,100,-180,190,200,200,125,130,-132.5,130,222.5,232.5,245,245,575,SBD,Yes
G,Luke Mutchler,,M,2005,18,IA,Raw,Guest,84.9,90,145,157.5,160,160,-110,110,-117.5,110,177.5,187.5,-190,187.5,457.5,SBD,Yes
G,Jake Hruby,,M,1991,33,MN,Raw,Guest,131.9,140,230,237.5,245,245,185,195,-200,195,280,-300,-300,280,720,SBD,Yes
1,Steven Peterson,,M,2009,15,IA,Raw,J13-15,80.5,82.5,,,,,87.5,92.5,-97.5,92.5,190,-200,-202.5,190,282.5,BD,Yes
1,Jacob Perkins,,M,1990,33,IA,Raw,Open,89.8,90,,,,,150,-155,-155,150,225,250,-265,250,400,BD,Yes
1,Brad Bebee,,M,1990,34,IA,Raw,Open,72.1,75,,,,,,,,,-245,245,262.5,262.5,262.5,D,Yes
1,A. Joseph Mahler,,M,1964,59,IA,Wraps,M55-59,82.1,82.5,120,-135,-145,120,80,-95,-100,80,160,-177.5,-177.5,160,360,SBD,Yes
1,Mitch Foster,,M,1989,35,IA,Wraps,Open,109.5,110,240,250,262.5,262.5,167.5,175,-182.5,175,235,250,262.5,262.5,700,SBD,Yes
1,Mitch Foster,,M,1989,35,IA,Wraps,S35-39,109.5,110,240,250,262.5,262.5,167.5,175,-182.5,175,235,250,262.5,262.5,700,SBD,Yes
