Division,WeightClassKg,Place,Name,Team,BodyweightKg,Best3SquatKg,Best3BenchKg,Best3DeadliftKg,TotalKg,Equipment,Event,Sex
Girls,44.23,1,Yesenia Pena,Del Rio,44.09,124.74,63.5,122.47,310.71,Single-ply,SBD,F
Girls,44.23,2,Ally Highful,Los Fresnos,43,136.08,54.43,117.93,308.44,Single-ply,SBD,F
Girls,44.23,3,Dani Burget,Weslaco East,43.54,124.74,54.43,124.74,303.91,Single-ply,SBD,F
Girls,44.23,4,Ericka Knowles,San Antonio East Central,43.82,99.79,65.77,131.54,297.1,Single-ply,SBD,F
Girls,44.23,5,Odalys Garduno,Victoria West,43.18,115.67,45.36,124.74,285.76,Single-ply,SBD,F
Girls,44.23,6,Zoe Sonsel,Port Lavaca Calhoun,43.27,106.59,45.36,113.4,265.35,Single-ply,SBD,F
Girls,44.23,7,Lauren Aldape,Mercedes,42.23,99.79,43.09,120.2,263.08,Single-ply,SBD,F
Girls,44.23,8,Daniela Perez,Los Fresnos,44,104.33,47.63,104.33,256.28,Single-ply,SBD,F
Girls,44.23,9,Tianne Trujillo,Alice,40.01,113.4,43.09,92.99,249.48,Single-ply,SBD,F
Girls,44.23,10,Rhema Orta,Port Lavaca Calhoun,40.64,102.06,45.36,102.06,249.48,Single-ply,SBD,F
Girls,44.23,11,Beth De Hoyos,PSJA North,42.55,88.45,52.16,108.86,249.48,Single-ply,SBD,F
Girls,44.23,12,Amber Flores,Uvalde,44.18,92.99,38.56,108.86,240.4,Single-ply,SBD,F
Girls,44.23,DQ,Maria Pro,PSJA Southwest,44,,,,,Single-ply,SBD,F
Girls,44.23,DQ,Abby Silva,Edcouch-Elsa,43.68,83.91,,,,Single-ply,SBD,F
Girls,47.85,1,Nadya Valero,San Antonio Southside,47.36,142.88,61.23,136.08,340.19,Single-ply,SBD,F
Girls,47.85,2,McKayla Cortez,Port Lavaca Calhoun,46.99,127.01,65.77,115.67,308.44,Single-ply,SBD,F
Girls,47.85,3,Mandy Sanchez,Los Fresnos,47.81,117.93,56.7,124.74,299.37,Single-ply,SBD,F
Girls,47.85,4,Brenda Quintero,Laredo Martin,47.54,120.2,54.43,122.47,297.1,Single-ply,SBD,F
Girls,47.85,5,Alexa Alaniz,Brownsville Hanna,46.18,113.4,54.43,122.47,290.3,Single-ply,SBD,F
Girls,47.85,6,Perla Hernandez,Brownsville Pace,47.26,131.54,49.9,108.86,290.3,Single-ply,SBD,F
Girls,47.85,7,Briseidi Cantu,Rio Grande City,46.4,113.4,52.16,117.93,283.5,Single-ply,SBD,F
Girls,47.85,8,Tammy Idrogo,Laredo United South,47.26,113.4,52.16,117.93,283.5,Single-ply,SBD,F
Girls,47.85,9,Keaghan Shinn,San Antonio Southwest,47.45,113.4,56.7,113.4,283.5,Single-ply,SBD,F
Girls,47.85,10,Hope Davila,Corpus Christi Tuloso-Midway,47.72,120.2,45.36,117.93,283.5,Single-ply,SBD,F
Girls,47.85,11,Mia Reyes,Corpus Christi Tuloso-Midway,47.72,117.93,49.9,115.67,283.5,Single-ply,SBD,F
Girls,47.85,12,Valeria Torres,Pharr Valley View,47.72,115.67,43.09,124.74,283.5,Single-ply,SBD,F
Girls,47.85,13,Laisha Lopez,La Joya Palmview,47.54,129.27,47.63,90.72,267.62,Single-ply,SBD,F
Girls,47.85,DQ,Leena Salinas,Donna,47.17,117.93,47.63,,,Single-ply,SBD,F
Girls,47.85,DQ,Alexis Rivas #2,Brownsville Lopez,46.63,,,,,Single-ply,SBD,F
Girls,47.85,DQ,Sophie Avila,Los Fresnos,47.36,,,,,Single-ply,SBD,F
Girls,51.94,1,Marie Cavazos,Edinburg Vela,51.07,163.29,68.04,147.42,378.75,Single-ply,SBD,F
Girls,51.94,2,Klarissa Gonzalez,San Benito,50.8,142.88,79.38,142.88,365.14,Single-ply,SBD,F
Girls,51.94,3,Belen Morales,San Antonio Kennedy,51.26,140.61,70.31,147.42,358.34,Single-ply,SBD,F
Girls,51.94,4,Miranda Smith,Port Lavaca Calhoun,51.35,138.35,65.77,147.42,351.53,Single-ply,SBD,F
Girls,51.94,5,Brissa Ramirez,Mission Sharyland,50.26,131.54,68.04,149.69,349.27,Single-ply,SBD,F
Girls,51.94,6,Janie Ramos,Weslaco East,50.17,140.61,56.7,149.69,347,Single-ply,SBD,F
Girls,51.94,7,Alexis Torres,Los Fresnos,51.8,131.54,68.04,147.42,347,Single-ply,SBD,F
Girls,51.94,8,Danielle Bacon,Port Lavaca Calhoun,49.17,136.08,63.5,145.15,344.73,Single-ply,SBD,F
Girls,51.94,9,Joanna Philo,Los Fresnos,51.53,136.08,63.5,142.88,342.46,Single-ply,SBD,F
Girls,51.94,10,Amanda Rodriguez #3,Mission Sharyland,51.26,136.08,61.23,142.88,340.19,Single-ply,SBD,F
Girls,51.94,11,Abril Salinas,Pharr Valley View,51.8,147.42,52.16,133.81,333.39,Single-ply,SBD,F
Girls,51.94,12,Monika Saldivar,Laredo United South,50.26,124.74,58.97,129.27,312.98,Single-ply,SBD,F
Girls,51.94,13,Juliette Cantu,Edinburg Vela,51.17,124.74,70.31,117.93,312.98,Single-ply,SBD,F
Girls,51.94,14,Marlene Rodriguez,San Antonio Southwest,51.89,124.74,52.16,136.08,312.98,Single-ply,SBD,F
Girls,51.94,15,Tabatha Gonzalez,Mission,50.62,129.27,45.36,131.54,306.17,Single-ply,SBD,F
Girls,51.94,16,Sylvia Gil,San Antonio Kennedy,51.07,117.93,61.23,127.01,306.17,Single-ply,SBD,F
Girls,51.94,17,Summer Sosa,Los Fresnos,51.53,127.01,54.43,124.74,306.17,Single-ply,SBD,F
Girls,51.94,18,Michelle Dugan,La Joya Palmview,51.44,115.67,49.9,133.81,299.37,Single-ply,SBD,F
Girls,51.94,19,Brooke Brown,Floresville,49.26,127.01,45.36,124.74,297.1,Single-ply,SBD,F
Girls,51.94,20,Alexsandria Segovia,San Antonio East Central,50.8,111.13,52.16,131.54,294.84,Single-ply,SBD,F
Girls,51.94,21,Esmer Cruz,Edcouch-Elsa,50.8,124.74,56.7,113.4,294.84,Single-ply,SBD,F
Girls,51.94,22,Leanna Gottschalt,Port Lavaca Calhoun,51.26,122.47,58.97,108.86,290.3,Single-ply,SBD,F
Girls,51.94,23,Vanesa Ceballos,San Antonio Southside,51.89,124.74,52.16,113.4,290.3,Single-ply,SBD,F
Girls,56.02,1,Martha Salaya,Weslaco,54.61,167.83,79.38,167.83,415.04,Single-ply,SBD,F
Girls,56.02,2,Ravyn Deangel,Donna,54.52,165.56,63.5,131.54,360.61,Single-ply,SBD,F
Girls,56.02,3,Daisy Galvan,Weslaco East,53.25,140.61,70.31,140.61,351.53,Single-ply,SBD,F
Girls,56.02,4,Alissa Leija,PSJA North,54.98,138.35,63.5,145.15,347,Single-ply,SBD,F
Girls,56.02,5,Kelsey Elizondo,PSJA North,55.34,145.15,54.43,147.42,347,Single-ply,SBD,F
Girls,56.02,6,Bella Vargas,Los Fresnos,55.79,127.01,63.5,142.88,333.39,Single-ply,SBD,F
Girls,56.02,7,Brianna Ruiz,Los Fresnos,54.88,147.42,58.97,124.74,331.12,Single-ply,SBD,F
Girls,56.02,8,Janelle Castillo,Alice,54.25,140.61,58.97,129.27,328.85,Single-ply,SBD,F
Girls,56.02,9,Victoria Salinas,Rio Grande City,54.34,136.08,61.23,131.54,328.85,Single-ply,SBD,F
Girls,56.02,10,Daesha Cano,PSJA North,55.25,142.88,63.5,122.47,328.85,Single-ply,SBD,F
Girls,56.02,11,Victoria Olivarez,Mission Veterans Memorial,55.52,129.27,61.23,138.35,328.85,Single-ply,SBD,F
Girls,56.02,12,Yesenia Valdez,Edinburg,55.61,129.27,58.97,140.61,328.85,Single-ply,SBD,F
Girls,56.02,13,Miranda Acevedo,Edcouch-Elsa,55.07,131.54,56.7,133.81,322.05,Single-ply,SBD,F
Girls,56.02,14,Tamara Guerrero,Brownsville Hanna,55.79,136.08,47.63,136.08,319.78,Single-ply,SBD,F
Girls,56.02,15,Shelby Webster,Corpus Christi Tuloso-Midway,55.16,133.81,54.43,127.01,315.25,Single-ply,SBD,F
Girls,56.02,16,Yesenia Rocha,San Benito,53.8,122.47,49.9,140.61,312.98,Single-ply,SBD,F
Girls,56.02,17,Skyleigh Sears,Port Lavaca Calhoun,54.25,124.74,61.23,124.74,310.71,Single-ply,SBD,F
Girls,56.02,18,Bibiana Ceballos,San Antonio Southside,55.61,131.54,49.9,127.01,308.44,Single-ply,SBD,F
Girls,56.02,19,Larissa Villanueva,Donna North,54.7,117.93,65.77,120.2,303.91,Single-ply,SBD,F
Girls,56.02,20,Amanda Perez #1,Laredo Nixon,54.7,102.06,63.5,136.08,301.64,Single-ply,SBD,F
Girls,56.02,21,Miranda Reyes,Corpus Christi Tuloso-Midway,55.43,131.54,54.43,115.67,301.64,Single-ply,SBD,F
Girls,56.02,DQ,Luz Hernandez,Weslaco East,55.34,,,,,Single-ply,SBD,F
Girls,56.02,DQ,Katie Gonzalez,Sharyland Pioneer,55.34,117.93,68.04,,,Single-ply,SBD,F
Girls,56.02,DQ,Jessica Luna,Mission,55.97,131.54,43.09,,,Single-ply,SBD,F
Girls,56.02,DQ,Aracely Rodriguez,Pharr Valley View,55.88,133.81,,,,Single-ply,SBD,F
Girls,56.02,DQ,Demi Ibarra,Brownsville Pace,55.07,142.88,,,,Single-ply,SBD,F
Girls,56.02,DQ,Suzy Martinez,Brownsville Veterans Memorial,55.34,108.86,,,,Single-ply,SBD,F
Girls,56.02,DQ,Kelsey Kallman,Victoria West,55.07,129.27,,,,Single-ply,SBD,F
Girls,60.1,1,April Botello,San Antonio Southside,59.42,167.83,86.18,170.1,424.11,Single-ply,SBD,F
Girls,60.1,2,Cecily Gonzalez,Alice,59.51,188.24,74.84,151.95,415.04,Single-ply,SBD,F
Girls,60.1,3,Doris Gutierrez,Weslaco East,59.15,167.83,77.11,165.56,410.5,Single-ply,SBD,F
Girls,60.1,4,Lorena Martinez,Los Fresnos,58.97,165.56,65.77,163.29,394.63,Single-ply,SBD,F
Girls,60.1,5,Azalia Jones,Corpus Christi Tuloso-Midway,59.42,156.49,74.84,154.22,385.55,Single-ply,SBD,F
Girls,60.1,6,Estafany Gonzalez,Mission,59.78,156.49,74.84,154.22,385.55,Single-ply,SBD,F
Girls,60.1,7,Pricilla Guerra,Laredo United South,59.87,161.03,68.04,142.88,371.95,Single-ply,SBD,F
Girls,60.1,8,Bryanna Ramos,Weslaco East,59.24,149.69,77.11,136.08,362.87,Single-ply,SBD,F
Girls,60.1,9,Corina Yanez,Donna,56.43,149.69,61.23,140.61,351.53,Single-ply,SBD,F
Girls,60.1,10,Brendalee Hernandez,Weslaco East,59.42,140.61,72.57,138.35,351.53,Single-ply,SBD,F
Girls,60.1,11,Katherine Hernandez,PSJA North,58.42,136.08,58.97,149.69,344.73,Single-ply,SBD,F
Girls,60.1,12,Sofia Cruz,Brownsville Hanna,59.69,147.42,56.7,136.08,340.19,Single-ply,SBD,F
Girls,60.1,13,Gabby Haylock,Brownsville Hanna,59.78,147.42,56.7,136.08,340.19,Single-ply,SBD,F
Girls,60.1,14,Jasmine Hernandez,Alice,59.87,136.08,58.97,145.15,340.19,Single-ply,SBD,F
Girls,60.1,15,Dalila Sanchez,Donna North,59.6,133.81,56.7,140.61,331.12,Single-ply,SBD,F
Girls,60.1,16,Destini Tomas,Donna,59.33,129.27,74.84,117.93,322.05,Single-ply,SBD,F
Girls,60.1,17,Pina Ovalle,PSJA,59.6,115.67,61.23,142.88,319.78,Single-ply,SBD,F
Girls,60.1,DQ,Hailey Nichols,Port Lavaca Calhoun,59.33,,,,,Single-ply,SBD,F
Girls,67.36,1,Stephanie Trevino,Los Fresnos,66.5,176.9,88.45,174.63,439.98,Single-ply,SBD,F
Girls,67.36,2,Julissa Torres,Los Fresnos,64.68,170.1,99.79,167.83,437.72,Single-ply,SBD,F
Girls,67.36,3,Alexandra Chavez,Brownsville Hanna,66.95,179.17,81.65,165.56,426.38,Single-ply,SBD,F
Girls,67.36,4,Valeria Banda,La Joya Juarez-Lincoln,62.96,181.44,72.57,163.29,417.3,Single-ply,SBD,F
Girls,67.36,5,Denice Acosta,San Benito,66.13,163.29,79.38,156.49,399.16,Single-ply,SBD,F
Girls,67.36,6,Zoey Dierlam,Port Lavaca Calhoun,65.59,154.22,81.65,158.76,394.63,Single-ply,SBD,F
Girls,67.36,7,Alexis Quezada,Los Fresnos,67.13,167.83,68.04,147.42,383.29,Single-ply,SBD,F
Girls,67.36,8,Abby McFall,Port Lavaca Calhoun,65.14,158.76,68.04,154.22,381.02,Single-ply,SBD,F
Girls,67.36,9,Norma Chapa,Donna North,65.59,151.95,70.31,158.76,381.02,Single-ply,SBD,F
Girls,67.36,10,Felissa Ponce de Leon,La Joya Palmview,66.95,165.56,65.77,149.69,381.02,Single-ply,SBD,F
Girls,67.36,11,Karen Martinez,Donna,64.68,161.03,65.77,149.69,376.48,Single-ply,SBD,F
Girls,67.36,12,Marisol Pulido,Brownsville Lopez,63.78,151.95,65.77,156.49,374.21,Single-ply,SBD,F
Girls,67.36,13,Alexis Estringel,Alice,66.59,158.76,72.57,142.88,374.21,Single-ply,SBD,F
Girls,67.36,14,Ally Garcia,Edcouch-Elsa,66.13,149.69,72.57,147.42,369.68,Single-ply,SBD,F
Girls,67.36,15,Alexis Tamez,Weslaco,65.5,154.22,65.77,147.42,367.41,Single-ply,SBD,F
Girls,67.36,16,Sydney Wall,Los Fresnos,66.13,149.69,74.84,142.88,367.41,Single-ply,SBD,F
Girls,67.36,17,Darlene Gonzalez,La Joya Palmview,66.5,165.56,65.77,136.08,367.41,Single-ply,SBD,F
Girls,67.36,18,Lisbeth Gonzalez,San Benito,64.32,145.15,70.31,147.42,362.87,Single-ply,SBD,F
Girls,67.36,DQ,Val Reyes,Brownsville Hanna,63.59,147.42,61.23,,,Single-ply,SBD,F
Girls,75.07,1,Olivia Espinoza,Weslaco East,73.94,199.58,108.86,167.83,476.27,Single-ply,SBD,F
Girls,75.07,2,Allison Macias,Alice,73.66,190.51,90.72,172.37,453.59,Single-ply,SBD,F
Girls,75.07,3,Paola Espinoza,Weslaco East,74.12,183.7,81.65,165.56,430.91,Single-ply,SBD,F
Girls,75.07,4,LeAnn Ramirez,San Benito,73.12,174.63,88.45,158.76,421.84,Single-ply,SBD,F
Girls,75.07,5,Janelle Davila,PSJA North,74.39,156.49,97.52,156.49,410.5,Single-ply,SBD,F
Girls,75.07,6,Valerie Silva,Weslaco,75.02,154.22,97.52,145.15,396.89,Single-ply,SBD,F
Girls,75.07,7,Miranda Garcia,Seguin,72.39,149.69,70.31,170.1,390.09,Single-ply,SBD,F
Girls,75.07,8,Destiny Andrade,Castroville Medina Valley,74.03,163.29,79.38,136.08,378.75,Single-ply,SBD,F
Girls,75.07,9,Odalys de la O,La Joya Palmview,73.21,165.56,70.31,138.35,374.21,Single-ply,SBD,F
Girls,75.07,10,Chelsea Juarez,Edcouch-Elsa,74.89,149.69,70.31,145.15,365.14,Single-ply,SBD,F
Girls,75.07,11,Ariella Zuniga,San Antonio East Central,74.03,136.08,68.04,147.42,351.53,Single-ply,SBD,F
Girls,75.07,12,Alex Hernandez #11,Mercedes,73.66,149.69,61.23,138.35,349.27,Single-ply,SBD,F
Girls,75.07,DQ,Melanie Quintero,Brownsville Lopez,72.67,149.69,61.23,,,Single-ply,SBD,F
Girls,75.07,DQ,Vanessa Puente,La Joya Palmview,74.39,,,,,Single-ply,SBD,F
Girls,75.07,DQ,Laurel Wilke,Seguin,73.66,147.42,,,,Single-ply,SBD,F
Girls,82.33,1,Laisha Gardner,Laredo United South,79.2,192.78,92.99,188.24,474,Single-ply,SBD,F
Girls,82.33,2,Jesed Castro,Los Fresnos,76.93,208.65,95.25,167.83,471.74,Single-ply,SBD,F
Girls,82.33,3,Alexis Ortiz #1,Seguin,79.56,183.7,83.91,156.49,424.11,Single-ply,SBD,F
Girls,82.33,4,Rose Mary Reyna,San Benito,80.01,163.29,95.25,156.49,415.04,Single-ply,SBD,F
Girls,82.33,5,Avery Coronado,Sharyland Pioneer,81.19,156.49,86.18,172.37,415.04,Single-ply,SBD,F
Girls,82.33,6,Kylea Nix,Gregory-Portland,81.83,165.56,72.57,170.1,408.23,Single-ply,SBD,F
Girls,82.33,7,Fatima Herrera,San Antonio Southside,81.56,172.37,81.65,142.88,396.89,Single-ply,SBD,F
Girls,82.33,8,Kacie Lopez,Weslaco,77.47,163.29,77.11,147.42,387.82,Single-ply,SBD,F
Girls,82.33,9,Victoria Trevino,San Antonio Southside,81.1,158.76,77.11,142.88,378.75,Single-ply,SBD,F
Girls,82.33,10,Brandie Bernal,Edcouch-Elsa,82.1,156.49,65.77,136.08,358.34,Single-ply,SBD,F
Girls,82.33,11,Julie Stanford,Corpus Christi Tuloso-Midway,78.56,147.42,68.04,140.61,356.07,Single-ply,SBD,F
Girls,82.33,DQ,Alyssa Juarez,Weslaco East,78.74,165.56,70.31,,,Single-ply,SBD,F
Girls,90.04,1,Julie Torres,Los Fresnos,84.23,185.97,88.45,172.37,446.79,Single-ply,SBD,F
Girls,90.04,2,Carolina De Leon,Weslaco East,89.09,197.31,74.84,170.1,442.25,Single-ply,SBD,F
Girls,90.04,3,Chloe Zapata,Alice,84.55,192.78,95.25,149.69,437.72,Single-ply,SBD,F
Girls,90.04,4,Mariela Sepulveda,La Joya Palmview,82.37,192.78,83.91,151.95,428.64,Single-ply,SBD,F
Girls,90.04,5,Maya Perez,Brownsville Hanna,85.82,176.9,68.04,163.29,408.23,Single-ply,SBD,F
Girls,90.04,6,N'shambe Burrus,San Antonio East Central,87.45,165.56,79.38,158.76,403.7,Single-ply,SBD,F
Girls,90.04,7,Avery Heimer,Floresville,84.28,176.9,74.84,145.15,396.89,Single-ply,SBD,F
Girls,90.04,8,Allison Villarreal,Edcouch-Elsa,87.54,165.56,81.65,149.69,396.89,Single-ply,SBD,F
Girls,90.04,9,Stephanie Urquieta,Corpus Christi Tuloso-Midway,86.27,176.9,70.31,142.88,390.09,Single-ply,SBD,F
Girls,90.04,10,Angelina Young,Edinburg Vela,89.63,142.88,90.72,145.15,378.75,Single-ply,SBD,F
Girls,90.04,DQ,Jacqueline Montejano,Del Rio,87.82,,,,,Single-ply,SBD,F
Girls,100.02,1,Luciana Zamora,Gregory-Portland,97.98,206.38,86.18,170.1,462.66,Single-ply,SBD,F
Girls,100.02,2,Corrine Garcia,Corpus Christi Tuloso-Midway,97.34,208.65,79.38,165.56,453.59,Single-ply,SBD,F
Girls,100.02,3,Ashley Tapia,PSJA,97.02,195.04,81.65,172.37,449.06,Single-ply,SBD,F
Girls,100.02,4,Alexis Delgado #1,Weslaco,99.25,181.44,95.25,172.37,449.06,Single-ply,SBD,F
Girls,100.02,5,Crystal Medrano,Weslaco East,98.61,199.58,83.91,163.29,446.79,Single-ply,SBD,F
Girls,100.02,6,Lupita Lerma,San Benito,99.16,195.04,86.18,163.29,444.52,Single-ply,SBD,F
Girls,100.02,7,Julianna Delgado,Brownsville Lopez,98.43,199.58,72.57,170.1,442.25,Single-ply,SBD,F
Girls,100.02,8,Jazzmyn Moreno,Donna,97.52,199.58,79.38,142.88,421.84,Single-ply,SBD,F
Girls,100.02,9,Jesenia Gaytan,La Joya Juarez-Lincoln,94.53,167.83,72.57,167.83,408.23,Single-ply,SBD,F
Girls,100.02,10,Kassandra Chavez,Pharr Valley View,98.43,138.35,70.31,149.69,358.34,Single-ply,SBD,F
Girls,100.02+,1,Soledad Villarreal,San Benito,115.48,226.8,124.74,179.17,530.7,Single-ply,SBD,F
Girls,100.02+,2,Melissa Moralez,Weslaco East,113.4,226.8,120.2,179.17,526.17,Single-ply,SBD,F
Girls,100.02+,3,Ebony Cortez,Floresville,125.92,204.12,115.67,181.44,501.22,Single-ply,SBD,F
Girls,100.02+,4,Mary Chavez,Corpus Christi Tuloso-Midway,135.71,204.12,99.79,120.2,424.11,Single-ply,SBD,F
Girls,100.02+,5,Amanda Garcia,Brownsville Hanna,110.04,188.24,83.91,147.42,419.57,Single-ply,SBD,F
Girls,100.02+,6,Joy Perez,Brownsville Hanna,117.84,174.63,77.11,158.76,410.5,Single-ply,SBD,F
Girls,100.02+,7,Gaby Portillo,Rio Grande City,119.84,165.56,88.45,142.88,396.89,Single-ply,SBD,F
Girls,100.02+,8,Arely Rincon,Weslaco East,115.67,147.42,83.91,136.08,367.41,Single-ply,SBD,F
Girls,100.02+,DQ,Jasmine Medina,San Antonio Southwest,111.86,176.9,77.11,,,Single-ply,SBD,F
Girls,100.02+,DQ,Crystal Hernandez,PSJA North,109.23,,,,,Single-ply,SBD,F
