Division,WeightClassKg,Place,Name,Team,BodyweightKg,Best3SquatKg,Best3BenchKg,Best3DeadliftKg,TotalKg,Equipment,Event,Sex
Boys,51.71,1,Korey Grant,Weatherford,51.71,115.67,70.31,138.35,324.32,Single-ply,SBD,M
Boys,51.71,2,Michael Williams #24,Decatur,49.26,120.2,68.04,124.74,312.98,Single-ply,SBD,M
Boys,55.79,1,Garrett Upshaw,Decatur,53.25,108.86,61.23,122.47,292.57,Single-ply,SBD,M
Boys,55.79,2,David Ramos,Mineral Wells,55.16,108.86,63.5,111.13,283.5,Single-ply,SBD,M
Boys,55.79,3,Camden Richards,Mineral Wells,55.79,102.06,54.43,102.06,258.55,Single-ply,SBD,M
Boys,55.79,4,Ethan Orsak,Weatherford,55.7,104.33,61.23,83.91,249.48,Single-ply,SBD,M
Boys,59.87,1,Alexis Rodriguez #8,Decatur,58.6,136.08,86.18,165.56,387.82,Single-ply,SBD,M
Boys,59.87,DQ,Xavier Parker,Mineral Wells,59.33,,,,,Single-ply,SBD,M
Boys,67.13,1,Kylen Hart,Weatherford,65.32,158.76,102.06,181.44,442.25,Single-ply,SBD,M
Boys,67.13,2,Angel Garza,Decatur,61.05,163.29,83.91,170.1,417.3,Single-ply,SBD,M
Boys,67.13,3,Jacob Alton,Mineral Wells,65.59,142.88,88.45,136.08,367.41,Single-ply,SBD,M
Boys,74.84,1,Jared Singleton,Mineral Wells,71.4,183.7,104.33,167.83,455.86,Single-ply,SBD,M
Boys,74.84,2,Saul Sanchez,Weatherford,70.4,161.03,102.06,176.9,439.98,Single-ply,SBD,M
Boys,74.84,3,Devin Salazar,Mineral Wells,70.94,113.4,79.38,102.06,294.84,Single-ply,SBD,M
Boys,82.1,1,Mark Thomas,Decatur,81.37,188.24,117.93,233.6,539.77,Single-ply,SBD,M
Boys,82.1,2,River Hall,Weatherford,79.29,181.44,136.08,197.31,514.83,Single-ply,SBD,M
Boys,82.1,3,Jonah Maston,Mineral Wells,81.56,195.04,113.4,197.31,505.76,Single-ply,SBD,M
Boys,82.1,4,Carlos Amaro,Weatherford,78.74,163.29,104.33,170.1,437.72,Single-ply,SBD,M
Boys,82.1,5,Noah Elliott,Decatur,82.1,158.76,90.72,181.44,430.91,Single-ply,SBD,M
Boys,82.1,6,Isaiah Galvan,Mineral Wells,79.65,133.81,74.84,124.74,333.39,Single-ply,SBD,M
Boys,89.81,1,Ethan Herron,Weatherford,89.63,238.14,117.93,226.8,582.87,Single-ply,SBD,M
Boys,89.81,2,Tanner Knox,Weatherford,83.19,181.44,124.74,201.85,508.02,Single-ply,SBD,M
Boys,89.81,3,Ryan Goodwin,Mineral Wells,86.27,199.58,122.47,185.97,508.02,Single-ply,SBD,M
Boys,89.81,4,Nathan Selman,Decatur,86.27,176.9,97.52,181.44,455.86,Single-ply,SBD,M
Boys,89.81,5,Casey White,Decatur,85.82,174.63,97.52,174.63,446.79,Single-ply,SBD,M
Boys,89.81,6,JW Ethridge,Mineral Wells,83.46,142.88,83.91,136.08,362.87,Single-ply,SBD,M
Boys,99.79,1,Matteo Carrizales,Decatur,94.08,204.12,120.2,201.85,526.17,Single-ply,SBD,M
Boys,99.79,2,Zeke Baker,Weatherford,97.43,172.37,129.27,199.58,501.22,Single-ply,SBD,M
Boys,99.79,3,Cooper Coffee,Weatherford,98.34,181.44,113.4,204.12,498.95,Single-ply,SBD,M
Boys,99.79,4,Colby Westbrook,Decatur,91.26,183.7,97.52,201.85,483.08,Single-ply,SBD,M
Boys,99.79,DQ,Isaiah Baeza,Mineral Wells,94.08,,,,,Single-ply,SBD,M
Boys,109.77,1,Cody Henderson,Weatherford,106.59,244.94,149.69,244.94,639.57,Single-ply,SBD,M
Boys,109.77,2,Chandler Jackson,Weatherford,107.32,181.44,156.49,204.12,542.04,Single-ply,SBD,M
Boys,109.77,3,Brandon Hinojos,Mineral Wells,105.41,229.06,113.4,195.04,537.51,Single-ply,SBD,M
Boys,109.77,4,James White,Decatur,100.43,188.24,97.52,197.31,483.08,Single-ply,SBD,M
Boys,109.77,5,Ian Sanchez #2,Mineral Wells,107.77,115.67,56.7,124.74,297.1,Single-ply,SBD,M
Boys,124.74,1,Bradley Aaron,Mineral Wells,122.56,226.8,158.76,226.8,612.35,Single-ply,SBD,M
Boys,124.74,2,Cayde Taylor,Weatherford,115.03,204.12,113.4,181.44,498.95,Single-ply,SBD,M
Boys,124.74,3,Keaton Jordan,Decatur,123.01,210.92,102.06,156.49,469.47,Single-ply,SBD,M
Boys,124.74+,DQ,Moses Holmes,Decatur,130.54,,,,,Single-ply,SBD,M
Boys,124.74+,DQ,Kenson Vance,Decatur,132.99,,,,,Single-ply,SBD,M
Boys,,NS,Jace Duncan,Mineral Wells,,,,,,Single-ply,SBD,M
Boys,,NS,Daniel Lindley,Mineral Wells,,,,,,Single-ply,SBD,M
